DM Object: box 32768 MPI processes
  type: plex
box in 3 dimensions:
  Min/Max of 0-cells per rank: 729/729
  Min/Max of 1-cells per rank: 1944/1944
  Min/Max of 2-cells per rank: 1728/1728
  Min/Max of 3-cells per rank: 512/512
Labels:
  celltype: 4 strata with value/size (0 (729), 1 (1944), 4 (1728), 7 (512))
  depth: 4 strata with value/size (0 (729), 1 (1944), 2 (1728), 3 (512))
  marker: 1 strata with value/size (1 (817))
  Face Sets: 3 strata with value/size (1 (225), 3 (225), 6 (225))
Number equations N = 133432831
[0] <pc:gamg> PCSetUp_GAMG(): (null): level 0) N=133432831, n data rows=1, n data cols=1, nnz/row (ave)=64, block size 1, np=32768
[0] <pc:gamg> PCGAMGCreateGraph_AGG(): HEM and aggressive coarsening ignored: HEM using 5 iterations
[0] <pc:gamg> PCGAMGCreateGraph_AGG(): Filtering left 33.8523 % edges in graph (1.851930e+05 6.269200e+04)
[0] <is> MatCoarsenApply_HEM_private(): Start 5 iterations of HEM.
[0] <is> MatCoarsenApply_HEM_private(): [0] HEM iteration 0 with 31663 edges
[0] <is> MatCoarsenApply_HEM_private(): [0] 0.0) nactive edges=175483248, ncomm_procs=5, nEdges=31663, 9177848 deleted ghosts, N=133432831
[0] <is> MatCoarsenApply_HEM_private(): [0] 0.1) nactive edges=17207699, ncomm_procs=5, nEdges=31663, 2464548 deleted ghosts, N=133432831
[0] <is> MatCoarsenApply_HEM_private(): [0] 0.2) nactive edges=246702, ncomm_procs=5, nEdges=31663, 212 deleted ghosts, N=133432831
[0] <is> MatCoarsenApply_HEM_private(): [0] 0.3) nactive edges=81, ncomm_procs=5, nEdges=31663, 52 deleted ghosts, N=133432831
[0] <is> MatCoarsenApply_HEM_private(): [0] 0.4) nactive edges=0, ncomm_procs=5, nEdges=31663, 0 deleted ghosts, N=133432831
[0] <is> MatCoarsenApply_HEM_private(): [0] HEM iteration 1 with 8121 edges
[0] <is> MatCoarsenApply_HEM_private(): [0] 1.0) nactive edges=102076823, ncomm_procs=5, nEdges=8121, 5342352 deleted ghosts, N=133432831
[0] <is> MatCoarsenApply_HEM_private(): [0] 1.1) nactive edges=18673985, ncomm_procs=5, nEdges=8121, 3712656 deleted ghosts, N=133432831
[0] <is> MatCoarsenApply_HEM_private(): [0] 1.2) nactive edges=2170859, ncomm_procs=5, nEdges=8121, 459088 deleted ghosts, N=133432831
[0] <is> MatCoarsenApply_HEM_private(): [0] 1.3) nactive edges=34102, ncomm_procs=5, nEdges=8121, 162 deleted ghosts, N=133432831
[0] <is> MatCoarsenApply_HEM_private(): [0] 1.4) nactive edges=0, ncomm_procs=5, nEdges=8121, 0 deleted ghosts, N=133432831
[0] <is> MatCoarsenApply_HEM_private(): [0] HEM iteration 2 with 4112 edges
[0] <is> MatCoarsenApply_HEM_private(): [0] 2.0) nactive edges=57311947, ncomm_procs=6, nEdges=4112, 2406756 deleted ghosts, N=133432831
[0] <is> MatCoarsenApply_HEM_private(): [0] 2.1) nactive edges=12327453, ncomm_procs=6, nEdges=4112, 1167960 deleted ghosts, N=133432831
[0] <is> MatCoarsenApply_HEM_private(): [0] 2.2) nactive edges=3218152, ncomm_procs=6, nEdges=4112, 284344 deleted ghosts, N=133432831
[0] <is> MatCoarsenApply_HEM_private(): [0] 2.3) nactive edges=879982, ncomm_procs=6, nEdges=4112, 268430 deleted ghosts, N=133432831
[0] <is> MatCoarsenApply_HEM_private(): [0] 2.4) nactive edges=99523, ncomm_procs=6, nEdges=4112, 51450 deleted ghosts, N=133432831
[0] <is> MatCoarsenApply_HEM_private(): [0] 2.5) nactive edges=23374, ncomm_procs=6, nEdges=4112, 50 deleted ghosts, N=133432831
[0] <is> MatCoarsenApply_HEM_private(): [0] 2.6) nactive edges=0, ncomm_procs=6, nEdges=4112, 0 deleted ghosts, N=133432831
[0] <is> MatCoarsenApply_HEM_private(): [0] HEM iteration 3 with 1666 edges
[0] <is> MatCoarsenApply_HEM_private(): [0] 3.0) nactive edges=31515515, ncomm_procs=6, nEdges=1666, 1514466 deleted ghosts, N=133432831
[0] <is> MatCoarsenApply_HEM_private(): [0] 3.1) nactive edges=8365724, ncomm_procs=6, nEdges=1666, 1103174 deleted ghosts, N=133432831
[0] <is> MatCoarsenApply_HEM_private(): [0] 3.2) nactive edges=1891985, ncomm_procs=6, nEdges=1666, 498392 deleted ghosts, N=133432831
[0] <is> MatCoarsenApply_HEM_private(): [0] 3.3) nactive edges=233319, ncomm_procs=6, nEdges=1666, 33508 deleted ghosts, N=133432831
[0] <is> MatCoarsenApply_HEM_private(): [0] 3.4) nactive edges=2304, ncomm_procs=6, nEdges=1666, 214 deleted ghosts, N=133432831
[0] <is> MatCoarsenApply_HEM_private(): [0] 3.5) nactive edges=6, ncomm_procs=6, nEdges=1666, 4 deleted ghosts, N=133432831
[0] <is> MatCoarsenApply_HEM_private(): [0] 3.6) nactive edges=0, ncomm_procs=6, nEdges=1666, 0 deleted ghosts, N=133432831
[0] <is> MatCoarsenApply_HEM_private(): [0] HEM iteration 4 with 653 edges
[0] <is> MatCoarsenApply_HEM_private(): [0] 4.0) nactive edges=16472680, ncomm_procs=6, nEdges=653, 1186004 deleted ghosts, N=133432831
[0] <is> MatCoarsenApply_HEM_private(): [0] 4.1) nactive edges=3280616, ncomm_procs=6, nEdges=653, 404438 deleted ghosts, N=133432831
[0] <is> MatCoarsenApply_HEM_private(): [0] 4.2) nactive edges=892793, ncomm_procs=6, nEdges=653, 271692 deleted ghosts, N=133432831
[0] <is> MatCoarsenApply_HEM_private(): [0] 4.3) nactive edges=98133, ncomm_procs=6, nEdges=653, 7308 deleted ghosts, N=133432831
[0] <is> MatCoarsenApply_HEM_private(): [0] 4.4) nactive edges=8661, ncomm_procs=6, nEdges=653, 2070 deleted ghosts, N=133432831
[0] <is> MatCoarsenApply_HEM_private(): [0] 4.5) nactive edges=6, ncomm_procs=6, nEdges=653, 2 deleted ghosts, N=133432831
[0] <is> MatCoarsenApply_HEM_private(): [0] 4.6) nactive edges=1, ncomm_procs=6, nEdges=653, 0 deleted ghosts, N=133432831
[0] <is> MatCoarsenApply_HEM_private(): [0] 4.7) nactive edges=0, ncomm_procs=6, nEdges=653, 0 deleted ghosts, N=133432831
[0] <pc:gamg> PCGAMGProlongator_AGG(): (null): New grid 5276196 nodes
[0] <pc:gamg> PCGAMGOptProlongator_AGG(): (null): Smooth P0: max eigen=2.539995e+00 min=6.432868e-02 PC=jacobi
[0] <pc:gamg> PCGAMGOptProlongator_AGG(): (null): Smooth P0: level 0, cache spectra 0.0643287 2.54
[0] <pc:gamg> PCGAMGCreateLevel_GAMG(): (null): Coarse grid reduction from 32768 to 26381 active processes
[0] <pc:gamg> PCGAMGCreateLevel_GAMG(): (null): Finding factorable processor set stopped reduction: new_size=32768, neq(loc)=85
[0] <pc:gamg> PCSetUp_GAMG(): (null): 1) N=5276196, n data cols=1, nnz/row (ave)=206, 32768 active pes
[0] <pc:gamg> PCGAMGCreateGraph_AGG(): Filtering left 12.0868 % edges in graph (1.055700e+04 1.276000e+03)
[0] <is> MatCoarsenApply_HEM_private(): Start 5 iterations of HEM.
[0] <is> MatCoarsenApply_HEM_private(): [0] HEM iteration 0 with 778 edges
[0] <is> MatCoarsenApply_HEM_private(): [0] 0.0) nactive edges=25038133, ncomm_procs=6, nEdges=778, 337356 deleted ghosts, N=5276196
[0] <is> MatCoarsenApply_HEM_private(): [0] 0.1) nactive edges=6659213, ncomm_procs=6, nEdges=778, 605322 deleted ghosts, N=5276196
[0] <is> MatCoarsenApply_HEM_private(): [0] 0.2) nactive edges=1012869, ncomm_procs=6, nEdges=778, 195880 deleted ghosts, N=5276196
[0] <is> MatCoarsenApply_HEM_private(): [0] 0.3) nactive edges=158410, ncomm_procs=6, nEdges=778, 77656 deleted ghosts, N=5276196
[0] <is> MatCoarsenApply_HEM_private(): [0] 0.4) nactive edges=6982, ncomm_procs=6, nEdges=778, 2858 deleted ghosts, N=5276196
[0] <is> MatCoarsenApply_HEM_private(): [0] 0.5) nactive edges=120, ncomm_procs=6, nEdges=778, 92 deleted ghosts, N=5276196
[0] <is> MatCoarsenApply_HEM_private(): [0] 0.6) nactive edges=2, ncomm_procs=6, nEdges=778, 0 deleted ghosts, N=5276196
[0] <is> MatCoarsenApply_HEM_private(): [0] 0.7) nactive edges=0, ncomm_procs=6, nEdges=778, 0 deleted ghosts, N=5276196
[0] <is> MatCoarsenApply_HEM_private(): [0] HEM iteration 1 with 286 edges
[0] <is> MatCoarsenApply_HEM_private(): [0] 1.0) nactive edges=10376636, ncomm_procs=6, nEdges=286, 236636 deleted ghosts, N=5276196
[0] <is> MatCoarsenApply_HEM_private(): [0] 1.1) nactive edges=2668459, ncomm_procs=6, nEdges=286, 255824 deleted ghosts, N=5276196
[0] <is> MatCoarsenApply_HEM_private(): [0] 1.2) nactive edges=669513, ncomm_procs=6, nEdges=286, 121518 deleted ghosts, N=5276196
[0] <is> MatCoarsenApply_HEM_private(): [0] 1.3) nactive edges=152474, ncomm_procs=6, nEdges=286, 60238 deleted ghosts, N=5276196
[0] <is> MatCoarsenApply_HEM_private(): [0] 1.4) nactive edges=31419, ncomm_procs=6, nEdges=286, 11630 deleted ghosts, N=5276196
[0] <is> MatCoarsenApply_HEM_private(): [0] 1.5) nactive edges=6818, ncomm_procs=6, nEdges=286, 1772 deleted ghosts, N=5276196
[0] <is> MatCoarsenApply_HEM_private(): [0] 1.6) nactive edges=2465, ncomm_procs=6, nEdges=286, 1644 deleted ghosts, N=5276196
[0] <is> MatCoarsenApply_HEM_private(): [0] 1.7) nactive edges=0, ncomm_procs=6, nEdges=286, 0 deleted ghosts, N=5276196
[0] <is> MatCoarsenApply_HEM_private(): [0] HEM iteration 2 with 112 edges
[0] <is> MatCoarsenApply_HEM_private(): [0] 2.0) nactive edges=6829435, ncomm_procs=6, nEdges=112, 233408 deleted ghosts, N=5276196
[0] <is> MatCoarsenApply_HEM_private(): [0] 2.1) nactive edges=2454929, ncomm_procs=6, nEdges=112, 278772 deleted ghosts, N=5276196
[0] <is> MatCoarsenApply_HEM_private(): [0] 2.2) nactive edges=551059, ncomm_procs=6, nEdges=112, 41756 deleted ghosts, N=5276196
[0] <is> MatCoarsenApply_HEM_private(): [0] 2.3) nactive edges=159218, ncomm_procs=6, nEdges=112, 43552 deleted ghosts, N=5276196
[0] <is> MatCoarsenApply_HEM_private(): [0] 2.4) nactive edges=21628, ncomm_procs=6, nEdges=112, 15132 deleted ghosts, N=5276196
[0] <is> MatCoarsenApply_HEM_private(): [0] 2.5) nactive edges=765, ncomm_procs=6, nEdges=112, 232 deleted ghosts, N=5276196
[0] <is> MatCoarsenApply_HEM_private(): [0] 2.6) nactive edges=68, ncomm_procs=6, nEdges=112, 68 deleted ghosts, N=5276196
[0] <is> MatCoarsenApply_HEM_private(): [0] 2.7) nactive edges=0, ncomm_procs=6, nEdges=112, 0 deleted ghosts, N=5276196
[0] <is> MatCoarsenApply_HEM_private(): [0] HEM iteration 3 with 40 edges
[0] <is> MatCoarsenApply_HEM_private(): [0] 3.0) nactive edges=3557018, ncomm_procs=6, nEdges=40, 53426 deleted ghosts, N=5276196
[0] <is> MatCoarsenApply_HEM_private(): [0] 3.1) nactive edges=1128644, ncomm_procs=6, nEdges=40, 125368 deleted ghosts, N=5276196
[0] <is> MatCoarsenApply_HEM_private(): [0] 3.2) nactive edges=204262, ncomm_procs=6, nEdges=40, 25866 deleted ghosts, N=5276196
[0] <is> MatCoarsenApply_HEM_private(): [0] 3.3) nactive edges=51426, ncomm_procs=6, nEdges=40, 12658 deleted ghosts, N=5276196
[0] <is> MatCoarsenApply_HEM_private(): [0] 3.4) nactive edges=22417, ncomm_procs=6, nEdges=40, 2406 deleted ghosts, N=5276196
[0] <is> MatCoarsenApply_HEM_private(): [0] 3.5) nactive edges=18394, ncomm_procs=6, nEdges=40, 1106 deleted ghosts, N=5276196
[0] <is> MatCoarsenApply_HEM_private(): [0] 3.6) nactive edges=16214, ncomm_procs=6, nEdges=40, 1056 deleted ghosts, N=5276196
[0] <is> MatCoarsenApply_HEM_private(): [0] 3.7) nactive edges=14102, ncomm_procs=6, nEdges=40, 1054 deleted ghosts, N=5276196
[0] <is> MatCoarsenApply_HEM_private(): [0] 3.8) nactive edges=11994, ncomm_procs=6, nEdges=40, 1054 deleted ghosts, N=5276196
[0] <is> MatCoarsenApply_HEM_private(): [0] 3.9) nactive edges=9886, ncomm_procs=6, nEdges=40, 1054 deleted ghosts, N=5276196
[0] <is> MatCoarsenApply_HEM_private(): [0] 3.10) nactive edges=7780, ncomm_procs=6, nEdges=40, 1046 deleted ghosts, N=5276196
[0] <is> MatCoarsenApply_HEM_private(): [0] 3.11) nactive edges=5718, ncomm_procs=6, nEdges=40, 948 deleted ghosts, N=5276196
[0] <is> MatCoarsenApply_HEM_private(): [0] 3.12) nactive edges=3930, ncomm_procs=6, nEdges=40, 738 deleted ghosts, N=5276196
[0] <is> MatCoarsenApply_HEM_private(): [0] 3.13) nactive edges=2538, ncomm_procs=6, nEdges=40, 628 deleted ghosts, N=5276196
[0] <is> MatCoarsenApply_HEM_private(): [0] 3.14) nactive edges=1302, ncomm_procs=6, nEdges=40, 596 deleted ghosts, N=5276196
[0] <is> MatCoarsenApply_HEM_private(): [0] 3.15) nactive edges=110, ncomm_procs=6, nEdges=40, 60 deleted ghosts, N=5276196
[0] <is> MatCoarsenApply_HEM_private(): [0] 3.16) nactive edges=0, ncomm_procs=6, nEdges=40, 0 deleted ghosts, N=5276196
[0] <is> MatCoarsenApply_HEM_private(): [0] HEM iteration 4 with 13 edges
[0] <is> MatCoarsenApply_HEM_private(): [0] 4.0) nactive edges=2385100, ncomm_procs=4, nEdges=13, 32214 deleted ghosts, N=5276196
[0] <is> MatCoarsenApply_HEM_private(): [0] 4.1) nactive edges=1250971, ncomm_procs=4, nEdges=13, 108208 deleted ghosts, N=5276196
[0] <is> MatCoarsenApply_HEM_private(): [0] 4.2) nactive edges=342163, ncomm_procs=4, nEdges=13, 25894 deleted ghosts, N=5276196
[0] <is> MatCoarsenApply_HEM_private(): [0] 4.3) nactive edges=88525, ncomm_procs=4, nEdges=13, 18056 deleted ghosts, N=5276196
[0] <is> MatCoarsenApply_HEM_private(): [0] 4.4) nactive edges=32456, ncomm_procs=4, nEdges=13, 4588 deleted ghosts, N=5276196
[0] <is> MatCoarsenApply_HEM_private(): [0] 4.5) nactive edges=22773, ncomm_procs=4, nEdges=13, 1822 deleted ghosts, N=5276196
[0] <is> MatCoarsenApply_HEM_private(): [0] 4.6) nactive edges=18937, ncomm_procs=4, nEdges=13, 1064 deleted ghosts, N=5276196
[0] <is> MatCoarsenApply_HEM_private(): [0] 4.7) nactive edges=16471, ncomm_procs=4, nEdges=13, 1000 deleted ghosts, N=5276196
[0] <is> MatCoarsenApply_HEM_private(): [0] 4.8) nactive edges=13991, ncomm_procs=4, nEdges=13, 994 deleted ghosts, N=5276196
[0] <is> MatCoarsenApply_HEM_private(): [0] 4.9) nactive edges=11640, ncomm_procs=4, nEdges=13, 960 deleted ghosts, N=5276196
[0] <is> MatCoarsenApply_HEM_private(): [0] 4.10) nactive edges=9280, ncomm_procs=4, nEdges=13, 926 deleted ghosts, N=5276196
[0] <is> MatCoarsenApply_HEM_private(): [0] 4.11) nactive edges=7128, ncomm_procs=4, nEdges=13, 862 deleted ghosts, N=5276196
[0] <is> MatCoarsenApply_HEM_private(): [0] 4.12) nactive edges=5134, ncomm_procs=4, nEdges=13, 678 deleted ghosts, N=5276196
[0] <is> MatCoarsenApply_HEM_private(): [0] 4.13) nactive edges=3682, ncomm_procs=4, nEdges=13, 528 deleted ghosts, N=5276196
[0] <is> MatCoarsenApply_HEM_private(): [0] 4.14) nactive edges=2435, ncomm_procs=4, nEdges=13, 468 deleted ghosts, N=5276196
[0] <is> MatCoarsenApply_HEM_private(): [0] 4.15) nactive edges=1381, ncomm_procs=4, nEdges=13, 442 deleted ghosts, N=5276196
[0] <is> MatCoarsenApply_HEM_private(): [0] 4.16) nactive edges=319, ncomm_procs=4, nEdges=13, 152 deleted ghosts, N=5276196
[0] <is> MatCoarsenApply_HEM_private(): [0] 4.17) nactive edges=2, ncomm_procs=4, nEdges=13, 2 deleted ghosts, N=5276196
[0] <is> MatCoarsenApply_HEM_private(): [0] 4.18) nactive edges=0, ncomm_procs=4, nEdges=13, 0 deleted ghosts, N=5276196
[0] <pc:gamg> PCGAMGProlongator_AGG(): (null): New grid 213078 nodes
[0] <pc:gamg> PCGAMGOptProlongator_AGG(): (null): Smooth P0: max eigen=1.337661e+00 min=3.735699e-02 PC=jacobi
[0] <pc:gamg> PCGAMGOptProlongator_AGG(): (null): Smooth P0: level 1, cache spectra 0.037357 1.33766
[0] <pc:gamg> PCGAMGCreateLevel_GAMG(): (null): Coarse grid reduction from 32768 to 1065 active processes
[0] <pc:gamg> PCGAMGCreateLevel_GAMG(): (null): Number of equations (loc) 0 with simple aggregation
[0] <pc:gamg> PCSetUp_GAMG(): (null): 2) N=213078, n data cols=1, nnz/row (ave)=505, 1024 active pes
[0] <pc:gamg> PCGAMGCreateGraph_AGG(): Filtering left 10.245 % edges in graph (2.656900e+04 2.722000e+03)
[0] <is> MatCoarsenApply_HEM_private(): Start 5 iterations of HEM.
[0] <is> MatCoarsenApply_HEM_private(): [0] HEM iteration 0 with 1989 edges
[0] <is> MatCoarsenApply_HEM_private(): [0] 0.0) nactive edges=3358329, ncomm_procs=7, nEdges=1989, 28954 deleted ghosts, N=213078
[0] <is> MatCoarsenApply_HEM_private(): [0] 0.1) nactive edges=1308915, ncomm_procs=7, nEdges=1989, 41760 deleted ghosts, N=213078
[0] <is> MatCoarsenApply_HEM_private(): [0] 0.2) nactive edges=370527, ncomm_procs=7, nEdges=1989, 16000 deleted ghosts, N=213078
[0] <is> MatCoarsenApply_HEM_private(): [0] 0.3) nactive edges=104710, ncomm_procs=7, nEdges=1989, 6356 deleted ghosts, N=213078
[0] <is> MatCoarsenApply_HEM_private(): [0] 0.4) nactive edges=33377, ncomm_procs=7, nEdges=1989, 4254 deleted ghosts, N=213078
[0] <is> MatCoarsenApply_HEM_private(): [0] 0.5) nactive edges=8313, ncomm_procs=7, nEdges=1989, 1244 deleted ghosts, N=213078
[0] <is> MatCoarsenApply_HEM_private(): [0] 0.6) nactive edges=2418, ncomm_procs=7, nEdges=1989, 956 deleted ghosts, N=213078
[0] <is> MatCoarsenApply_HEM_private(): [0] 0.7) nactive edges=296, ncomm_procs=7, nEdges=1989, 108 deleted ghosts, N=213078
[0] <is> MatCoarsenApply_HEM_private(): [0] 0.8) nactive edges=17, ncomm_procs=7, nEdges=1989, 4 deleted ghosts, N=213078
[0] <is> MatCoarsenApply_HEM_private(): [0] 0.9) nactive edges=1, ncomm_procs=7, nEdges=1989, 0 deleted ghosts, N=213078
[0] <is> MatCoarsenApply_HEM_private(): [0] 0.10) nactive edges=0, ncomm_procs=7, nEdges=1989, 0 deleted ghosts, N=213078
[0] <is> MatCoarsenApply_HEM_private(): [0] HEM iteration 1 with 626 edges
[0] <is> MatCoarsenApply_HEM_private(): [0] 1.0) nactive edges=1731941, ncomm_procs=9, nEdges=626, 10552 deleted ghosts, N=213078
[0] <is> MatCoarsenApply_HEM_private(): [0] 1.1) nactive edges=731581, ncomm_procs=9, nEdges=626, 22726 deleted ghosts, N=213078
[0] <is> MatCoarsenApply_HEM_private(): [0] 1.2) nactive edges=178422, ncomm_procs=9, nEdges=626, 8704 deleted ghosts, N=213078
[0] <is> MatCoarsenApply_HEM_private(): [0] 1.3) nactive edges=45902, ncomm_procs=9, nEdges=626, 4832 deleted ghosts, N=213078
[0] <is> MatCoarsenApply_HEM_private(): [0] 1.4) nactive edges=10600, ncomm_procs=9, nEdges=626, 2020 deleted ghosts, N=213078
[0] <is> MatCoarsenApply_HEM_private(): [0] 1.5) nactive edges=2833, ncomm_procs=9, nEdges=626, 792 deleted ghosts, N=213078
[0] <is> MatCoarsenApply_HEM_private(): [0] 1.6) nactive edges=750, ncomm_procs=9, nEdges=626, 232 deleted ghosts, N=213078
[0] <is> MatCoarsenApply_HEM_private(): [0] 1.7) nactive edges=299, ncomm_procs=9, nEdges=626, 66 deleted ghosts, N=213078
[0] <is> MatCoarsenApply_HEM_private(): [0] 1.8) nactive edges=163, ncomm_procs=9, nEdges=626, 28 deleted ghosts, N=213078
[0] <is> MatCoarsenApply_HEM_private(): [0] 1.9) nactive edges=91, ncomm_procs=9, nEdges=626, 20 deleted ghosts, N=213078
[0] <is> MatCoarsenApply_HEM_private(): [0] 1.10) nactive edges=42, ncomm_procs=9, nEdges=626, 10 deleted ghosts, N=213078
[0] <is> MatCoarsenApply_HEM_private(): [0] 1.11) nactive edges=14, ncomm_procs=9, nEdges=626, 8 deleted ghosts, N=213078
[0] <is> MatCoarsenApply_HEM_private(): [0] 1.12) nactive edges=0, ncomm_procs=9, nEdges=626, 0 deleted ghosts, N=213078
[0] <is> MatCoarsenApply_HEM_private(): [0] HEM iteration 2 with 146 edges
[0] <is> MatCoarsenApply_HEM_private(): [0] 2.0) nactive edges=714672, ncomm_procs=10, nEdges=146, 2626 deleted ghosts, N=213078
[0] <is> MatCoarsenApply_HEM_private(): [0] 2.1) nactive edges=293733, ncomm_procs=10, nEdges=146, 11418 deleted ghosts, N=213078
[0] <is> MatCoarsenApply_HEM_private(): [0] 2.2) nactive edges=64176, ncomm_procs=10, nEdges=146, 3500 deleted ghosts, N=213078
[0] <is> MatCoarsenApply_HEM_private(): [0] 2.3) nactive edges=17320, ncomm_procs=10, nEdges=146, 2436 deleted ghosts, N=213078
[0] <is> MatCoarsenApply_HEM_private(): [0] 2.4) nactive edges=4721, ncomm_procs=10, nEdges=146, 1048 deleted ghosts, N=213078
[0] <is> MatCoarsenApply_HEM_private(): [0] 2.5) nactive edges=1255, ncomm_procs=10, nEdges=146, 436 deleted ghosts, N=213078
[0] <is> MatCoarsenApply_HEM_private(): [0] 2.6) nactive edges=346, ncomm_procs=10, nEdges=146, 90 deleted ghosts, N=213078
[0] <is> MatCoarsenApply_HEM_private(): [0] 2.7) nactive edges=141, ncomm_procs=10, nEdges=146, 34 deleted ghosts, N=213078
[0] <is> MatCoarsenApply_HEM_private(): [0] 2.8) nactive edges=60, ncomm_procs=10, nEdges=146, 20 deleted ghosts, N=213078
[0] <is> MatCoarsenApply_HEM_private(): [0] 2.9) nactive edges=12, ncomm_procs=10, nEdges=146, 8 deleted ghosts, N=213078
[0] <is> MatCoarsenApply_HEM_private(): [0] 2.10) nactive edges=0, ncomm_procs=10, nEdges=146, 0 deleted ghosts, N=213078
[0] <is> MatCoarsenApply_HEM_private(): [0] HEM iteration 3 with 6 edges
[0] <is> MatCoarsenApply_HEM_private(): [0] 3.0) nactive edges=307055, ncomm_procs=4, nEdges=6, 1858 deleted ghosts, N=213078
[0] <is> MatCoarsenApply_HEM_private(): [0] 3.1) nactive edges=127389, ncomm_procs=4, nEdges=6, 7304 deleted ghosts, N=213078
[0] <is> MatCoarsenApply_HEM_private(): [0] 3.2) nactive edges=25343, ncomm_procs=4, nEdges=6, 2544 deleted ghosts, N=213078
[0] <is> MatCoarsenApply_HEM_private(): [0] 3.3) nactive edges=6294, ncomm_procs=4, nEdges=6, 1238 deleted ghosts, N=213078
[0] <is> MatCoarsenApply_HEM_private(): [0] 3.4) nactive edges=1562, ncomm_procs=4, nEdges=6, 526 deleted ghosts, N=213078
[0] <is> MatCoarsenApply_HEM_private(): [0] 3.5) nactive edges=245, ncomm_procs=4, nEdges=6, 110 deleted ghosts, N=213078
[0] <is> MatCoarsenApply_HEM_private(): [0] 3.6) nactive edges=25, ncomm_procs=4, nEdges=6, 12 deleted ghosts, N=213078
[0] <is> MatCoarsenApply_HEM_private(): [0] 3.7) nactive edges=1, ncomm_procs=4, nEdges=6, 0 deleted ghosts, N=213078
[0] <is> MatCoarsenApply_HEM_private(): [0] 3.8) nactive edges=0, ncomm_procs=4, nEdges=6, 0 deleted ghosts, N=213078
[0] <is> MatCoarsenApply_HEM_private(): [0] HEM iteration 4 with 4 edges
[0] <is> MatCoarsenApply_HEM_private(): [0] 4.0) nactive edges=158551, ncomm_procs=4, nEdges=4, 1188 deleted ghosts, N=213078
[0] <is> MatCoarsenApply_HEM_private(): [0] 4.1) nactive edges=73039, ncomm_procs=4, nEdges=4, 5046 deleted ghosts, N=213078
[0] <is> MatCoarsenApply_HEM_private(): [0] 4.2) nactive edges=13735, ncomm_procs=4, nEdges=4, 1630 deleted ghosts, N=213078
[0] <is> MatCoarsenApply_HEM_private(): [0] 4.3) nactive edges=3233, ncomm_procs=4, nEdges=4, 732 deleted ghosts, N=213078
[0] <is> MatCoarsenApply_HEM_private(): [0] 4.4) nactive edges=769, ncomm_procs=4, nEdges=4, 282 deleted ghosts, N=213078
[0] <is> MatCoarsenApply_HEM_private(): [0] 4.5) nactive edges=126, ncomm_procs=4, nEdges=4, 74 deleted ghosts, N=213078
[0] <is> MatCoarsenApply_HEM_private(): [0] 4.6) nactive edges=13, ncomm_procs=4, nEdges=4, 8 deleted ghosts, N=213078
[0] <is> MatCoarsenApply_HEM_private(): [0] 4.7) nactive edges=0, ncomm_procs=4, nEdges=4, 0 deleted ghosts, N=213078
[0] <pc:gamg> PCGAMGProlongator_AGG(): (null): New grid 7749 nodes
[0] <pc:gamg> PCGAMGOptProlongator_AGG(): (null): Smooth P0: max eigen=1.245162e+00 min=4.335823e-02 PC=jacobi
[0] <pc:gamg> PCGAMGOptProlongator_AGG(): (null): Smooth P0: level 2, cache spectra 0.0433582 1.24516
[0] <pc:gamg> PCGAMGCreateLevel_GAMG(): (null): Coarse grid reduction from 1024 to 39 active processes
[0] <pc:gamg> PCGAMGCreateLevel_GAMG(): (null): Number of equations (loc) 0 with simple aggregation
[0] <pc:gamg> PCSetUp_GAMG(): (null): 3) N=7749, n data cols=1, nnz/row (ave)=720, 32 active pes
[0] <pc:gamg> PCGAMGCreateGraph_AGG(): Filtering left 8.86556 % edges in graph (2.743200e+04 2.432000e+03)
[0] <is> MatCoarsenApply_HEM_private(): Start 5 iterations of HEM.
[0] <is> MatCoarsenApply_HEM_private(): [0] HEM iteration 0 with 2187 edges
[0] <is> MatCoarsenApply_HEM_private(): [0] 0.0) nactive edges=236462, ncomm_procs=6, nEdges=2187, 174 deleted ghosts, N=7749
[0] <is> MatCoarsenApply_HEM_private(): [0] 0.1) nactive edges=105342, ncomm_procs=6, nEdges=2187, 1600 deleted ghosts, N=7749
[0] <is> MatCoarsenApply_HEM_private(): [0] 0.2) nactive edges=26814, ncomm_procs=6, nEdges=2187, 546 deleted ghosts, N=7749
[0] <is> MatCoarsenApply_HEM_private(): [0] 0.3) nactive edges=7285, ncomm_procs=6, nEdges=2187, 292 deleted ghosts, N=7749
[0] <is> MatCoarsenApply_HEM_private(): [0] 0.4) nactive edges=2136, ncomm_procs=6, nEdges=2187, 156 deleted ghosts, N=7749
[0] <is> MatCoarsenApply_HEM_private(): [0] 0.5) nactive edges=605, ncomm_procs=6, nEdges=2187, 112 deleted ghosts, N=7749
[0] <is> MatCoarsenApply_HEM_private(): [0] 0.6) nactive edges=149, ncomm_procs=6, nEdges=2187, 50 deleted ghosts, N=7749
[0] <is> MatCoarsenApply_HEM_private(): [0] 0.7) nactive edges=30, ncomm_procs=6, nEdges=2187, 14 deleted ghosts, N=7749
[0] <is> MatCoarsenApply_HEM_private(): [0] 0.8) nactive edges=2, ncomm_procs=6, nEdges=2187, 2 deleted ghosts, N=7749
[0] <is> MatCoarsenApply_HEM_private(): [0] 0.9) nactive edges=0, ncomm_procs=6, nEdges=2187, 0 deleted ghosts, N=7749
[0] <is> MatCoarsenApply_HEM_private(): [0] HEM iteration 1 with 156 edges
[0] <is> MatCoarsenApply_HEM_private(): [0] 1.0) nactive edges=96698, ncomm_procs=3, nEdges=156, 92 deleted ghosts, N=7749
[0] <is> MatCoarsenApply_HEM_private(): [0] 1.1) nactive edges=46730, ncomm_procs=3, nEdges=156, 844 deleted ghosts, N=7749
[0] <is> MatCoarsenApply_HEM_private(): [0] 1.2) nactive edges=13516, ncomm_procs=3, nEdges=156, 276 deleted ghosts, N=7749
[0] <is> MatCoarsenApply_HEM_private(): [0] 1.3) nactive edges=4264, ncomm_procs=3, nEdges=156, 176 deleted ghosts, N=7749
[0] <is> MatCoarsenApply_HEM_private(): [0] 1.4) nactive edges=1392, ncomm_procs=3, nEdges=156, 118 deleted ghosts, N=7749
[0] <is> MatCoarsenApply_HEM_private(): [0] 1.5) nactive edges=442, ncomm_procs=3, nEdges=156, 64 deleted ghosts, N=7749
[0] <is> MatCoarsenApply_HEM_private(): [0] 1.6) nactive edges=115, ncomm_procs=3, nEdges=156, 22 deleted ghosts, N=7749
[0] <is> MatCoarsenApply_HEM_private(): [0] 1.7) nactive edges=32, ncomm_procs=3, nEdges=156, 14 deleted ghosts, N=7749
[0] <is> MatCoarsenApply_HEM_private(): [0] 1.8) nactive edges=6, ncomm_procs=3, nEdges=156, 4 deleted ghosts, N=7749
[0] <is> MatCoarsenApply_HEM_private(): [0] 1.9) nactive edges=0, ncomm_procs=3, nEdges=156, 0 deleted ghosts, N=7749
[0] <is> MatCoarsenApply_HEM_private(): [0] HEM iteration 2 with 15 edges
[0] <is> MatCoarsenApply_HEM_private(): [0] 2.0) nactive edges=36223, ncomm_procs=3, nEdges=15, 82 deleted ghosts, N=7749
[0] <is> MatCoarsenApply_HEM_private(): [0] 2.1) nactive edges=15057, ncomm_procs=3, nEdges=15, 444 deleted ghosts, N=7749
[0] <is> MatCoarsenApply_HEM_private(): [0] 2.2) nactive edges=3468, ncomm_procs=3, nEdges=15, 188 deleted ghosts, N=7749
[0] <is> MatCoarsenApply_HEM_private(): [0] 2.3) nactive edges=895, ncomm_procs=3, nEdges=15, 90 deleted ghosts, N=7749
[0] <is> MatCoarsenApply_HEM_private(): [0] 2.4) nactive edges=278, ncomm_procs=3, nEdges=15, 48 deleted ghosts, N=7749
[0] <is> MatCoarsenApply_HEM_private(): [0] 2.5) nactive edges=82, ncomm_procs=3, nEdges=15, 24 deleted ghosts, N=7749
[0] <is> MatCoarsenApply_HEM_private(): [0] 2.6) nactive edges=24, ncomm_procs=3, nEdges=15, 8 deleted ghosts, N=7749
[0] <is> MatCoarsenApply_HEM_private(): [0] 2.7) nactive edges=5, ncomm_procs=3, nEdges=15, 4 deleted ghosts, N=7749
[0] <is> MatCoarsenApply_HEM_private(): [0] 2.8) nactive edges=0, ncomm_procs=3, nEdges=15, 0 deleted ghosts, N=7749
[0] <is> MatCoarsenApply_HEM_private(): [0] HEM iteration 3 with 9 edges
[0] <is> MatCoarsenApply_HEM_private(): [0] 3.0) nactive edges=16008, ncomm_procs=3, nEdges=9, 38 deleted ghosts, N=7749
[0] <is> MatCoarsenApply_HEM_private(): [0] 3.1) nactive edges=7701, ncomm_procs=3, nEdges=9, 296 deleted ghosts, N=7749
[0] <is> MatCoarsenApply_HEM_private(): [0] 3.2) nactive edges=1482, ncomm_procs=3, nEdges=9, 110 deleted ghosts, N=7749
[0] <is> MatCoarsenApply_HEM_private(): [0] 3.3) nactive edges=290, ncomm_procs=3, nEdges=9, 54 deleted ghosts, N=7749
[0] <is> MatCoarsenApply_HEM_private(): [0] 3.4) nactive edges=42, ncomm_procs=3, nEdges=9, 18 deleted ghosts, N=7749
[0] <is> MatCoarsenApply_HEM_private(): [0] 3.5) nactive edges=4, ncomm_procs=3, nEdges=9, 2 deleted ghosts, N=7749
[0] <is> MatCoarsenApply_HEM_private(): [0] 3.6) nactive edges=0, ncomm_procs=3, nEdges=9, 0 deleted ghosts, N=7749
[0] <is> MatCoarsenApply_HEM_private(): [0] HEM iteration 4 with 7 edges
[0] <is> MatCoarsenApply_HEM_private(): [0] 4.0) nactive edges=7108, ncomm_procs=3, nEdges=7, 32 deleted ghosts, N=7749
[0] <is> MatCoarsenApply_HEM_private(): [0] 4.1) nactive edges=3480, ncomm_procs=3, nEdges=7, 172 deleted ghosts, N=7749
[0] <is> MatCoarsenApply_HEM_private(): [0] 4.2) nactive edges=711, ncomm_procs=3, nEdges=7, 54 deleted ghosts, N=7749
[0] <is> MatCoarsenApply_HEM_private(): [0] 4.3) nactive edges=225, ncomm_procs=3, nEdges=7, 32 deleted ghosts, N=7749
[0] <is> MatCoarsenApply_HEM_private(): [0] 4.4) nactive edges=67, ncomm_procs=3, nEdges=7, 16 deleted ghosts, N=7749
[0] <is> MatCoarsenApply_HEM_private(): [0] 4.5) nactive edges=14, ncomm_procs=3, nEdges=7, 6 deleted ghosts, N=7749
[0] <is> MatCoarsenApply_HEM_private(): [0] 4.6) nactive edges=2, ncomm_procs=3, nEdges=7, 2 deleted ghosts, N=7749
[0] <is> MatCoarsenApply_HEM_private(): [0] 4.7) nactive edges=0, ncomm_procs=3, nEdges=7, 0 deleted ghosts, N=7749
[0] <pc:gamg> PCGAMGProlongator_AGG(): (null): New grid 279 nodes
[0] <pc:gamg> PCGAMGOptProlongator_AGG(): (null): Smooth P0: max eigen=1.499082e+00 min=1.203954e-01 PC=jacobi
[0] <pc:gamg> PCGAMGOptProlongator_AGG(): (null): Smooth P0: level 3, cache spectra 0.120395 1.49908
[0] <pc:gamg> PCGAMGCreateLevel_GAMG(): (null): Force coarsest grid reduction to 1 active processes
[0] <pc:gamg> PCGAMGCreateLevel_GAMG(): (null): Number of equations (loc) 1 with simple aggregation
[0] <pc:gamg> PCSetUp_GAMG(): (null): 4) N=279, n data cols=1, nnz/row (ave)=251, 1 active pes
[0] <pc:gamg> PCSetUp_GAMG(): (null): 5 levels, operator complexity = 1.14184
[0] <pc:gamg> PCSetUp_GAMG(): (null): PCSetUp_GAMG: call KSPChebyshevSetEigenvalues on level 3 (N=7749) with emax = 1.49908 emin = 0.120395
[0] <pc:gamg> PCSetUp_GAMG(): (null): PCSetUp_GAMG: call KSPChebyshevSetEigenvalues on level 2 (N=213078) with emax = 1.24516 emin = 0.0433582
[0] <pc:gamg> PCSetUp_GAMG(): (null): PCSetUp_GAMG: call KSPChebyshevSetEigenvalues on level 1 (N=5276196) with emax = 1.33766 emin = 0.037357
[0] <pc:gamg> PCSetUp_GAMG(): (null): PCSetUp_GAMG: call KSPChebyshevSetEigenvalues on level 0 (N=133432831) with emax = 2.54 emin = 0.0643287
[0] <pc:gamg> PCSetUp_MG(): Using outer operators to define finest grid operator 
  because PCMGGetSmoother(pc,nlevels-1,&ksp);KSPSetOperators(ksp,...); was not called.
    0 KSP Residual norm 1.744207195017e+01 
    1 KSP Residual norm 1.442398591834e+00 
    2 KSP Residual norm 7.571179856133e-01 
    3 KSP Residual norm 4.722444097600e-01 
    4 KSP Residual norm 3.434098850859e-01 
    5 KSP Residual norm 2.252302345677e-01 
    6 KSP Residual norm 1.293594723987e-01 
    7 KSP Residual norm 7.457587909611e-02 
    8 KSP Residual norm 4.405148884191e-02 
    9 KSP Residual norm 2.660935125742e-02 
   10 KSP Residual norm 1.408292942541e-02 
   11 KSP Residual norm 7.930513242791e-03 
   12 KSP Residual norm 5.275179254290e-03 
   13 KSP Residual norm 3.242181213527e-03 
   14 KSP Residual norm 2.029131590830e-03 
   15 KSP Residual norm 1.279481039057e-03 
   16 KSP Residual norm 8.381473804126e-04 
   17 KSP Residual norm 5.084741383956e-04 
   18 KSP Residual norm 3.316441537006e-04 
   19 KSP Residual norm 2.262071288969e-04 
   20 KSP Residual norm 1.394315130161e-04 
   21 KSP Residual norm 8.010712020848e-05 
   22 KSP Residual norm 4.634378803929e-05 
   23 KSP Residual norm 2.792567445306e-05 
   24 KSP Residual norm 1.718410441659e-05 
   25 KSP Residual norm 1.181790393838e-05 
   26 KSP Residual norm 7.633991434197e-06 
   27 KSP Residual norm 4.330186162224e-06 
   28 KSP Residual norm 2.347267826998e-06 
   29 KSP Residual norm 1.356165219640e-06 
   30 KSP Residual norm 7.862359369004e-07 
   31 KSP Residual norm 4.724338770919e-07 
   32 KSP Residual norm 2.850831070895e-07 
   33 KSP Residual norm 1.788229028094e-07 
   34 KSP Residual norm 1.072167586128e-07 
   35 KSP Residual norm 6.384021705806e-08 
   36 KSP Residual norm 3.948877902326e-08 
   37 KSP Residual norm 2.455017031039e-08 
   38 KSP Residual norm 1.500549708140e-08 
   39 KSP Residual norm 9.498212625727e-09 
   40 KSP Residual norm 5.879617338036e-09 
   41 KSP Residual norm 3.452405650188e-09 
   42 KSP Residual norm 2.008466016219e-09 
   43 KSP Residual norm 1.165807256232e-09 
   44 KSP Residual norm 6.576301992747e-10 
   45 KSP Residual norm 3.921118924466e-10 
   46 KSP Residual norm 2.568419430795e-10 
   47 KSP Residual norm 1.716597421984e-10 
   48 KSP Residual norm 1.058964619514e-10 
   49 KSP Residual norm 6.425850467309e-11 
   50 KSP Residual norm 3.769308045292e-11 
   51 KSP Residual norm 2.091289568974e-11 
   52 KSP Residual norm 1.206538270894e-11 
  Linear solve converged due to CONVERGED_RTOL iterations 52
SNES Object: 32768 MPI processes
  type: ksponly
  maximum iterations=50, maximum function evaluations=10000
  tolerances: relative=1e-08, absolute=1e-50, solution=1e-08
  total number of linear solver iterations=52
  total number of function evaluations=1
  norm schedule ALWAYS
  Jacobian is never rebuilt
  KSP Object: 32768 MPI processes
    type: cg
    maximum iterations=10000, initial guess is zero
    tolerances:  relative=1e-12, absolute=1e-50, divergence=10000.
    left preconditioning
    using UNPRECONDITIONED norm type for convergence test
  PC Object: 32768 MPI processes
    type: gamg
      type is MULTIPLICATIVE, levels=5 cycles=v
        Cycles per PCApply=1
        Using externally compute Galerkin coarse grid matrices
        GAMG specific options
          Threshold for dropping small values in graph on each level =     0.04     0.01     0.0025     0.000625     0.00015625    
          Threshold scaling factor for each level not specified = 0.25
          AGG specific options
            Number of levels of aggressive coarsening 0
            Number smoothing steps 1
          Complexity:    grid = 1.0412    operator = 1.14184
    Coarse grid solver -- level 0 -------------------------------
      KSP Object: (mg_coarse_) 32768 MPI processes
        type: preonly
        maximum iterations=10000, initial guess is zero
        tolerances:  relative=1e-05, absolute=1e-50, divergence=10000.
        left preconditioning
        using NONE norm type for convergence test
      PC Object: (mg_coarse_) 32768 MPI processes
        type: bjacobi
          number of blocks = 32768
          Local solver information for first block is in the following KSP and PC objects on rank 0:
          Use -mg_coarse_ksp_view ::ascii_info_detail to display information for all blocks
          KSP Object: (mg_coarse_sub_) 1 MPI process
            type: preonly
            maximum iterations=1, initial guess is zero
            tolerances:  relative=1e-05, absolute=1e-50, divergence=10000.
            left preconditioning
            using NONE norm type for convergence test
          PC Object: (mg_coarse_sub_) 1 MPI process
            type: lu
              out-of-place factorization
              tolerance for zero pivot 2.22045e-14
              using diagonal shift on blocks to prevent zero pivot [INBLOCKS]
              matrix ordering: nd
              factor fill ratio given 5., needed 1.09414
                Factored matrix follows:
                  Mat Object: (mg_coarse_sub_) 1 MPI process
                    type: seqaijkokkos
                    rows=279, cols=279
                    package used to perform factorization: kokkos
                    total: nonzeros=76873, allocated nonzeros=76873
                      using I-node routines: found 84 nodes, limit used is 5
            linear system matrix = precond matrix:
            Mat Object: (mg_coarse_sub_) 1 MPI process
              type: seqaijkokkos
              rows=279, cols=279
              total: nonzeros=70259, allocated nonzeros=70259
              total number of mallocs used during MatSetValues calls=0
                not using I-node routines
        linear system matrix = precond matrix:
        Mat Object: 32768 MPI processes
          type: mpiaijkokkos
          rows=279, cols=279
          total: nonzeros=70259, allocated nonzeros=70259
          total number of mallocs used during MatSetValues calls=0
            not using I-node (on process 0) routines
    Down solver (pre-smoother) on level 1 -------------------------------
      KSP Object: (mg_levels_1_) 32768 MPI processes
        type: chebyshev
          Chebyshev polynomial of first kind
          eigenvalue targets used: min 0.299816, max 1.57404
          eigenvalues provided (min 0.120395, max 1.49908) with transform: [0. 0.2; 0. 1.05]
        maximum iterations=2, nonzero initial guess
        tolerances:  relative=1e-05, absolute=1e-50, divergence=10000.
        left preconditioning
        using NONE norm type for convergence test
      PC Object: (mg_levels_1_) 32768 MPI processes
        type: jacobi
          type DIAGONAL
        linear system matrix = precond matrix:
        Mat Object: 32768 MPI processes
          type: mpiaijkokkos
          rows=7749, cols=7749
          total: nonzeros=5581583, allocated nonzeros=5581583
          total number of mallocs used during MatSetValues calls=0
            not using I-node (on process 0) routines
    Up solver (post-smoother) same as down solver (pre-smoother)
    Down solver (pre-smoother) on level 2 -------------------------------
      KSP Object: (mg_levels_2_) 32768 MPI processes
        type: chebyshev
          Chebyshev polynomial of first kind
          eigenvalue targets used: min 0.249032, max 1.30742
          eigenvalues provided (min 0.0433582, max 1.24516) with transform: [0. 0.2; 0. 1.05]
        maximum iterations=2, nonzero initial guess
        tolerances:  relative=1e-05, absolute=1e-50, divergence=10000.
        left preconditioning
        using NONE norm type for convergence test
      PC Object: (mg_levels_2_) 32768 MPI processes
        type: jacobi
          type DIAGONAL
        linear system matrix = precond matrix:
        Mat Object: 32768 MPI processes
          type: mpiaijkokkos
          rows=213078, cols=213078
          total: nonzeros=107715024, allocated nonzeros=107715024
          total number of mallocs used during MatSetValues calls=0
            not using I-node (on process 0) routines
    Up solver (post-smoother) same as down solver (pre-smoother)
    Down solver (pre-smoother) on level 3 -------------------------------
      KSP Object: (mg_levels_3_) 32768 MPI processes
        type: chebyshev
          Chebyshev polynomial of first kind
          eigenvalue targets used: min 0.267532, max 1.40454
          eigenvalues provided (min 0.037357, max 1.33766) with transform: [0. 0.2; 0. 1.05]
        maximum iterations=2, nonzero initial guess
        tolerances:  relative=1e-05, absolute=1e-50, divergence=10000.
        left preconditioning
        using NONE norm type for convergence test
      PC Object: (mg_levels_3_) 32768 MPI processes
        type: jacobi
          type DIAGONAL
        linear system matrix = precond matrix:
        Mat Object: 32768 MPI processes
          type: mpiaijkokkos
          rows=5276196, cols=5276196
          total: nonzeros=1088994956, allocated nonzeros=1088994956
          total number of mallocs used during MatSetValues calls=0
            not using I-node (on process 0) routines
    Up solver (post-smoother) same as down solver (pre-smoother)
    Down solver (pre-smoother) on level 4 -------------------------------
      KSP Object: (mg_levels_4_) 32768 MPI processes
        type: chebyshev
          Chebyshev polynomial of first kind
          eigenvalue targets used: min 0.507999, max 2.667
          eigenvalues provided (min 0.0643287, max 2.54) with transform: [0. 0.2; 0. 1.05]
        maximum iterations=2, nonzero initial guess
        tolerances:  relative=1e-05, absolute=1e-50, divergence=10000.
        left preconditioning
        using NONE norm type for convergence test
      PC Object: (mg_levels_4_) 32768 MPI processes
        type: jacobi
          type DIAGONAL
        linear system matrix = precond matrix:
        Mat Object: 32768 MPI processes
          type: mpiaijkokkos
          rows=133432831, cols=133432831
          total: nonzeros=8477185319, allocated nonzeros=8477185319
          total number of mallocs used during MatSetValues calls=0
            not using I-node (on process 0) routines
    Up solver (post-smoother) same as down solver (pre-smoother)
    linear system matrix = precond matrix:
    Mat Object: 32768 MPI processes
      type: mpiaijkokkos
      rows=133432831, cols=133432831
      total: nonzeros=8477185319, allocated nonzeros=8477185319
      total number of mallocs used during MatSetValues calls=0
        not using I-node (on process 0) routines
    0 KSP Residual norm 1.744207195017e+01 
    1 KSP Residual norm 1.442398591834e+00 
    2 KSP Residual norm 7.571179856133e-01 
    3 KSP Residual norm 4.722444097600e-01 
    4 KSP Residual norm 3.434098850859e-01 
    5 KSP Residual norm 2.252302345677e-01 
    6 KSP Residual norm 1.293594723987e-01 
    7 KSP Residual norm 7.457587909611e-02 
    8 KSP Residual norm 4.405148884191e-02 
    9 KSP Residual norm 2.660935125742e-02 
   10 KSP Residual norm 1.408292942541e-02 
   11 KSP Residual norm 7.930513242791e-03 
   12 KSP Residual norm 5.275179254290e-03 
   13 KSP Residual norm 3.242181213527e-03 
   14 KSP Residual norm 2.029131590830e-03 
   15 KSP Residual norm 1.279481039057e-03 
   16 KSP Residual norm 8.381473804126e-04 
   17 KSP Residual norm 5.084741383956e-04 
   18 KSP Residual norm 3.316441537006e-04 
   19 KSP Residual norm 2.262071288969e-04 
   20 KSP Residual norm 1.394315130161e-04 
   21 KSP Residual norm 8.010712020848e-05 
   22 KSP Residual norm 4.634378803929e-05 
   23 KSP Residual norm 2.792567445306e-05 
   24 KSP Residual norm 1.718410441659e-05 
   25 KSP Residual norm 1.181790393838e-05 
   26 KSP Residual norm 7.633991434197e-06 
   27 KSP Residual norm 4.330186162224e-06 
   28 KSP Residual norm 2.347267826998e-06 
   29 KSP Residual norm 1.356165219640e-06 
   30 KSP Residual norm 7.862359369004e-07 
   31 KSP Residual norm 4.724338770919e-07 
   32 KSP Residual norm 2.850831070895e-07 
   33 KSP Residual norm 1.788229028094e-07 
   34 KSP Residual norm 1.072167586128e-07 
   35 KSP Residual norm 6.384021705806e-08 
   36 KSP Residual norm 3.948877902326e-08 
   37 KSP Residual norm 2.455017031039e-08 
   38 KSP Residual norm 1.500549708140e-08 
   39 KSP Residual norm 9.498212625727e-09 
   40 KSP Residual norm 5.879617338036e-09 
   41 KSP Residual norm 3.452405650188e-09 
   42 KSP Residual norm 2.008466016219e-09 
   43 KSP Residual norm 1.165807256232e-09 
   44 KSP Residual norm 6.576301992747e-10 
   45 KSP Residual norm 3.921118924466e-10 
   46 KSP Residual norm 2.568419430795e-10 
   47 KSP Residual norm 1.716597421984e-10 
   48 KSP Residual norm 1.058964619514e-10 
   49 KSP Residual norm 6.425850467309e-11 
   50 KSP Residual norm 3.769308045292e-11 
   51 KSP Residual norm 2.091289568974e-11 
   52 KSP Residual norm 1.206538270894e-11 
  Linear solve converged due to CONVERGED_RTOL iterations 52
SNES Object: 32768 MPI processes
  type: ksponly
  maximum iterations=50, maximum function evaluations=10000
  tolerances: relative=1e-08, absolute=1e-50, solution=1e-08
  total number of linear solver iterations=52
  total number of function evaluations=1
  norm schedule ALWAYS
  Jacobian is never rebuilt
  KSP Object: 32768 MPI processes
    type: cg
    maximum iterations=10000, initial guess is zero
    tolerances:  relative=1e-12, absolute=1e-50, divergence=10000.
    left preconditioning
    using UNPRECONDITIONED norm type for convergence test
  PC Object: 32768 MPI processes
    type: gamg
      type is MULTIPLICATIVE, levels=5 cycles=v
        Cycles per PCApply=1
        Using externally compute Galerkin coarse grid matrices
        GAMG specific options
          Threshold for dropping small values in graph on each level =     0.04     0.01     0.0025     0.000625     0.00015625    
          Threshold scaling factor for each level not specified = 0.25
          AGG specific options
            Number of levels of aggressive coarsening 0
            Number smoothing steps 1
          Complexity:    grid = 1.0412    operator = 1.14184
    Coarse grid solver -- level 0 -------------------------------
      KSP Object: (mg_coarse_) 32768 MPI processes
        type: preonly
        maximum iterations=10000, initial guess is zero
        tolerances:  relative=1e-05, absolute=1e-50, divergence=10000.
        left preconditioning
        using NONE norm type for convergence test
      PC Object: (mg_coarse_) 32768 MPI processes
        type: bjacobi
          number of blocks = 32768
          Local solver information for first block is in the following KSP and PC objects on rank 0:
          Use -mg_coarse_ksp_view ::ascii_info_detail to display information for all blocks
          KSP Object: (mg_coarse_sub_) 1 MPI process
            type: preonly
            maximum iterations=1, initial guess is zero
            tolerances:  relative=1e-05, absolute=1e-50, divergence=10000.
            left preconditioning
            using NONE norm type for convergence test
          PC Object: (mg_coarse_sub_) 1 MPI process
            type: lu
              out-of-place factorization
              tolerance for zero pivot 2.22045e-14
              using diagonal shift on blocks to prevent zero pivot [INBLOCKS]
              matrix ordering: nd
              factor fill ratio given 5., needed 1.09414
                Factored matrix follows:
                  Mat Object: (mg_coarse_sub_) 1 MPI process
                    type: seqaijkokkos
                    rows=279, cols=279
                    package used to perform factorization: kokkos
                    total: nonzeros=76873, allocated nonzeros=76873
                      using I-node routines: found 84 nodes, limit used is 5
            linear system matrix = precond matrix:
            Mat Object: (mg_coarse_sub_) 1 MPI process
              type: seqaijkokkos
              rows=279, cols=279
              total: nonzeros=70259, allocated nonzeros=70259
              total number of mallocs used during MatSetValues calls=0
                not using I-node routines
        linear system matrix = precond matrix:
        Mat Object: 32768 MPI processes
          type: mpiaijkokkos
          rows=279, cols=279
          total: nonzeros=70259, allocated nonzeros=70259
          total number of mallocs used during MatSetValues calls=0
            not using I-node (on process 0) routines
    Down solver (pre-smoother) on level 1 -------------------------------
      KSP Object: (mg_levels_1_) 32768 MPI processes
        type: chebyshev
          Chebyshev polynomial of first kind
          eigenvalue targets used: min 0.299816, max 1.57404
          eigenvalues provided (min 0.120395, max 1.49908) with transform: [0. 0.2; 0. 1.05]
        maximum iterations=2, nonzero initial guess
        tolerances:  relative=1e-05, absolute=1e-50, divergence=10000.
        left preconditioning
        using NONE norm type for convergence test
      PC Object: (mg_levels_1_) 32768 MPI processes
        type: jacobi
          type DIAGONAL
        linear system matrix = precond matrix:
        Mat Object: 32768 MPI processes
          type: mpiaijkokkos
          rows=7749, cols=7749
          total: nonzeros=5581583, allocated nonzeros=5581583
          total number of mallocs used during MatSetValues calls=0
            not using I-node (on process 0) routines
    Up solver (post-smoother) same as down solver (pre-smoother)
    Down solver (pre-smoother) on level 2 -------------------------------
      KSP Object: (mg_levels_2_) 32768 MPI processes
        type: chebyshev
          Chebyshev polynomial of first kind
          eigenvalue targets used: min 0.249032, max 1.30742
          eigenvalues provided (min 0.0433582, max 1.24516) with transform: [0. 0.2; 0. 1.05]
        maximum iterations=2, nonzero initial guess
        tolerances:  relative=1e-05, absolute=1e-50, divergence=10000.
        left preconditioning
        using NONE norm type for convergence test
      PC Object: (mg_levels_2_) 32768 MPI processes
        type: jacobi
          type DIAGONAL
        linear system matrix = precond matrix:
        Mat Object: 32768 MPI processes
          type: mpiaijkokkos
          rows=213078, cols=213078
          total: nonzeros=107715024, allocated nonzeros=107715024
          total number of mallocs used during MatSetValues calls=0
            not using I-node (on process 0) routines
    Up solver (post-smoother) same as down solver (pre-smoother)
    Down solver (pre-smoother) on level 3 -------------------------------
      KSP Object: (mg_levels_3_) 32768 MPI processes
        type: chebyshev
          Chebyshev polynomial of first kind
          eigenvalue targets used: min 0.267532, max 1.40454
          eigenvalues provided (min 0.037357, max 1.33766) with transform: [0. 0.2; 0. 1.05]
        maximum iterations=2, nonzero initial guess
        tolerances:  relative=1e-05, absolute=1e-50, divergence=10000.
        left preconditioning
        using NONE norm type for convergence test
      PC Object: (mg_levels_3_) 32768 MPI processes
        type: jacobi
          type DIAGONAL
        linear system matrix = precond matrix:
        Mat Object: 32768 MPI processes
          type: mpiaijkokkos
          rows=5276196, cols=5276196
          total: nonzeros=1088994956, allocated nonzeros=1088994956
          total number of mallocs used during MatSetValues calls=0
            not using I-node (on process 0) routines
    Up solver (post-smoother) same as down solver (pre-smoother)
    Down solver (pre-smoother) on level 4 -------------------------------
      KSP Object: (mg_levels_4_) 32768 MPI processes
        type: chebyshev
          Chebyshev polynomial of first kind
          eigenvalue targets used: min 0.507999, max 2.667
          eigenvalues provided (min 0.0643287, max 2.54) with transform: [0. 0.2; 0. 1.05]
        maximum iterations=2, nonzero initial guess
        tolerances:  relative=1e-05, absolute=1e-50, divergence=10000.
        left preconditioning
        using NONE norm type for convergence test
      PC Object: (mg_levels_4_) 32768 MPI processes
        type: jacobi
          type DIAGONAL
        linear system matrix = precond matrix:
        Mat Object: 32768 MPI processes
          type: mpiaijkokkos
          rows=133432831, cols=133432831
          total: nonzeros=8477185319, allocated nonzeros=8477185319
          total number of mallocs used during MatSetValues calls=0
            not using I-node (on process 0) routines
    Up solver (post-smoother) same as down solver (pre-smoother)
    linear system matrix = precond matrix:
    Mat Object: 32768 MPI processes
      type: mpiaijkokkos
      rows=133432831, cols=133432831
      total: nonzeros=8477185319, allocated nonzeros=8477185319
      total number of mallocs used during MatSetValues calls=0
        not using I-node (on process 0) routines
****************************************************************************************************************************************************************
***                                WIDEN YOUR WINDOW TO 160 CHARACTERS.  Use 'enscript -r -fCourier9' to print this document                                 ***
****************************************************************************************************************************************************************

------------------------------------------------------------------ PETSc Performance Summary: ------------------------------------------------------------------

/global/u2/m/madams/petsc/src/snes/tests/data/../ex13 on a arch-kokkos-opt named nid001004 with 32768 processors, by madams Fri Feb  9 04:35:58 2024
Using Petsc Development GIT revision: v3.20.4-590-g26f22146603  GIT Date: 2024-02-07 12:58:08 -0500

                         Max       Max/Min     Avg       Total
Time (sec):           2.186e+02     1.000   2.186e+02
Objects:              0.000e+00     0.000   0.000e+00
Flops:                6.485e+08     2.323   3.682e+08  1.206e+13
Flops/sec:            2.966e+06     2.323   1.684e+06  5.518e+10
MPI Msg Count:        8.174e+06     9.456   1.667e+06  5.464e+10
MPI Msg Len (bytes):  1.549e+09     1.910   8.922e+02  4.875e+13
MPI Reductions:       3.301e+05     1.000

Flop counting convention: 1 flop = 1 real number operation of type (multiply/divide/add/subtract)
                            e.g., VecAXPY() for real vectors of length N --> 2N flops
                            and VecAXPY() for complex vectors of length N --> 8N flops

Summary of Stages:   ----- Time ------  ----- Flop ------  --- Messages ---  -- Message Lengths --  -- Reductions --
                        Avg     %Total     Avg     %Total    Count   %Total     Avg         %Total    Count   %Total
 0:      Main Stage: 2.1384e+02  97.8%  6.3733e+12  52.8%  5.418e+10  99.2%  8.951e+02       99.5%  3.299e+05  99.9%
 1:      Solve only: 4.7865e+00   2.2%  5.6908e+12  47.2%  4.602e+08   0.8%  5.521e+02        0.5%  2.220e+02   0.1%

------------------------------------------------------------------------------------------------------------------------
See the 'Profiling' chapter of the users' manual for details on interpreting output.
Phase summary info:
   Count: number of times phase was executed
   Time and Flop: Max - maximum over all processors
                  Ratio - ratio of maximum to minimum over all processors
   Mess: number of messages sent
   AvgLen: average message length (bytes)
   Reduct: number of global reductions
   Global: entire computation
   Stage: stages of a computation. Set stages with PetscLogStagePush() and PetscLogStagePop().
      %T - percent time in this phase         %F - percent flop in this phase
      %M - percent messages in this phase     %L - percent message lengths in this phase
      %R - percent reductions in this phase
   Total Mflop/s: 10e-6 * (sum of flop over all processors)/(max time over all processors)
   GPU Mflop/s: 10e-6 * (sum of flop on GPU over all processors)/(max GPU time over all processors)
   CpuToGpu Count: total number of CPU to GPU copies per processor
   CpuToGpu Size (Mbytes): 10e-6 * (total size of CPU to GPU copies per processor)
   GpuToCpu Count: total number of GPU to CPU copies per processor
   GpuToCpu Size (Mbytes): 10e-6 * (total size of GPU to CPU copies per processor)
   GPU %F: percent flops on GPU in this event
------------------------------------------------------------------------------------------------------------------------
Event                Count      Time (sec)     Flop                              --- Global ---  --- Stage ----  Total   GPU    - CpuToGpu -   - GpuToCpu - GPU
                   Max Ratio  Max     Ratio   Max  Ratio  Mess   AvgLen  Reduct  %T %F %M %L %R  %T %F %M %L %R Mflop/s Mflop/s Count   Size   Count   Size  %F
---------------------------------------------------------------------------------------------------------------------------------------------------------------

--- Event Stage 0: Main Stage

BuildTwoSided      99167 1.0 8.5819e+01 1.4 0.00e+00 0.0 8.3e+09 8.0e+00 9.9e+04 29  0 15  0 30  30  0 15  0 30     0       0      0 0.00e+00    0 0.00e+00  0
BuildTwoSidedF       740 1.0 5.8692e-01 1.2 0.00e+00 0.0 5.3e+06 6.6e+03 7.4e+02  0  0  0  0  0   0  0  0  0  0     0       0      0 0.00e+00    0 0.00e+00  0
MatMult             1262 1.4 1.8742e+00 1.3 2.93e+08 2.6 4.0e+08 6.4e+02 0.0e+00  1 42  1  1  0   1 80  1  1  0 2722176       0    992 1.56e+01  990 1.56e+01  100
MatMultAdd           208 1.0 4.2964e-01 2.8 7.01e+06 2.0 3.9e+07 1.1e+02 0.0e+00  0  1  0  0  0   0  3  0  0  0 371503       0    211 2.58e-01  107 2.58e-01  100
MatMultTranspose     208 1.0 4.4282e-01 1.7 7.58e+06 2.2 3.9e+07 1.1e+02 0.0e+00  0  1  0  0  0   0  3  0  0  0 361637       0    108 2.60e-01  211 2.58e-01  100
MatSolve              52 0.0 3.0870e-03 0.0 7.98e+06 0.0 0.0e+00 0.0e+00 0.0e+00  0  0  0  0  0   0  0  0  0  0  2585       0      0 0.00e+00    0 0.00e+00  0
MatLUFactorSym         1 1.0 5.3077e-03 530.3 0.00e+00 0.0 0.0e+00 0.0e+00 0.0e+00  0  0  0  0  0   0  0  0  0  0     0       0      0 0.00e+00    0 0.00e+00  0
MatLUFactorNum         1 1.0 6.1465e-03 1138.0 1.40e+07 0.0 0.0e+00 0.0e+00 0.0e+00  0  0  0  0  0   0  0  0  0  0  2271       0      0 0.00e+00    0 0.00e+00  0
MatConvert            16 1.0 5.7047e-01 1.2 0.00e+00 0.0 1.2e+07 3.1e+02 5.2e+01  0  0  0  0  0   0  0  0  0  0     0       0      0 0.00e+00    0 0.00e+00  0
MatScale              32 1.0 1.1503e-01 8.4 1.58e+06 2.6 7.8e+06 2.8e+02 0.0e+00  0  0  0  0  0   0  0  0  0  0 244401       0      6 9.20e-02    4 6.13e-02  80
MatResidual          208 1.0 4.4566e-01 1.6 6.47e+07 2.9 8.5e+07 6.2e+02 0.0e+00  0  8  0  0  0   0 16  0  0  0 2291261       0    211 3.19e+00  211 3.19e+00  100
MatAssemblyBegin    5428 1.0 1.5832e-01 1.5 0.00e+00 0.0 5.3e+06 6.6e+03 6.4e+01  0  0  0  0  0   0  0  0  0  0     0       0      0 0.00e+00    0 0.00e+00  0
MatAssemblyEnd      5428 1.0 1.5975e+00 1.7 4.32e+04 0.0 4.4e+07 9.3e+01 3.6e+02  0  0  0  0  0   1  0  0  0  0   803       0      0 0.00e+00    0 0.00e+00  0
MatGetRowIJ            1 0.0 1.8758e-04 0.0 0.00e+00 0.0 0.0e+00 0.0e+00 0.0e+00  0  0  0  0  0   0  0  0  0  0     0       0      0 0.00e+00    0 0.00e+00  0
MatCreateSubMat        6 1.0 3.5366e-01 1.0 0.00e+00 0.0 6.1e+05 3.0e+03 9.0e+01  0  0  0  0  0   0  0  0  0  0     0       0      0 0.00e+00    0 0.00e+00  0
MatGetOrdering         1 0.0 4.2434e-04 0.0 0.00e+00 0.0 0.0e+00 0.0e+00 0.0e+00  0  0  0  0  0   0  0  0  0  0     0       0      0 0.00e+00    0 0.00e+00  0
MatCoarsen             4 1.0 6.5691e+01 1.0 9.80e+05 1.8 3.8e+08 1.6e+02 1.4e+03 30  0  1  0  0  31  0  1  0  0   379       0      0 0.00e+00    0 0.00e+00  0
MatZeroEntries        21 1.0 7.5332e-03 22.2 0.00e+00 0.0 0.0e+00 0.0e+00 0.0e+00  0  0  0  0  0   0  0  0  0  0     0       0      0 0.00e+00    0 0.00e+00  0
MatView                8 1.3 1.1073e+00 1415.7 0.00e+00 0.0 0.0e+00 0.0e+00 6.0e+00  0  0  0  0  0   0  0  0  0  0     0       0      0 0.00e+00    0 0.00e+00  0
MatAXPY                4 1.0 7.7831e-02 1.2 4.64e+03 1.3 0.0e+00 0.0e+00 4.0e+00  0  0  0  0  0   0  0  0  0  0  1785       0      0 0.00e+00    0 0.00e+00  0
MatTranspose          40 1.0 1.0861e-03 1.4 0.00e+00 0.0 0.0e+00 0.0e+00 0.0e+00  0  0  0  0  0   0  0  0  0  0     0       0      0 0.00e+00    0 0.00e+00  0
MatMatMultSym         44 1.0 1.4408e+00 1.0 0.00e+00 0.0 1.3e+07 3.2e+02 3.2e+01  1  0  0  0  0   1  0  0  0  0     0       0      4 6.13e-02    4 6.13e-02  0
MatMatMultNum         14 1.0 2.2077e-04 4.7 8.47e+04 0.0 0.0e+00 0.0e+00 0.0e+00  0  0  0  0  0   0  0  0  0  0  6813       0      0 0.00e+00    0 0.00e+00  0
MatPtAPSymbolic       24 1.0 3.4958e+00 1.0 0.00e+00 0.0 6.0e+07 1.6e+03 2.0e+02  2  0  0  0  0   2  0  0  0  0     0       0      8 1.79e+00    8 1.79e+00  0
MatPtAPNumeric        24 1.0 1.1596e-01 1.2 7.64e+05 1.8 1.4e+07 5.0e+02 1.2e+02  0  0  0  0  0   0  0  0  0  0 165599       0      0 0.00e+00    0 0.00e+00  0
MatGetLocalMat        20 1.0 9.2134e-04 1.5 0.00e+00 0.0 0.0e+00 0.0e+00 0.0e+00  0  0  0  0  0   0  0  0  0  0     0       0      0 0.00e+00    0 0.00e+00  0
MatGetBrAoCol         20 1.0 8.6824e-03 3.3 0.00e+00 0.0 1.8e+07 2.9e+02 0.0e+00  0  0  0  0  0   0  0  0  0  0     0       0      0 0.00e+00    0 0.00e+00  0
MatSetPreallCOO       20 1.0 1.2364e-04 2.2 0.00e+00 0.0 0.0e+00 0.0e+00 0.0e+00  0  0  0  0  0   0  0  0  0  0     0       0      0 0.00e+00    0 0.00e+00  0
MatSetValuesCOO       20 1.0 1.0654e-04 3.9 0.00e+00 0.0 0.0e+00 0.0e+00 0.0e+00  0  0  0  0  0   0  0  0  0  0     0       0      0 0.00e+00    0 0.00e+00  0
KSPSetUp              11 1.0 4.6554e-02 1.8 0.00e+00 0.0 0.0e+00 0.0e+00 0.0e+00  0  0  0  0  0   0  0  0  0  0     0       0      0 0.00e+00    0 0.00e+00  0
KSPSolve               1 1.0 4.4154e+00 1.0 3.04e+08 2.5 4.6e+08 5.5e+02 2.1e+02  2 46  1  1  0   2 86  1  1  0 1245574       0   1269 1.55e+01 1268 1.55e+01  100
SNESSolve              1 1.0 7.7109e+01 1.0 3.38e+08 2.3 9.2e+08 4.9e+02 2.1e+03 35 53  2  1  1  36 100  2  1  1 82437       0   1339 1.82e+01 1331 1.80e+01  90
SNESSetUp              1 1.0 2.1390e-01 1.0 0.00e+00 0.0 5.7e+06 1.5e+04 2.2e+01  0  0  0  0  0   0  0  0  0  0     0       0      0 0.00e+00    0 0.00e+00  0
SNESFunctionEval       1 1.0 7.7919e-02 1.3 6.74e+06 1.0 8.7e+05 7.1e+02 3.0e+00  0  2  0  0  0   0  3  0  0  0 2740464       0      7 7.04e-02    4 2.52e-02  0
SNESJacobianEval       1 1.0 4.5464e-01 1.4 1.20e+07 1.0 6.5e+05 4.3e+04 2.0e+00  0  3  0  0  0   0  6  0  0  0 849305       0      2 1.26e-02    2 1.26e-02  0
DMRefine               3 1.0 2.0261e-02 1.0 0.00e+00 0.0 5.4e+06 1.5e+02 3.8e+01  0  0  0  0  0   0  0  0  0  0     0       0      0 0.00e+00    0 0.00e+00  0
DMCreateMat            1 1.0 2.0947e-01 1.0 0.00e+00 0.0 5.7e+06 1.5e+04 1.9e+01  0  0  0  0  0   0  0  0  0  0     0       0      0 0.00e+00    0 0.00e+00  0
DMPlexCrFromOpts       1 1.0 4.2003e-02 1.1 0.00e+00 0.0 0.0e+00 0.0e+00 1.0e+00  0  0  0  0  0   0  0  0  0  0     0       0      0 0.00e+00    0 0.00e+00  0
Mesh Partition         1 1.0 1.3108e+01 1.7 0.00e+00 0.0 1.6e+05 2.2e+02 8.0e+00  4  0  0  0  0   4  0  0  0  0     0       0      0 0.00e+00    0 0.00e+00  0
Mesh Migration         1 1.0 2.6734e+01 1.2 0.00e+00 0.0 7.9e+05 1.8e+02 3.2e+01 12  0  0  0  0  12  0  0  0  0     0       0      0 0.00e+00    0 0.00e+00  0
DMPlexPartSelf         1 1.0 3.8907e-01 2042.3 0.00e+00 0.0 0.0e+00 0.0e+00 0.0e+00  0  0  0  0  0   0  0  0  0  0     0       0      0 0.00e+00    0 0.00e+00  0
DMPlexPartLblInv       1 1.0 1.6484e+00 1.7 0.00e+00 0.0 0.0e+00 0.0e+00 3.0e+00  1  0  0  0  0   1  0  0  0  0     0       0      0 0.00e+00    0 0.00e+00  0
DMPlexPartLblSF        1 1.0 6.2900e+00 404.8 0.00e+00 0.0 6.6e+04 1.1e+02 1.0e+00  0  0  0  0  0   0  0  0  0  0     0       0      0 0.00e+00    0 0.00e+00  0
DMPlexPartStrtSF       1 1.0 1.3181e-01 2.4 0.00e+00 0.0 3.3e+04 4.3e+02 0.0e+00  0  0  0  0  0   0  0  0  0  0     0       0      0 0.00e+00    0 0.00e+00  0
DMPlexPointSF          1 1.0 5.1702e-01 1.0 0.00e+00 0.0 6.6e+04 5.4e+02 0.0e+00  0  0  0  0  0   0  0  0  0  0     0       0      0 0.00e+00    0 0.00e+00  0
DMPlexInterp          30 1.0 1.7559e-03 1.8 0.00e+00 0.0 0.0e+00 0.0e+00 0.0e+00  0  0  0  0  0   0  0  0  0  0     0       0      0 0.00e+00    0 0.00e+00  0
DMPlexDistribute       1 1.0 3.5096e+01 1.0 0.00e+00 0.0 1.0e+06 2.1e+02 4.3e+01 16  0  0  0  0  16  0  0  0  0     0       0      0 0.00e+00    0 0.00e+00  0
DMPlexDistCones        1 1.0 6.1891e+00 1.0 0.00e+00 0.0 2.0e+05 2.9e+02 2.0e+00  3  0  0  0  0   3  0  0  0  0     0       0      0 0.00e+00    0 0.00e+00  0
DMPlexDistLabels       1 1.0 9.1739e+00 1.0 0.00e+00 0.0 3.3e+05 1.8e+02 2.4e+01  4  0  0  0  0   4  0  0  0  0     0       0      0 0.00e+00    0 0.00e+00  0
DMPlexDistField        1 1.0 6.0388e+00 1.0 0.00e+00 0.0 2.3e+05 8.7e+01 2.0e+00  3  0  0  0  0   3  0  0  0  0     0       0      0 0.00e+00    0 0.00e+00  0
DMPlexStratify        48 1.0 6.9774e-02 5.9 0.00e+00 0.0 0.0e+00 0.0e+00 5.0e+00  0  0  0  0  0   0  0  0  0  0     0       0      0 0.00e+00    0 0.00e+00  0
DMPlexSymmetrize      48 1.0 1.5536e-02 75.9 0.00e+00 0.0 0.0e+00 0.0e+00 0.0e+00  0  0  0  0  0   0  0  0  0  0     0       0      0 0.00e+00    0 0.00e+00  0
DMPlexPrealloc         1 1.0 2.0539e-01 1.0 0.00e+00 0.0 5.7e+06 1.5e+04 1.7e+01  0  0  0  0  0   0  0  0  0  0     0       0      0 0.00e+00    0 0.00e+00  0
DMPlexResidualFE       1 1.0 3.5216e-02 1.8 6.50e+06 1.0 0.0e+00 0.0e+00 0.0e+00  0  2  0  0  0   0  3  0  0  0 6045686       0      0 0.00e+00    0 0.00e+00  0
DMPlexJacobianFE       1 1.0 4.4315e-01 1.4 1.18e+07 1.0 4.3e+05 6.3e+04 2.0e+00  0  3  0  0  0   0  6  0  0  0 869947       0      0 0.00e+00    0 0.00e+00  0
DMPlexGenerate         1 1.0 4.1971e-02 1.1 0.00e+00 0.0 0.0e+00 0.0e+00 1.0e+00  0  0  0  0  0   0  0  0  0  0     0       0      0 0.00e+00    0 0.00e+00  0
DMPlexTransform        3 1.0 1.5242e-02 1.1 0.00e+00 0.0 5.4e+06 1.5e+02 2.0e+01  0  0  0  0  0   0  0  0  0  0     0       0      0 0.00e+00    0 0.00e+00  0
SFSetGraph         98434 1.0 5.8781e-02 6.6 0.00e+00 0.0 0.0e+00 0.0e+00 0.0e+00  0  0  0  0  0   0  0  0  0  0     0       0      0 0.00e+00    0 0.00e+00  0
SFSetUp            98427 1.0 1.0022e+02 1.6 0.00e+00 0.0 1.7e+10 4.3e+02 9.8e+04 30  0 30 14 30  31  0 31 15 30     0       0      0 0.00e+00    0 0.00e+00  0
SFBcastBegin      196683 1.0 2.8800e+00 3.5 0.00e+00 0.0 3.0e+10 9.2e+02 0.0e+00  1  0 54 56  0   1  0 55 56  0     0       0      2 3.89e-02   12 1.08e+00  0
SFBcastEnd        196683 1.0 3.0766e+01 14.7 0.00e+00 0.0 0.0e+00 0.0e+00 0.0e+00 13  0  0  0  0  13  0  0  0  0     0       0     13 1.09e+00    0 0.00e+00  0
SFReduceBegin      32788 1.0 9.6787e-01 9.4 0.00e+00 0.0 7.1e+09 1.9e+03 0.0e+00  0  0 13 28  0   0  0 13 28  0     0       0      0 0.00e+00    6 8.02e-01  0
SFReduceEnd        32788 1.0 9.6938e-01 20.3 8.17e+02 0.0 0.0e+00 0.0e+00 0.0e+00  0  0  0  0  0   0  0  0  0  0    27       0      6 8.02e-01    0 0.00e+00  100
SFFetchOpBegin         2 1.0 6.9785e-04 118.3 0.00e+00 0.0 4.3e+05 2.2e+04 0.0e+00  0  0  0  0  0   0  0  0  0  0     0       0      0 0.00e+00    0 0.00e+00  0
SFFetchOpEnd           2 1.0 4.6630e-03 8.5 0.00e+00 0.0 4.3e+05 2.2e+04 0.0e+00  0  0  0  0  0   0  0  0  0  0     0       0      0 0.00e+00    0 0.00e+00  0
SFCreateEmbed          6 1.0 3.3905e-02 12.3 0.00e+00 0.0 1.1e+06 5.6e+01 0.0e+00  0  0  0  0  0   0  0  0  0  0     0       0      0 0.00e+00    0 0.00e+00  0
SFDistSection      65543 1.0 4.1318e+01 1.2 0.00e+00 0.0 4.3e+10 8.0e+02 9.8e+04 18  0 78 70 30  18  0 79 70 30     0       0      0 0.00e+00    0 0.00e+00  0
SFSectionSF        65548 1.0 6.7366e+01 1.6 0.00e+00 0.0 2.3e+09 5.4e+01 6.6e+04 20  0  4  0 20  21  0  4  0 20     0       0      0 0.00e+00    0 0.00e+00  0
SFRemoteOff            5 1.0 9.2995e-03 4.7 0.00e+00 0.0 3.0e+06 2.1e+02 2.0e+00  0  0  0  0  0   0  0  0  0  0     0       0      0 0.00e+00    0 0.00e+00  0
SFPack            231512 1.0 5.8679e-01 3.1 0.00e+00 0.0 0.0e+00 0.0e+00 0.0e+00  0  0  0  0  0   0  0  0  0  0     0       0      5 6.76e-02    0 0.00e+00  0
SFUnpack          231514 1.0 4.0947e-01 7.1 5.72e+05 227.5 0.0e+00 0.0e+00 0.0e+00  0  0  0  0  0   0  0  0  0  0  1352       0      2 8.77e-03    0 0.00e+00  100
VecTDot              198 1.0 8.0541e-01 1.3 1.08e+06 1.2 0.0e+00 0.0e+00 2.0e+02  0  0  0  0  0   0  1  0  0  0 43057       0      0 0.00e+00    0 0.00e+00  100
VecNorm               53 1.0 1.8233e-01 1.1 4.34e+05 1.2 0.0e+00 0.0e+00 5.3e+01  0  0  0  0  0   0  0  0  0  0 77563       0      0 0.00e+00    0 0.00e+00  100
VecCopy              635 1.0 1.3473e+00 1.4 0.00e+00 0.0 0.0e+00 0.0e+00 0.0e+00  1  0  0  0  0   1  0  0  0  0     0       0      0 0.00e+00    0 0.00e+00  0
VecSet               262 1.0 3.4801e-01 1.8 0.00e+00 0.0 0.0e+00 0.0e+00 0.0e+00  0  0  0  0  0   0  0  0  0  0     0       0      0 0.00e+00    0 0.00e+00  0
VecAXPY              185 1.0 9.3987e-02 1.9 1.04e+06 1.2 0.0e+00 0.0e+00 0.0e+00  0  0  0  0  0   0  1  0  0  0 357263       0      0 0.00e+00    0 0.00e+00  100
VecAYPX             1335 1.0 1.4594e-02 2.5 3.37e+06 1.3 0.0e+00 0.0e+00 0.0e+00  0  1  0  0  0   0  2  0  0  0 7044090       0      0 0.00e+00    0 0.00e+00  100
VecAXPBYCZ           416 1.0 8.1704e-03 1.7 2.41e+06 1.3 0.0e+00 0.0e+00 0.0e+00  0  1  0  0  0   0  1  0  0  0 8842145       0      0 0.00e+00    0 0.00e+00  100
VecAssemblyBegin     675 1.0 4.3082e-01 1.2 0.00e+00 0.0 0.0e+00 0.0e+00 6.7e+02  0  0  0  0  0   0  0  0  0  0     0       0      0 0.00e+00    0 0.00e+00  0
VecAssemblyEnd       675 1.0 1.4147e-03 1.5 0.00e+00 0.0 0.0e+00 0.0e+00 0.0e+00  0  0  0  0  0   0  0  0  0  0     0       0      0 0.00e+00    0 0.00e+00  0
VecPointwiseMult     876 1.0 4.9272e-03 1.8 1.02e+06 1.3 0.0e+00 0.0e+00 0.0e+00  0  0  0  0  0   0  0  0  0  0 6175054       0      0 0.00e+00    0 0.00e+00  100
VecScatterBegin     2039 1.0 1.8170e+00 2.0 0.00e+00 0.0 6.9e+08 4.5e+02 0.0e+00  1  0  1  1  0   1  0  1  1  0     0       0      4 6.13e-02 1313 1.62e+01  0
VecScatterEnd       2039 1.0 1.4598e+00 3.6 5.71e+05 249.7 0.0e+00 0.0e+00 0.0e+00  0  0  0  0  0   0  0  0  0  0   362       0   1314 1.62e+01    0 0.00e+00  100
DualSpaceSetUp         5 1.0 1.0367e-02 1.7 3.13e+03 1.0 0.0e+00 0.0e+00 0.0e+00  0  0  0  0  0   0  0  0  0  0  9906       0      0 0.00e+00    0 0.00e+00  0
FESetUp                5 1.0 2.0883e-03 3.6 0.00e+00 0.0 0.0e+00 0.0e+00 0.0e+00  0  0  0  0  0   0  0  0  0  0     0       0      0 0.00e+00    0 0.00e+00  0
PCSetUp_GAMG+          1 1.0 7.2302e+01 1.0 1.52e+07 2.6 4.6e+08 3.8e+02 1.8e+03 33  2  1  0  1  34  4  1  0  1  3555       0     61 2.59e+00   57 2.52e+00  90
 PCGAMGCreateG         4 1.0 5.1713e-01 1.1 1.23e+06 2.9 8.2e+06 3.7e+02 8.0e+00  0  0  0  0  0   0  0  0  0  0 37435       0      6 9.20e-02    4 6.13e-02  100
 GAMG Coarsen          8 1.0 6.5700e+01 1.0 9.80e+05 1.8 3.8e+08 1.6e+02 1.4e+03 30  0  1  0  0  31  0  1  0  0   379       0      0 0.00e+00    0 0.00e+00  0
  GAMG MIS/Agg         4 1.0 6.5691e+01 1.0 9.80e+05 1.8 3.8e+08 1.6e+02 1.4e+03 30  0  1  0  0  31  0  1  0  0   379       0      0 0.00e+00    0 0.00e+00  0
 PCGAMGProl            4 1.0 1.5782e-01 1.0 0.00e+00 0.0 2.6e+06 6.9e+02 4.8e+01  0  0  0  0  0   0  0  0  0  0     0       0      0 0.00e+00    0 0.00e+00  0
  GAMG Prol-col        4 1.0 9.3692e-03 1.4 0.00e+00 0.0 8.8e+05 8.1e+02 8.0e+00  0  0  0  0  0   0  0  0  0  0     0       0      0 0.00e+00    0 0.00e+00  0
  GAMG Prol-lift       4 1.0 1.3837e-01 1.0 0.00e+00 0.0 1.8e+06 6.3e+02 2.4e+01  0  0  0  0  0   0  0  0  0  0     0       0      0 0.00e+00    0 0.00e+00  0
 PCGAMGOptProl         4 1.0 1.9895e+00 1.0 1.30e+07 2.7 2.9e+07 4.8e+02 1.3e+02  1  2  0  0  0   1  3  0  0  0 106951       0     47 7.05e-01   45 6.75e-01  100
  GAMG smooth          4 1.0 1.5219e+00 1.0 1.39e+05 2.0 1.3e+07 3.2e+02 3.6e+01  1  0  0  0  0   1  0  0  0  0  2108       0      4 6.13e-02    4 6.13e-02  96
 PCGAMGCreateL         4 1.0 3.7720e+00 1.0 0.00e+00 0.0 4.0e+07 2.3e+03 2.3e+02  2  0  0  0  0   2  0  0  0  0     0       0      8 1.79e+00    8 1.79e+00  0
  GAMG PtAP            4 1.0 3.2847e+00 1.0 0.00e+00 0.0 3.9e+07 2.3e+03 6.4e+01  2  0  0  0  0   2  0  0  0  0     0       0      8 1.79e+00    8 1.79e+00  0
  GAMG Reduce          4 1.0 4.8743e-01 1.0 0.00e+00 0.0 8.0e+05 2.3e+03 1.6e+02  0  0  0  0  0   0  0  0  0  0     0       0      0 0.00e+00    0 0.00e+00  0
PCGAMG Gal l00         1 1.0 1.4319e+00 1.0 0.00e+00 0.0 1.1e+07 4.1e+03 1.6e+01  1  0  0  0  0   1  0  0  0  0     0       0      4 9.24e-01    4 9.24e-01  0
PCGAMG Opt l00         1 1.0 5.7515e-01 1.0 0.00e+00 0.0 5.9e+06 4.8e+02 8.0e+00  0  0  0  0  0   0  0  0  0  0     0       0      2 4.24e-02    2 4.24e-02  0
PCGAMG Gal l01         1 1.0 1.1508e+00 1.0 0.00e+00 0.0 2.7e+07 1.4e+03 1.6e+01  1  0  0  0  0   1  0  0  0  0     0       0      4 7.73e-01    4 7.73e-01  0
PCGAMG Opt l01         1 1.0 5.3993e-01 1.0 0.00e+00 0.0 6.7e+06 1.8e+02 8.0e+00  0  0  0  0  0   0  0  0  0  0     0       0      2 1.76e-02    2 1.76e-02  0
PCGAMG Gal l02         1 1.0 3.6225e-01 1.0 0.00e+00 0.0 1.1e+06 4.1e+03 1.6e+01  0  0  0  0  0   0  0  0  0  0     0       0      0 8.79e-02    0 8.79e-02  0
PCGAMG Opt l02         1 1.0 1.6293e-01 1.0 0.00e+00 0.0 3.0e+05 2.8e+02 8.0e+00  0  0  0  0  0   0  0  0  0  0     0       0      0 1.25e-03    0 1.25e-03  0
PCGAMG Gal l03         1 1.0 3.3988e-01 1.0 0.00e+00 0.0 9.9e+03 1.4e+04 1.6e+01  0  0  0  0  0   0  0  0  0  0     0       0      0 2.78e-03    0 2.78e-03  0
PCGAMG Opt l03         1 1.0 1.5849e-01 1.0 0.00e+00 0.0 4.4e+03 6.9e+02 8.0e+00  0  0  0  0  0   0  0  0  0  0     0       0      0 4.52e-05    0 4.52e-05  0
PCSetUp                2 1.0 7.2314e+01 1.0 2.05e+07 3.6 4.6e+08 3.8e+02 1.8e+03 33  2  1  0  1  34  4  1  0  1  3554       0     61 2.59e+00   57 2.52e+00  90
PCSetUpOnBlocks       52 1.0 1.1937e-02 166.0 1.40e+07 0.0 0.0e+00 0.0e+00 0.0e+00  0  0  0  0  0   0  0  0  0  0  1169       0      0 0.00e+00    0 0.00e+00  0
PCApply               52 1.0 3.7526e+00 1.0 2.78e+08 2.8 4.2e+08 5.2e+02 5.2e+01  2 38  1  0  0   2 71  1  0  0 1208289       0   1165 1.33e+01 1164 1.33e+01  100

--- Event Stage 1: Solve only

MatMult             1053 1.2 1.7536e+00 1.3 2.81e+08 2.6 3.8e+08 6.4e+02 0.0e+00  1 41  1  1  0  31 86 83 97  0 2799028       0    949 1.50e+01  949 1.50e+01  100
MatMultAdd           208 1.0 4.3219e-01 2.8 7.01e+06 2.0 3.9e+07 1.1e+02 0.0e+00  0  1  0  0  0   8  3  9  2  0 369313       0    211 2.58e-01  107 2.58e-01  100
MatMultTranspose     208 1.0 3.9966e-01 1.9 7.58e+06 2.2 3.9e+07 1.1e+02 0.0e+00  0  1  0  0  0   6  3  9  2  0 400688       0    107 2.58e-01  211 2.58e-01  100
MatSolve              52 0.0 3.0471e-03 0.0 7.98e+06 0.0 0.0e+00 0.0e+00 0.0e+00  0  0  0  0  0   0  0  0  0  0  2619       0      0 0.00e+00    0 0.00e+00  0
MatResidual          208 1.0 4.4509e-01 1.6 6.47e+07 2.9 8.5e+07 6.2e+02 0.0e+00  0  8  0  0  0   8 18 18 21  0 2294177       0    211 3.19e+00  211 3.19e+00  100
MatView                8 1.3 4.2363e-01 746.6 0.00e+00 0.0 0.0e+00 0.0e+00 6.0e+00  0  0  0  0  0   5  0  0  0  3     0       0      0 0.00e+00    0 0.00e+00  0
KSPSetUp               1 1.0 8.0450e-06 80.5 0.00e+00 0.0 0.0e+00 0.0e+00 0.0e+00  0  0  0  0  0   0  0  0  0  0     0       0      0 0.00e+00    0 0.00e+00  0
KSPSolve               1 1.0 4.3370e+00 1.0 3.04e+08 2.5 4.6e+08 5.5e+02 2.1e+02  2 46  1  1  0  91 97 100 100 95 1268072       0   1268 1.55e+01 1268 1.55e+01  100
SNESSolve              1 1.0 4.3620e+00 1.0 3.10e+08 2.4 4.6e+08 5.5e+02 2.1e+02  2 47  1  1  0  91 100 100 100 95 1304639       0   1272 1.55e+01 1272 1.55e+01  97
SNESFunctionEval       1 1.0 4.0330e-02 1.7 6.05e+06 1.0 4.3e+05 9.5e+02 0.0e+00  0  2  0  0  0   1  3  0  0  0 4733089       0      4 2.52e-02    4 2.52e-02  0
DMPlexResidualFE       1 1.0 3.1098e-02 2.4 5.81e+06 1.0 0.0e+00 0.0e+00 0.0e+00  0  2  0  0  0   0  3  0  0  0 6117850       0      0 0.00e+00    0 0.00e+00  0
SFBcastBegin           1 1.0 2.5073e-03 65.4 0.00e+00 0.0 2.2e+05 9.5e+02 0.0e+00  0  0  0  0  0   0  0  0  0  0     0       0      0 0.00e+00    2 1.26e-02  0
SFBcastEnd             1 1.0 5.8234e-03 567.6 0.00e+00 0.0 0.0e+00 0.0e+00 0.0e+00  0  0  0  0  0   0  0  0  0  0     0       0      2 1.26e-02    0 0.00e+00  0
SFReduceBegin          1 1.0 2.4935e-03 217.9 0.00e+00 0.0 2.2e+05 9.5e+02 0.0e+00  0  0  0  0  0   0  0  0  0  0     0       0      0 0.00e+00    2 1.26e-02  0
SFReduceEnd            1 1.0 1.5672e-02 1626.1 8.17e+02 0.0 0.0e+00 0.0e+00 0.0e+00  0  0  0  0  0   0  0  0  0  0  1645       0      2 1.26e-02    0 0.00e+00  100
SFPack              1302 1.0 5.4170e-03 2.3 0.00e+00 0.0 0.0e+00 0.0e+00 0.0e+00  0  0  0  0  0   0  0  0  0  0     0       0      0 0.00e+00    0 0.00e+00  0
SFUnpack            1302 1.0 1.3675e-03 3.5 5.72e+05 227.5 0.0e+00 0.0e+00 0.0e+00  0  0  0  0  0   0  0  0  0  0 404940       0      0 0.00e+00    0 0.00e+00  100
VecTDot              106 1.0 5.0354e-01 1.5 8.68e+05 1.2 0.0e+00 0.0e+00 1.1e+02  0  0  0  0  0   9  0  0  0 48 56178       0      0 0.00e+00    0 0.00e+00  100
VecNorm               53 1.0 1.7361e-01 1.1 4.34e+05 1.2 0.0e+00 0.0e+00 5.3e+01  0  0  0  0  0   3  0  0  0 24 81458       0      0 0.00e+00    0 0.00e+00  100
VecCopy              626 1.0 1.3357e+00 1.3 0.00e+00 0.0 0.0e+00 0.0e+00 0.0e+00  1  0  0  0  0  24  0  0  0  0     0       0      0 0.00e+00    0 0.00e+00  0
VecSet               265 1.0 3.5871e-01 1.8 0.00e+00 0.0 0.0e+00 0.0e+00 0.0e+00  0  0  0  0  0   6  0  0  0  0     0       0      0 0.00e+00    0 0.00e+00  0
VecAXPY              105 1.0 1.3299e-03 1.8 8.60e+05 1.2 0.0e+00 0.0e+00 0.0e+00  0  0  0  0  0   0  0  0  0  0 21069371       0      0 0.00e+00    0 0.00e+00  100
VecAYPX             1299 1.0 8.8098e-03 2.1 3.29e+06 1.3 0.0e+00 0.0e+00 0.0e+00  0  1  0  0  0   0  2  0  0  0 11385256       0      0 0.00e+00    0 0.00e+00  100
VecAXPBYCZ           416 1.0 2.1459e-03 1.9 2.41e+06 1.3 0.0e+00 0.0e+00 0.0e+00  0  1  0  0  0   0  1  0  0  0 33665165       0      0 0.00e+00    0 0.00e+00  100
VecPointwiseMult     832 1.0 4.6142e-03 1.9 9.64e+05 1.3 0.0e+00 0.0e+00 0.0e+00  0  0  0  0  0   0  1  0  0  0 6262764       0      0 0.00e+00    0 0.00e+00  100
VecScatterBegin     1300 1.0 1.7173e+00 2.1 0.00e+00 0.0 4.6e+08 5.5e+02 0.0e+00  1  0  1  1  0  26  0 100 100  0     0       0      0 0.00e+00 1268 1.55e+01  0
VecScatterEnd       1300 1.0 1.4556e+00 3.9 5.71e+05 249.7 0.0e+00 0.0e+00 0.0e+00  0  0  0  0  0  19  0  0  0  0   363       0   1268 1.55e+01    0 0.00e+00  100
PCSetUpOnBlocks       52 1.0 4.3055e-05 3.6 0.00e+00 0.0 0.0e+00 0.0e+00 0.0e+00  0  0  0  0  0   0  0  0  0  0     0       0      0 0.00e+00    0 0.00e+00  0
PCApply               52 1.0 3.6804e+00 1.0 2.78e+08 2.8 4.2e+08 5.2e+02 5.2e+01  2 38  1  0  0  76 80 91 86 23 1232006       0   1164 1.33e+01 1164 1.33e+01  100
---------------------------------------------------------------------------------------------------------------------------------------------------------------

Object Type          Creations   Destructions. Reports information only for process 0.

--- Event Stage 0: Main Stage

           Container   119            119
                SNES     1              1
              DMSNES     1              1
       Krylov Solver    11             11
     DMKSP interface     1              1
              Matrix   557            557
      Matrix Coarsen     4              4
    Distributed Mesh   107            107
            DM Label 65792          65792
          Quadrature   286            286
      Mesh Transform     3              3
           Index Set 296210          296210
   IS L to G Mapping   209            209
             Section 131446          131446
   Star Forest Graph 98640          98640
     Discrete System   163            163
           Weak Form   164            164
    GraphPartitioner    48             48
              Vector   429            429
        Linear Space    10             10
          Dual Space    49             49
            FE Space     5              5
              Viewer     2              2
      Preconditioner    11             11
       Field over DM     1              1
         PetscRandom     4              4

--- Event Stage 1: Solve only

          Quadrature     1              1
           Index Set    31             31
              Viewer     1              1
========================================================================================================================
Average time to get PetscTime(): 3.71e-08
Average time for MPI_Barrier(): 4.73676e-05
Average time for zero size MPI_Send(): 5.22575e-06
#PETSc Option Table entries:
-benchmark_it 1 # (source: file)
-build_twosided allreduce # (source: file)
-dm_mat_type aijkokkos # (source: file)
-dm_plex_box_faces 32,32,32 # (source: command line)
-dm_plex_box_lower 0,0,0 # (source: file)
-dm_plex_box_upper 4,2,1 # (source: file)
-dm_plex_dim 3 # (source: file)
-dm_plex_simplex 0 # (source: file)
-dm_refine 3 # (source: command line)
-dm_vec_type kokkos # (source: file)
-dm_view # (source: file)
-info :pc,is # (source: file)
-ksp_converged_reason # (source: file)
-ksp_monitor # (source: file)
-ksp_norm_type unpreconditioned # (source: file)
-ksp_rtol 1e-12 # (source: file)
-ksp_type cg # (source: file)
-log_view # (source: file)
-mat_coarsen_max_it 5 # (source: command line)
-mat_coarsen_type hem # (source: command line)
-mg_levels_ksp_chebyshev_esteig 0,0.2,0,1.05 # (source: file)
-options_left # (source: file)
-pc_gamg_aggressive_coarsening 2 # (source: file)
-pc_gamg_aggressive_square_graph true # (source: file)
-pc_gamg_coarse_eq_limit 1000 # (source: file)
-pc_gamg_esteig_ksp_type cg # (source: file)
-pc_gamg_mis_k_minimum_degree_ordering true # (source: file)
-pc_gamg_process_eq_limit 200 # (source: file)
-pc_gamg_reuse_interpolation true # (source: file)
-pc_gamg_threshold 0.04 # (source: file)
-pc_gamg_threshold_scale .25 # (source: file)
-pc_type gamg # (source: file)
-petscpartitioner_simple_node_grid 8,8,8 # (source: command line)
-petscpartitioner_simple_process_grid 4,4,4 # (source: file)
-petscpartitioner_type simple # (source: file)
-potential_petscspace_degree 2 # (source: command line)
-snes_lag_jacobian -2 # (source: file)
-snes_type ksponly # (source: file)
-snes_view # (source: file)
-use_gpu_aware_mpi 0 # (source: command line)
#End of PETSc Option Table entries
Compiled without FORTRAN kernels
Compiled with 64-bit PetscInt
Compiled with full precision matrices (default)
sizeof(short) 2 sizeof(int) 4 sizeof(long) 8 sizeof(void*) 8 sizeof(PetscScalar) 8 sizeof(PetscInt) 8
Configure options: --PETSC_ARCH=arch-kokkos-opt --with-debugging=0 --with-make-np=8 --with-mpiexec="srun -G4" --with-batch=0 --with-cc=cc --with-cxx=CC --with-fc=ftn --with-64-bit-indices=1 --download-sowing-cc=cc --COPTFLAGS="   -g -O3" --CXXOPTFLAGS=" -g -O3" --FOPTFLAGS="   -g -O3" --CUDAFLAGS="   -g -O3" --with-cuda=1 --download-kokkos --download-kokkos-kernels=https://github.com/jczhang07/kokkos-kernels.git --download-kokkos-commit=origin/develop --download-kokkos-kernels-commit=origin/2024-02-07/perlmutter-fix --download-kokkos-kernels-cmake-arguments="-DCUBLAS_ROOT=/opt/nvidia/hpc_sdk/Linux_x86_64/23.9/math_libs/12.2 -DCUSPARSE_ROOT=/opt/nvidia/hpc_sdk/Linux_x86_64/23.9/math_libs/12.2 -DCUSOLVER_ROOT=/opt/nvidia/hpc_sdk/Linux_x86_64/23.9/math_libs/12.2"
-----------------------------------------
Libraries compiled on 2024-02-08 19:36:55 on login40 
Machine characteristics: Linux-5.14.21-150400.24.81_12.0.87-cray_shasta_c-x86_64-with-glibc2.3.4
Using PETSc directory: /global/homes/m/madams/petsc
Using PETSc arch: arch-kokkos-opt
-----------------------------------------

Using C compiler: cc  -fPIC -g -O3  
Using Fortran compiler: ftn  -fPIC -g -O3    
-----------------------------------------

Using include paths: -I/global/homes/m/madams/petsc/include -I/global/homes/m/madams/petsc/arch-kokkos-opt/include -I/opt/nvidia/hpc_sdk/Linux_x86_64/23.9/cuda/12.2/include -I/opt/nvidia/hpc_sdk/Linux_x86_64/23.9/math_libs/12.2/include
-----------------------------------------

Using C linker: cc
Using Fortran linker: ftn
Using libraries: -Wl,-rpath,/global/homes/m/madams/petsc/arch-kokkos-opt/lib -L/global/homes/m/madams/petsc/arch-kokkos-opt/lib -lpetsc -Wl,-rpath,/global/homes/m/madams/petsc/arch-kokkos-opt/lib -L/global/homes/m/madams/petsc/arch-kokkos-opt/lib -Wl,-rpath,/opt/nvidia/hpc_sdk/Linux_x86_64/23.9/cuda/12.2/lib64 -L/opt/nvidia/hpc_sdk/Linux_x86_64/23.9/cuda/12.2/lib64 -L/opt/nvidia/hpc_sdk/Linux_x86_64/23.9/cuda/12.2/lib64/stubs -Wl,-rpath,/opt/cray/pe/mpich/8.1.28/ofi/gnu/12.3/lib -L/opt/cray/pe/mpich/8.1.28/ofi/gnu/12.3/lib -Wl,-rpath,/opt/cray/pe/mpich/8.1.28/gtl/lib -L/opt/cray/pe/mpich/8.1.28/gtl/lib -Wl,-rpath,/opt/cray/pe/libsci/23.12.5/GNU/12.3/x86_64/lib -L/opt/cray/pe/libsci/23.12.5/GNU/12.3/x86_64/lib -Wl,-rpath,/opt/cray/pe/hdf5-parallel/1.12.2.9/gnu/12.3/lib -L/opt/cray/pe/hdf5-parallel/1.12.2.9/gnu/12.3/lib -Wl,-rpath,/opt/cray/pe/dsmml/0.2.2/dsmml/lib -L/opt/cray/pe/dsmml/0.2.2/dsmml/lib -Wl,-rpath,/opt/nvidia/hpc_sdk/Linux_x86_64/23.9/cuda/12.2/lib64/stubs -Wl,-rpath,/opt/nvidia/hpc_sdk/Linux_x86_64/23.9/cuda/12.2/nvvm/lib64 -L/opt/nvidia/hpc_sdk/Linux_x86_64/23.9/cuda/12.2/nvvm/lib64 -Wl,-rpath,/opt/nvidia/hpc_sdk/Linux_x86_64/23.9/cuda/12.2/extras/CUPTI/lib64 -L/opt/nvidia/hpc_sdk/Linux_x86_64/23.9/cuda/12.2/extras/CUPTI/lib64 -Wl,-rpath,/opt/nvidia/hpc_sdk/Linux_x86_64/23.9/cuda/12.2/extras/Debugger/lib64 -L/opt/nvidia/hpc_sdk/Linux_x86_64/23.9/cuda/12.2/extras/Debugger/lib64 -Wl,-rpath,/opt/nvidia/hpc_sdk/Linux_x86_64/23.9/math_libs/12.2/lib64 -L/opt/nvidia/hpc_sdk/Linux_x86_64/23.9/math_libs/12.2/lib64 -Wl,-rpath,/opt/cray/xpmem/2.6.2-2.5_2.38__gd067c3f.shasta/lib64 -L/opt/cray/xpmem/2.6.2-2.5_2.38__gd067c3f.shasta/lib64 -Wl,-rpath,/usr/lib64/gcc/x86_64-suse-linux/12 -L/usr/lib64/gcc/x86_64-suse-linux/12 -Wl,-rpath,/usr/x86_64-suse-linux/lib -L/usr/x86_64-suse-linux/lib -lkokkoskernels -lkokkoscontainers -lkokkoscore -lkokkossimd -lcudart -lnvToolsExt -lcufft -lcublas -lcusparse -lcusolver -lcurand -lcuda -lX11 -lcuda -ldl -lmpi_gtl_cuda -lxpmem -lgfortran -lm -lhdf5_hl_parallel -lhdf5_parallel -lcupti -lcudart -lhdf5hl_fortran_parallel -lhdf5_fortran_parallel -lsci_gnu_123_mpi -lsci_gnu_123 -lmpifort_gnu_123 -lmpi_gnu_123 -ldsmml -lgfortran -lquadmath -lpthread -lm -lgcc_s -lstdc++
-----------------------------------------

#PETSc Option Table entries:
-benchmark_it 1 # (source: file)
-build_twosided allreduce # (source: file)
-dm_mat_type aijkokkos # (source: file)
-dm_plex_box_faces 32,32,32 # (source: command line)
-dm_plex_box_lower 0,0,0 # (source: file)
-dm_plex_box_upper 4,2,1 # (source: file)
-dm_plex_dim 3 # (source: file)
-dm_plex_simplex 0 # (source: file)
-dm_refine 3 # (source: command line)
-dm_vec_type kokkos # (source: file)
-dm_view # (source: file)
-info :pc,is # (source: file)
-ksp_converged_reason # (source: file)
-ksp_monitor # (source: file)
-ksp_norm_type unpreconditioned # (source: file)
-ksp_rtol 1e-12 # (source: file)
-ksp_type cg # (source: file)
-log_view # (source: file)
-mat_coarsen_max_it 5 # (source: command line)
-mat_coarsen_type hem # (source: command line)
-mg_levels_ksp_chebyshev_esteig 0,0.2,0,1.05 # (source: file)
-options_left # (source: file)
-pc_gamg_aggressive_coarsening 2 # (source: file)
-pc_gamg_aggressive_square_graph true # (source: file)
-pc_gamg_coarse_eq_limit 1000 # (source: file)
-pc_gamg_esteig_ksp_type cg # (source: file)
-pc_gamg_mis_k_minimum_degree_ordering true # (source: file)
-pc_gamg_process_eq_limit 200 # (source: file)
-pc_gamg_reuse_interpolation true # (source: file)
-pc_gamg_threshold 0.04 # (source: file)
-pc_gamg_threshold_scale .25 # (source: file)
-pc_type gamg # (source: file)
-petscpartitioner_simple_node_grid 8,8,8 # (source: command line)
-petscpartitioner_simple_process_grid 4,4,4 # (source: file)
-petscpartitioner_type simple # (source: file)
-potential_petscspace_degree 2 # (source: command line)
-snes_lag_jacobian -2 # (source: file)
-snes_type ksponly # (source: file)
-snes_view # (source: file)
-use_gpu_aware_mpi 0 # (source: command line)
#End of PETSc Option Table entries
There are no unused options.
