DM Object: box 64 MPI processes
  type: plex
box in 3 dimensions:
  Min/Max of 0-cells per rank: 729/729
  Min/Max of 1-cells per rank: 1944/1944
  Min/Max of 2-cells per rank: 1728/1728
  Min/Max of 3-cells per rank: 512/512
Labels:
  celltype: 4 strata with value/size (0 (729), 1 (1944), 4 (1728), 7 (512))
  depth: 4 strata with value/size (0 (729), 1 (1944), 2 (1728), 3 (512))
  marker: 1 strata with value/size (1 (817))
  Face Sets: 3 strata with value/size (1 (225), 3 (225), 6 (225))
Number equations N = 250047
[0] <pc:gamg> PCSetUp_GAMG(): (null): level 0) N=250047, n data rows=1, n data cols=1, nnz/row (ave)=60, block size 1, np=64
[0] <pc:gamg> PCGAMGCreateGraph_AGG(): 	 33.8523% nnz after filtering, with threshold 0.04, 54.872 nnz ave. (N=250047, max row size 125
[0] <pc:gamg> PCGAMGCreateGraph_AGG(): Filtering left 33.8523 % edges in graph (1.851930e+05 6.269200e+04)
[0] <pc:gamg> PCGAMGSquareGraph_GAMG(): (null): Square Graph on level 1
[0] <is> MatCoarsenApply_MIS_private(): mis: nloc = 3375
[0] <is> MatCoarsenApply_MIS_private(): 	 removed 0 of 3375 vertices.  116 selected.
[0] <pc:gamg> fixAggregatesWithSquare(): isMPI = yes
[0] <pc:gamg> PCGAMGProlongator_AGG(): (null): New grid 7935 nodes
[0] <pc:gamg> PCGAMGOptProlongator_AGG(): (null): Smooth P0: max eigen=2.538053e+00 min=6.811854e-02 PC=jacobi
[0] <pc:gamg> PCGAMGOptProlongator_AGG(): (null): Smooth P0: level 0, cache spectra 0.0681185 2.53805
[0] <pc:gamg> PCGAMGCreateLevel_GAMG(): (null): Coarse grid reduction from 64 to 40 active processes
[0] <pc:gamg> PCGAMGCreateLevel_GAMG(): (null): Number of equations (loc) 116 with simple aggregation
[0] <pc:gamg> PCSetUp_GAMG(): (null): 1) N=7935, n data cols=1, nnz/row (ave)=172, 32 active pes
[0] <pc:gamg> PCGAMGCreateGraph_AGG(): 	 10.9835% nnz after filtering, with threshold 0.01, 144.284 nnz ave. (N=7935, max row size 174
[0] <pc:gamg> PCGAMGCreateGraph_AGG(): Filtering left 10.9835 % edges in graph (3.405100e+04 3.740000e+03)
[0] <pc:gamg> PCGAMGSquareGraph_GAMG(): (null): Square Graph on level 2
[0] <is> MatCoarsenApply_MIS_private(): mis: nloc = 236
[0] <is> MatCoarsenApply_MIS_private(): 	 removed 0 of 236 vertices.  7 selected.
[0] <pc:gamg> fixAggregatesWithSquare(): isMPI = yes
[0] <pc:gamg> PCGAMGProlongator_AGG(): (null): New grid 320 nodes
[0] <pc:gamg> PCGAMGOptProlongator_AGG(): (null): Smooth P0: max eigen=1.400913e+00 min=5.035672e-02 PC=jacobi
[0] <pc:gamg> PCGAMGOptProlongator_AGG(): (null): Smooth P0: level 1, cache spectra 0.0503567 1.40091
[0] <pc:gamg> PCGAMGCreateLevel_GAMG(): (null): Force coarsest grid reduction to 1 active processes
[0] <pc:gamg> PCGAMGCreateLevel_GAMG(): (null): Number of equations (loc) 7 with simple aggregation
[0] <pc:gamg> PCSetUp_GAMG(): (null): 2) N=320, n data cols=1, nnz/row (ave)=175, 1 active pes
[0] <pc:gamg> PCSetUp_GAMG(): (null): 3 levels, operator complexity = 1.09454
[0] <pc:gamg> PCSetUp_GAMG(): (null): PCSetUp_GAMG: call KSPChebyshevSetEigenvalues on level 1 (N=7935) with emax = 1.40091 emin = 0.0503567
[0] <pc:gamg> PCSetUp_GAMG(): (null): PCSetUp_GAMG: call KSPChebyshevSetEigenvalues on level 0 (N=250047) with emax = 2.53805 emin = 0.0681185
[0] <pc:gamg> PCSetUp_MG(): Using outer operators to define finest grid operator 
  because PCMGGetSmoother(pc,nlevels-1,&ksp);KSPSetOperators(ksp,...); was not called.
    0 KSP Residual norm 1.753903725088e+01 
    1 KSP Residual norm 3.393788533741e+00 
    2 KSP Residual norm 2.219009261391e+00 
    3 KSP Residual norm 1.515415523267e+00 
    4 KSP Residual norm 9.534165918488e-01 
    5 KSP Residual norm 6.101623614070e-01 
    6 KSP Residual norm 3.770655535472e-01 
    7 KSP Residual norm 2.102302160962e-01 
    8 KSP Residual norm 1.152594399664e-01 
    9 KSP Residual norm 6.586395124226e-02 
   10 KSP Residual norm 3.910222216578e-02 
   11 KSP Residual norm 2.369050972962e-02 
   12 KSP Residual norm 1.414540772689e-02 
   13 KSP Residual norm 8.071221658930e-03 
   14 KSP Residual norm 4.508619193754e-03 
   15 KSP Residual norm 2.599206979744e-03 
   16 KSP Residual norm 1.531054009572e-03 
   17 KSP Residual norm 9.025515874579e-04 
   18 KSP Residual norm 5.188858957234e-04 
   19 KSP Residual norm 2.983995412204e-04 
   20 KSP Residual norm 1.709938099580e-04 
   21 KSP Residual norm 9.717063069937e-05 
   22 KSP Residual norm 5.547448379971e-05 
   23 KSP Residual norm 3.169054016292e-05 
   24 KSP Residual norm 1.804649077221e-05 
   25 KSP Residual norm 1.039094109860e-05 
   26 KSP Residual norm 6.110583336863e-06 
   27 KSP Residual norm 3.650012902777e-06 
   28 KSP Residual norm 2.200027435944e-06 
   29 KSP Residual norm 1.297301629150e-06 
   30 KSP Residual norm 7.445234874364e-07 
   31 KSP Residual norm 4.211637890562e-07 
   32 KSP Residual norm 2.378775326329e-07 
   33 KSP Residual norm 1.358339968791e-07 
   34 KSP Residual norm 7.709283795480e-08 
   35 KSP Residual norm 4.461629887824e-08 
   36 KSP Residual norm 2.594213204180e-08 
   37 KSP Residual norm 1.487006068434e-08 
   38 KSP Residual norm 8.313375546879e-09 
   39 KSP Residual norm 4.678975080559e-09 
   40 KSP Residual norm 2.714467824563e-09 
   41 KSP Residual norm 1.553550579962e-09 
   42 KSP Residual norm 8.625622528285e-10 
   43 KSP Residual norm 4.814930621124e-10 
   44 KSP Residual norm 2.766218288801e-10 
   45 KSP Residual norm 1.546396752200e-10 
   46 KSP Residual norm 8.559203267767e-11 
   47 KSP Residual norm 4.816599277179e-11 
   48 KSP Residual norm 2.705448396323e-11 
   49 KSP Residual norm 1.523421342634e-11 
  Linear solve converged due to CONVERGED_RTOL iterations 49
SNES Object: 64 MPI processes
  type: ksponly
  maximum iterations=50, maximum function evaluations=10000
  tolerances: relative=1e-08, absolute=1e-50, solution=1e-08
  total number of linear solver iterations=49
  total number of function evaluations=1
  norm schedule ALWAYS
  Jacobian is never rebuilt
  KSP Object: 64 MPI processes
    type: cg
    maximum iterations=10000, initial guess is zero
    tolerances:  relative=1e-12, absolute=1e-50, divergence=10000.
    left preconditioning
    using UNPRECONDITIONED norm type for convergence test
  PC Object: 64 MPI processes
    type: gamg
      type is MULTIPLICATIVE, levels=3 cycles=v
        Cycles per PCApply=1
        Using externally compute Galerkin coarse grid matrices
        GAMG specific options
          Threshold for dropping small values in graph on each level =     0.04     0.01     0.0025    
          Threshold scaling factor for each level not specified = 0.25
          AGG specific options
            Number of levels of aggressive coarsening 2
            Square graph aggressive coarsening
            Number smoothing steps 1
          Complexity:    grid = 1.03301    operator = 1.09454
    Coarse grid solver -- level 0 -------------------------------
      KSP Object: (mg_coarse_) 64 MPI processes
        type: preonly
        maximum iterations=10000, initial guess is zero
        tolerances:  relative=1e-05, absolute=1e-50, divergence=10000.
        left preconditioning
        using NONE norm type for convergence test
      PC Object: (mg_coarse_) 64 MPI processes
        type: bjacobi
          number of blocks = 64
          Local solver information for first block is in the following KSP and PC objects on rank 0:
          Use -mg_coarse_ksp_view ::ascii_info_detail to display information for all blocks
          KSP Object: (mg_coarse_sub_) 1 MPI process
            type: preonly
            maximum iterations=1, initial guess is zero
            tolerances:  relative=1e-05, absolute=1e-50, divergence=10000.
            left preconditioning
            using NONE norm type for convergence test
          PC Object: (mg_coarse_sub_) 1 MPI process
            type: lu
              out-of-place factorization
              tolerance for zero pivot 2.22045e-14
              using diagonal shift on blocks to prevent zero pivot [INBLOCKS]
              matrix ordering: nd
              factor fill ratio given 5., needed 1.648
                Factored matrix follows:
                  Mat Object: (mg_coarse_sub_) 1 MPI process
                    type: seqaijkokkos
                    rows=320, cols=320
                    package used to perform factorization: kokkos
                    total: nonzeros=92664, allocated nonzeros=92664
                      using I-node routines: found 222 nodes, limit used is 5
            linear system matrix = precond matrix:
            Mat Object: (mg_coarse_sub_) 1 MPI process
              type: seqaijkokkos
              rows=320, cols=320
              total: nonzeros=56228, allocated nonzeros=56228
              total number of mallocs used during MatSetValues calls=0
                not using I-node routines
        linear system matrix = precond matrix:
        Mat Object: 64 MPI processes
          type: mpiaijkokkos
          rows=320, cols=320
          total: nonzeros=56228, allocated nonzeros=56228
          total number of mallocs used during MatSetValues calls=0
            not using I-node (on process 0) routines
    Down solver (pre-smoother) on level 1 -------------------------------
      KSP Object: (mg_levels_1_) 64 MPI processes
        type: richardson
          damping factor=1.
        maximum iterations=2, nonzero initial guess
        tolerances:  relative=1e-05, absolute=1e-50, divergence=10000.
        left preconditioning
        using NONE norm type for convergence test
      PC Object: (mg_levels_1_) 64 MPI processes
        type: jacobi
          type ROWL1 (l1-norm off-diagonal scaling 2.500000e-01)
        linear system matrix = precond matrix:
        Mat Object: 64 MPI processes
          type: mpiaijkokkos
          rows=7935, cols=7935
          total: nonzeros=1368463, allocated nonzeros=1368463
          total number of mallocs used during MatSetValues calls=0
            not using I-node (on process 0) routines
    Up solver (post-smoother) same as down solver (pre-smoother)
    Down solver (pre-smoother) on level 2 -------------------------------
      KSP Object: (mg_levels_2_) 64 MPI processes
        type: richardson
          damping factor=1.
        maximum iterations=2, nonzero initial guess
        tolerances:  relative=1e-05, absolute=1e-50, divergence=10000.
        left preconditioning
        using NONE norm type for convergence test
      PC Object: (mg_levels_2_) 64 MPI processes
        type: jacobi
          type ROWL1 (l1-norm off-diagonal scaling 2.500000e-01)
        linear system matrix = precond matrix:
        Mat Object: 64 MPI processes
          type: mpiaijkokkos
          rows=250047, cols=250047
          total: nonzeros=15069223, allocated nonzeros=15069223
          total number of mallocs used during MatSetValues calls=0
            not using I-node (on process 0) routines
    Up solver (post-smoother) same as down solver (pre-smoother)
    linear system matrix = precond matrix:
    Mat Object: 64 MPI processes
      type: mpiaijkokkos
      rows=250047, cols=250047
      total: nonzeros=15069223, allocated nonzeros=15069223
      total number of mallocs used during MatSetValues calls=0
        not using I-node (on process 0) routines
    0 KSP Residual norm 1.753903725088e+01 
    1 KSP Residual norm 3.393788533741e+00 
    2 KSP Residual norm 2.219009261391e+00 
    3 KSP Residual norm 1.515415523267e+00 
    4 KSP Residual norm 9.534165918488e-01 
    5 KSP Residual norm 6.101623614070e-01 
    6 KSP Residual norm 3.770655535472e-01 
    7 KSP Residual norm 2.102302160962e-01 
    8 KSP Residual norm 1.152594399664e-01 
    9 KSP Residual norm 6.586395124226e-02 
   10 KSP Residual norm 3.910222216578e-02 
   11 KSP Residual norm 2.369050972962e-02 
   12 KSP Residual norm 1.414540772689e-02 
   13 KSP Residual norm 8.071221658930e-03 
   14 KSP Residual norm 4.508619193754e-03 
   15 KSP Residual norm 2.599206979744e-03 
   16 KSP Residual norm 1.531054009572e-03 
   17 KSP Residual norm 9.025515874579e-04 
   18 KSP Residual norm 5.188858957234e-04 
   19 KSP Residual norm 2.983995412204e-04 
   20 KSP Residual norm 1.709938099580e-04 
   21 KSP Residual norm 9.717063069937e-05 
   22 KSP Residual norm 5.547448379971e-05 
   23 KSP Residual norm 3.169054016292e-05 
   24 KSP Residual norm 1.804649077221e-05 
   25 KSP Residual norm 1.039094109860e-05 
   26 KSP Residual norm 6.110583336863e-06 
   27 KSP Residual norm 3.650012902777e-06 
   28 KSP Residual norm 2.200027435944e-06 
   29 KSP Residual norm 1.297301629150e-06 
   30 KSP Residual norm 7.445234874364e-07 
   31 KSP Residual norm 4.211637890562e-07 
   32 KSP Residual norm 2.378775326329e-07 
   33 KSP Residual norm 1.358339968791e-07 
   34 KSP Residual norm 7.709283795480e-08 
   35 KSP Residual norm 4.461629887824e-08 
   36 KSP Residual norm 2.594213204180e-08 
   37 KSP Residual norm 1.487006068434e-08 
   38 KSP Residual norm 8.313375546879e-09 
   39 KSP Residual norm 4.678975080559e-09 
   40 KSP Residual norm 2.714467824563e-09 
   41 KSP Residual norm 1.553550579962e-09 
   42 KSP Residual norm 8.625622528285e-10 
   43 KSP Residual norm 4.814930621124e-10 
   44 KSP Residual norm 2.766218288801e-10 
   45 KSP Residual norm 1.546396752200e-10 
   46 KSP Residual norm 8.559203267767e-11 
   47 KSP Residual norm 4.816599277179e-11 
   48 KSP Residual norm 2.705448396323e-11 
   49 KSP Residual norm 1.523421342634e-11 
  Linear solve converged due to CONVERGED_RTOL iterations 49
SNES Object: 64 MPI processes
  type: ksponly
  maximum iterations=50, maximum function evaluations=10000
  tolerances: relative=1e-08, absolute=1e-50, solution=1e-08
  total number of linear solver iterations=49
  total number of function evaluations=1
  norm schedule ALWAYS
  Jacobian is never rebuilt
  KSP Object: 64 MPI processes
    type: cg
    maximum iterations=10000, initial guess is zero
    tolerances:  relative=1e-12, absolute=1e-50, divergence=10000.
    left preconditioning
    using UNPRECONDITIONED norm type for convergence test
  PC Object: 64 MPI processes
    type: gamg
      type is MULTIPLICATIVE, levels=3 cycles=v
        Cycles per PCApply=1
        Using externally compute Galerkin coarse grid matrices
        GAMG specific options
          Threshold for dropping small values in graph on each level =     0.04     0.01     0.0025    
          Threshold scaling factor for each level not specified = 0.25
          AGG specific options
            Number of levels of aggressive coarsening 2
            Square graph aggressive coarsening
            Number smoothing steps 1
          Complexity:    grid = 1.03301    operator = 1.09454
    Coarse grid solver -- level 0 -------------------------------
      KSP Object: (mg_coarse_) 64 MPI processes
        type: preonly
        maximum iterations=10000, initial guess is zero
        tolerances:  relative=1e-05, absolute=1e-50, divergence=10000.
        left preconditioning
        using NONE norm type for convergence test
      PC Object: (mg_coarse_) 64 MPI processes
        type: bjacobi
          number of blocks = 64
          Local solver information for first block is in the following KSP and PC objects on rank 0:
          Use -mg_coarse_ksp_view ::ascii_info_detail to display information for all blocks
          KSP Object: (mg_coarse_sub_) 1 MPI process
            type: preonly
            maximum iterations=1, initial guess is zero
            tolerances:  relative=1e-05, absolute=1e-50, divergence=10000.
            left preconditioning
            using NONE norm type for convergence test
          PC Object: (mg_coarse_sub_) 1 MPI process
            type: lu
              out-of-place factorization
              tolerance for zero pivot 2.22045e-14
              using diagonal shift on blocks to prevent zero pivot [INBLOCKS]
              matrix ordering: nd
              factor fill ratio given 5., needed 1.648
                Factored matrix follows:
                  Mat Object: (mg_coarse_sub_) 1 MPI process
                    type: seqaijkokkos
                    rows=320, cols=320
                    package used to perform factorization: kokkos
                    total: nonzeros=92664, allocated nonzeros=92664
                      using I-node routines: found 222 nodes, limit used is 5
            linear system matrix = precond matrix:
            Mat Object: (mg_coarse_sub_) 1 MPI process
              type: seqaijkokkos
              rows=320, cols=320
              total: nonzeros=56228, allocated nonzeros=56228
              total number of mallocs used during MatSetValues calls=0
                not using I-node routines
        linear system matrix = precond matrix:
        Mat Object: 64 MPI processes
          type: mpiaijkokkos
          rows=320, cols=320
          total: nonzeros=56228, allocated nonzeros=56228
          total number of mallocs used during MatSetValues calls=0
            not using I-node (on process 0) routines
    Down solver (pre-smoother) on level 1 -------------------------------
      KSP Object: (mg_levels_1_) 64 MPI processes
        type: richardson
          damping factor=1.
        maximum iterations=2, nonzero initial guess
        tolerances:  relative=1e-05, absolute=1e-50, divergence=10000.
        left preconditioning
        using NONE norm type for convergence test
      PC Object: (mg_levels_1_) 64 MPI processes
        type: jacobi
          type ROWL1 (l1-norm off-diagonal scaling 2.500000e-01)
        linear system matrix = precond matrix:
        Mat Object: 64 MPI processes
          type: mpiaijkokkos
          rows=7935, cols=7935
          total: nonzeros=1368463, allocated nonzeros=1368463
          total number of mallocs used during MatSetValues calls=0
            not using I-node (on process 0) routines
    Up solver (post-smoother) same as down solver (pre-smoother)
    Down solver (pre-smoother) on level 2 -------------------------------
      KSP Object: (mg_levels_2_) 64 MPI processes
        type: richardson
          damping factor=1.
        maximum iterations=2, nonzero initial guess
        tolerances:  relative=1e-05, absolute=1e-50, divergence=10000.
        left preconditioning
        using NONE norm type for convergence test
      PC Object: (mg_levels_2_) 64 MPI processes
        type: jacobi
          type ROWL1 (l1-norm off-diagonal scaling 2.500000e-01)
        linear system matrix = precond matrix:
        Mat Object: 64 MPI processes
          type: mpiaijkokkos
          rows=250047, cols=250047
          total: nonzeros=15069223, allocated nonzeros=15069223
          total number of mallocs used during MatSetValues calls=0
            not using I-node (on process 0) routines
    Up solver (post-smoother) same as down solver (pre-smoother)
    linear system matrix = precond matrix:
    Mat Object: 64 MPI processes
      type: mpiaijkokkos
      rows=250047, cols=250047
      total: nonzeros=15069223, allocated nonzeros=15069223
      total number of mallocs used during MatSetValues calls=0
        not using I-node (on process 0) routines
****************************************************************************************************************************************************************
***                                WIDEN YOUR WINDOW TO 160 CHARACTERS.  Use 'enscript -r -fCourier9' to print this document                                 ***
****************************************************************************************************************************************************************

------------------------------------------------------------------ PETSc Performance Summary: ------------------------------------------------------------------

/global/u2/m/madams/petsc/src/snes/tests/data/../ex13 on a arch-perlmutter-opt-gcc-kokkos-cuda-jc named nid200465 with 64 processors, by madams Wed Feb 14 06:55:31 2024
Using Petsc Development GIT revision: v3.20.4-581-g6c78ff6db8b  GIT Date: 2024-02-11 15:30:17 -0500

                         Max       Max/Min     Avg       Total
Time (sec):           6.009e+01     1.000   6.009e+01
Objects:              0.000e+00     0.000   0.000e+00
Flops:                3.609e+08     1.428   3.082e+08  1.973e+10
Flops/sec:            6.007e+06     1.428   5.130e+06  3.283e+08
MPI Msg Count:        3.018e+04     4.920   1.588e+04  1.017e+06
MPI Msg Len (bytes):  2.925e+07     2.836   1.180e+03  1.199e+09
MPI Reductions:       1.529e+03     1.000

Flop counting convention: 1 flop = 1 real number operation of type (multiply/divide/add/subtract)
                            e.g., VecAXPY() for real vectors of length N --> 2N flops
                            and VecAXPY() for complex vectors of length N --> 8N flops

Summary of Stages:   ----- Time ------  ----- Flop ------  --- Messages ---  -- Message Lengths --  -- Reductions --
                        Avg     %Total     Avg     %Total    Count   %Total     Avg         %Total    Count   %Total
 0:      Main Stage: 5.7083e+01  95.0%  1.0490e+10  53.2%  6.577e+05  64.7%  1.369e+03       75.1%  1.304e+03  85.3%
 1:      Solve only: 3.0036e+00   5.0%  9.2377e+09  46.8%  3.589e+05  35.3%  8.332e+02       24.9%  2.060e+02  13.5%

------------------------------------------------------------------------------------------------------------------------
See the 'Profiling' chapter of the users' manual for details on interpreting output.
Phase summary info:
   Count: number of times phase was executed
   Time and Flop: Max - maximum over all processors
                  Ratio - ratio of maximum to minimum over all processors
   Mess: number of messages sent
   AvgLen: average message length (bytes)
   Reduct: number of global reductions
   Global: entire computation
   Stage: stages of a computation. Set stages with PetscLogStagePush() and PetscLogStagePop().
      %T - percent time in this phase         %F - percent flop in this phase
      %M - percent messages in this phase     %L - percent message lengths in this phase
      %R - percent reductions in this phase
   Total Mflop/s: 10e-6 * (sum of flop over all processors)/(max time over all processors)
   GPU Mflop/s: 10e-6 * (sum of flop on GPU over all processors)/(max GPU time over all processors)
   CpuToGpu Count: total number of CPU to GPU copies per processor
   CpuToGpu Size (Mbytes): 10e-6 * (total size of CPU to GPU copies per processor)
   GpuToCpu Count: total number of GPU to CPU copies per processor
   GpuToCpu Size (Mbytes): 10e-6 * (total size of GPU to CPU copies per processor)
   GPU %F: percent flops on GPU in this event
------------------------------------------------------------------------------------------------------------------------
Event                Count      Time (sec)     Flop                              --- Global ---  --- Stage ----  Total   GPU    - CpuToGpu -   - GpuToCpu - GPU
                   Max Ratio  Max     Ratio   Max  Ratio  Mess   AvgLen  Reduct  %T %F %M %L %R  %T %F %M %L %R Mflop/s Mflop/s Count   Size   Count   Size  %F
---------------------------------------------------------------------------------------------------------------------------------------------------------------

--- Event Stage 0: Main Stage

BuildTwoSided        270 1.0 4.0575e+01 997.9 0.00e+00 0.0 6.2e+04 8.0e+00 2.7e+02  6  0  6  0 18   6  0  9  0 21     0       0      0 0.00e+00    0 0.00e+00  0
BuildTwoSidedF        22 1.0 8.5341e-02 3.8 0.00e+00 0.0 1.8e+03 2.3e+04 2.2e+01  0  0  0  3  1   0  0  0  5  2     0       0      0 0.00e+00    0 0.00e+00  0
MatMult              799 1.7 1.4559e+00 1.9 1.54e+08 1.5 3.1e+05 9.4e+02 0.0e+00  2 42 31 25  0   2 79 48 33  0  5666       0    718 9.29e+00  716 9.27e+00  100
MatMultAdd            98 1.0 5.2109e-01 2.4 4.82e+06 1.4 2.8e+04 2.5e+02 0.0e+00  1  1  3  1  0   1  3  4  1  0   505       0    145 2.17e-01   51 2.17e-01  100
MatMultTranspose      98 1.0 4.4424e-01 3.3 4.85e+06 1.4 2.8e+04 2.5e+02 0.0e+00  0  1  3  1  0   0  3  4  1  0   594       0     51 2.20e-01  145 2.17e-01  100
MatSolve              49 0.0 4.3059e-03 0.0 9.07e+06 0.0 0.0e+00 0.0e+00 0.0e+00  0  0  0  0  0   0  0  0  0  0  2105       0      0 0.00e+00    0 0.00e+00  0
MatLUFactorSym         1 1.0 3.8877e-03 404.6 0.00e+00 0.0 0.0e+00 0.0e+00 0.0e+00  0  0  0  0  0   0  0  0  0  0     0       0      0 0.00e+00    0 0.00e+00  0
MatLUFactorNum         1 1.0 7.3866e-03 1304.8 1.73e+07 0.0 0.0e+00 0.0e+00 0.0e+00  0  0  0  0  0   0  0  0  0  0  2338       0      0 0.00e+00    0 0.00e+00  0
MatConvert             2 1.0 6.4881e-02 1.4 0.00e+00 0.0 2.6e+03 4.7e+02 2.0e+00  0  0  0  0  0   0  0  0  0  0     0       0      0 0.00e+00    0 0.00e+00  0
MatScale               6 1.0 7.8685e-02 8.5 7.23e+05 1.5 1.3e+03 9.2e+02 0.0e+00  0  0  0  0  0   0  0  0  0  0   486       0      4 5.65e-02    3 3.77e-02  100
MatResidual           98 1.0 3.1729e-01 1.9 3.10e+07 1.5 6.4e+04 9.2e+02 0.0e+00  0  8  6  5  0   0 16 10  7  0  5157       0    147 1.85e+00  147 1.85e+00  100
MatAssemblyBegin      91 1.0 2.7345e-02 3.4 0.00e+00 0.0 1.8e+03 2.3e+04 1.0e+01  0  0  0  3  1   0  0  0  5  1     0       0      0 0.00e+00    0 0.00e+00  0
MatAssemblyEnd        91 1.0 1.3401e+00 2.7 3.63e+04 0.0 1.9e+04 2.9e+02 8.5e+01  2  0  2  0  6   2  0  3  1  7     1       0      0 0.00e+00    0 0.00e+00  0
MatGetRowIJ            1 0.0 1.8703e-04 0.0 0.00e+00 0.0 0.0e+00 0.0e+00 0.0e+00  0  0  0  0  0   0  0  0  0  0     0       0      0 0.00e+00    0 0.00e+00  0
MatCreateSubMat        4 1.0 1.8903e-01 1.0 0.00e+00 0.0 2.2e+03 5.7e+03 6.0e+01  0  0  0  1  4   0  0  0  1  5     0       0      0 0.00e+00    0 0.00e+00  0
MatGetOrdering         1 0.0 7.3892e-04 0.0 0.00e+00 0.0 0.0e+00 0.0e+00 0.0e+00  0  0  0  0  0   0  0  0  0  0     0       0      0 0.00e+00    0 0.00e+00  0
MatCoarsen             2 1.0 3.4758e-03 1.1 0.00e+00 0.0 1.2e+04 1.6e+03 1.5e+01  0  0  1  2  1   0  0  2  2  1     0       0      0 0.00e+00    0 0.00e+00  0
MatZeroEntries         1 1.0 6.8902e-03 1.7 0.00e+00 0.0 0.0e+00 0.0e+00 0.0e+00  0  0  0  0  0   0  0  0  0  0     0       0      0 0.00e+00    0 0.00e+00  0
MatView                6 1.5 1.4958e-03 3.4 0.00e+00 0.0 0.0e+00 0.0e+00 4.0e+00  0  0  0  0  0   0  0  0  0  0     0       0      0 0.00e+00    0 0.00e+00  0
MatAXPY                2 1.0 4.1966e-02 1.2 4.40e+03 1.2 0.0e+00 0.0e+00 2.0e+00  0  0  0  0  0   0  0  0  0  0     6       0      0 0.00e+00    0 0.00e+00  0
MatMatMultSym          2 1.0 1.0200e+00 1.0 0.00e+00 0.0 1.0e+04 4.8e+02 1.6e+01  2  0  1  0  1   2  0  2  1  1     0       0      3 3.77e-02    3 3.77e-02  0
MatMatMultNum          2 1.0 1.0610e-06 2.3 0.00e+00 0.0 0.0e+00 0.0e+00 0.0e+00  0  0  0  0  0   0  0  0  0  0     0       0      0 0.00e+00    0 0.00e+00  0
MatPtAPSymbolic        2 1.0 2.2226e+00 1.0 0.00e+00 0.0 2.3e+04 3.8e+03 3.2e+01  4  0  2  7  2   4  0  3  9  2     0       0      6 8.69e-01    6 8.69e-01  0
MatPtAPNumeric         2 1.0 1.1330e-06 2.5 0.00e+00 0.0 0.0e+00 0.0e+00 0.0e+00  0  0  0  0  0   0  0  0  0  0     0       0      0 0.00e+00    0 0.00e+00  0
MatTrnMatMultSym       2 1.0 1.1135e+00 1.0 0.00e+00 0.0 8.0e+03 1.6e+04 1.6e+01  2  0  1 11  1   2  0  1 14  1     0       0      3 1.31e+00    3 1.31e+00  0
MatSetPreallCOO       20 1.0 8.6739e-05 1.5 0.00e+00 0.0 0.0e+00 0.0e+00 0.0e+00  0  0  0  0  0   0  0  0  0  0     0       0      0 0.00e+00    0 0.00e+00  0
MatSetValuesCOO       20 1.0 5.1498e-05 1.8 0.00e+00 0.0 0.0e+00 0.0e+00 0.0e+00  0  0  0  0  0   0  0  0  0  0     0       0      0 0.00e+00    0 0.00e+00  0
KSPSetUp               7 1.0 1.9320e-02 1.6 0.00e+00 0.0 0.0e+00 0.0e+00 0.0e+00  0  0  0  0  0   0  0  0  0  0     0       0      0 0.00e+00    0 0.00e+00  0
KSPSolve               1 1.0 3.0863e+00 1.0 1.64e+08 1.5 3.6e+05 8.3e+02 2.0e+02  5 45 35 25 13   5 85 54 33 15  2876       0    883 9.33e+00  882 9.33e+00  100
SNESSolve              1 1.0 9.4059e+00 1.0 1.90e+08 1.4 4.5e+05 1.4e+03 5.0e+02 16 53 44 52 32  16 100 68 69 38  1112       0    963 1.26e+01  954 1.25e+01  88
SNESSetUp              1 1.0 1.4041e-01 1.0 0.00e+00 0.0 7.2e+03 1.7e+04 2.2e+01  0  0  1 10  1   0  0  1 14  2     0       0      0 0.00e+00    0 0.00e+00  0
SNESFunctionEval       1 1.0 6.4477e-02 1.1 6.74e+06 1.0 1.1e+03 8.1e+02 3.0e+00  0  2  0  0  0   0  4  0  0  0  6583       0      7 5.93e-02    4 1.87e-02  0
SNESJacobianEval       1 1.0 3.3203e-01 1.5 1.20e+07 1.0 8.4e+02 4.8e+04 2.0e+00  0  4  0  3  0   1  7  0  4  0  2288       0      2 9.36e-03    2 9.36e-03  0
DMRefine               3 1.0 6.3028e-03 1.0 0.00e+00 0.0 7.0e+03 1.8e+02 3.8e+01  0  0  1  0  2   0  0  1  0  3     0       0      0 0.00e+00    0 0.00e+00  0
DMCreateMat            1 1.0 1.3788e-01 1.0 0.00e+00 0.0 7.2e+03 1.7e+04 1.9e+01  0  0  1 10  1   0  0  1 14  1     0       0      0 0.00e+00    0 0.00e+00  0
DMPlexCrFromOpts       1 1.0 4.5432e+00 2825.7 0.00e+00 0.0 0.0e+00 0.0e+00 1.0e+00  1  0  0  0  0   1  0  0  0  0     0       0      0 0.00e+00    0 0.00e+00  0
Mesh Partition         1 1.0 3.0102e-03 1.2 0.00e+00 0.0 3.2e+02 2.2e+02 8.0e+00  0  0  0  0  1   0  0  0  0  1     0       0      0 0.00e+00    0 0.00e+00  0
Mesh Migration         1 1.0 4.2908e+01 1.0 0.00e+00 0.0 1.8e+03 1.6e+02 3.2e+01 71  0  0  0  2  75  0  0  0  2     0       0      0 0.00e+00    0 0.00e+00  0
DMPlexPartSelf         1 1.0 6.9395e-04 53.7 0.00e+00 0.0 0.0e+00 0.0e+00 0.0e+00  0  0  0  0  0   0  0  0  0  0     0       0      0 0.00e+00    0 0.00e+00  0
DMPlexPartLblInv       1 1.0 1.2905e-03 2.1 0.00e+00 0.0 0.0e+00 0.0e+00 3.0e+00  0  0  0  0  0   0  0  0  0  0     0       0      0 0.00e+00    0 0.00e+00  0
DMPlexPartLblSF        1 1.0 6.0722e-04 4.2 0.00e+00 0.0 1.3e+02 1.1e+02 1.0e+00  0  0  0  0  0   0  0  0  0  0     0       0      0 0.00e+00    0 0.00e+00  0
DMPlexPartStrtSF       1 1.0 3.2401e-04 1.5 0.00e+00 0.0 6.3e+01 4.3e+02 0.0e+00  0  0  0  0  0   0  0  0  0  0     0       0      0 0.00e+00    0 0.00e+00  0
DMPlexPointSF          1 1.0 9.1066e-04 1.1 0.00e+00 0.0 1.3e+02 5.4e+02 0.0e+00  0  0  0  0  0   0  0  0  0  0     0       0      0 0.00e+00    0 0.00e+00  0
DMPlexInterp          30 1.0 1.2596e-03 1.1 0.00e+00 0.0 0.0e+00 0.0e+00 0.0e+00  0  0  0  0  0   0  0  0  0  0     0       0      0 0.00e+00    0 0.00e+00  0
DMPlexDistribute       1 1.0 4.2912e+01 1.0 0.00e+00 0.0 2.2e+03 1.9e+02 4.3e+01 71  0  0  0  3  75  0  0  0  3     0       0      0 0.00e+00    0 0.00e+00  0
DMPlexDistCones        1 1.0 6.5184e-04 1.0 0.00e+00 0.0 3.8e+02 2.9e+02 2.0e+00  0  0  0  0  0   0  0  0  0  0     0       0      0 0.00e+00    0 0.00e+00  0
DMPlexDistLabels       1 1.0 1.8764e-03 1.1 0.00e+00 0.0 9.0e+02 1.4e+02 2.4e+01  0  0  0  0  2   0  0  0  0  2     0       0      0 0.00e+00    0 0.00e+00  0
DMPlexDistField        1 1.0 4.2905e+01 1.0 0.00e+00 0.0 4.4e+02 8.7e+01 2.0e+00 71  0  0  0  0  75  0  0  0  0     0       0      0 0.00e+00    0 0.00e+00  0
DMPlexStratify        48 1.0 4.5437e+00 1898.7 0.00e+00 0.0 0.0e+00 0.0e+00 5.0e+00  1  0  0  0  0   1  0  0  0  0     0       0      0 0.00e+00    0 0.00e+00  0
DMPlexSymmetrize      48 1.0 2.9068e-04 1.1 0.00e+00 0.0 0.0e+00 0.0e+00 0.0e+00  0  0  0  0  0   0  0  0  0  0     0       0      0 0.00e+00    0 0.00e+00  0
DMPlexPrealloc         1 1.0 1.3519e-01 1.0 0.00e+00 0.0 7.2e+03 1.7e+04 1.7e+01  0  0  1 10  1   0  0  1 14  1     0       0      0 0.00e+00    0 0.00e+00  0
DMPlexResidualFE       1 1.0 1.9640e-02 1.1 6.50e+06 1.0 0.0e+00 0.0e+00 0.0e+00  0  2  0  0  0   0  4  0  0  0 21172       0      0 0.00e+00    0 0.00e+00  0
DMPlexJacobianFE       1 1.0 3.1969e-01 1.6 1.18e+07 1.0 5.6e+02 7.2e+04 2.0e+00  0  4  0  3  0   0  7  0  4  0  2349       0      0 0.00e+00    0 0.00e+00  0
DMPlexGenerate         1 1.0 4.5431e+00 2875.1 0.00e+00 0.0 0.0e+00 0.0e+00 1.0e+00  1  0  0  0  0   1  0  0  0  0     0       0      0 0.00e+00    0 0.00e+00  0
DMPlexTransform        3 1.0 5.6690e-03 1.0 0.00e+00 0.0 7.0e+03 1.8e+02 2.0e+01  0  0  1  0  1   0  0  1  0  2     0       0      0 0.00e+00    0 0.00e+00  0
SFSetGraph           255 1.0 9.9005e-04 4.4 0.00e+00 0.0 0.0e+00 0.0e+00 0.0e+00  0  0  0  0  0   0  0  0  0  0     0       0      0 0.00e+00    0 0.00e+00  0
SFSetUp              248 1.0 4.0549e+01 1097.3 0.00e+00 0.0 1.2e+05 1.2e+03 2.5e+02  6  0 12 12 16   6  0 18 16 19     0       0      0 0.00e+00    0 0.00e+00  0
SFBcastBegin         462 1.0 4.8587e-02 2.1 0.00e+00 0.0 1.2e+05 1.3e+03 0.0e+00  0  0 12 13  0   0  0 18 17  0     0       0      2 3.59e-02   10 5.58e-01  0
SFBcastEnd           462 1.0 6.5346e-02 4.3 0.00e+00 0.0 0.0e+00 0.0e+00 0.0e+00  0  0  0  0  0   0  0  0  0  0     0       0     11 5.63e-01    0 0.00e+00  0
SFReduceBegin         84 1.0 1.8834e-02 4.0 0.00e+00 0.0 2.5e+04 7.5e+03 0.0e+00  0  0  2 16  0   0  0  4 21  0     0       0      0 0.00e+00    8 1.69e+00  0
SFReduceEnd           84 1.0 4.4251e-02 12.0 8.17e+02 0.0 0.0e+00 0.0e+00 0.0e+00  0  0  0  0  0   0  0  0  0  0     1       0      8 1.69e+00    0 0.00e+00  100
SFFetchOpBegin         2 1.0 1.9042e-04 42.9 0.00e+00 0.0 5.6e+02 2.5e+04 0.0e+00  0  0  0  1  0   0  0  0  2  0     0       0      0 0.00e+00    0 0.00e+00  0
SFFetchOpEnd           2 1.0 2.2975e-03 2.9 0.00e+00 0.0 5.6e+02 2.5e+04 0.0e+00  0  0  0  1  0   0  0  0  2  0     0       0      0 0.00e+00    0 0.00e+00  0
SFCreateEmbed          6 1.0 5.2312e-03 16.3 0.00e+00 0.0 1.5e+03 6.6e+01 0.0e+00  0  0  0  0  0   0  0  0  0  0     0       0      0 0.00e+00    0 0.00e+00  0
SFDistSection        135 1.0 2.0261e-02 1.5 0.00e+00 0.0 1.1e+05 9.5e+02 2.0e+02  0  0 11  9 13   0  0 17 12 15     0       0      0 0.00e+00    0 0.00e+00  0
SFSectionSF          140 1.0 4.0518e+01 5379.0 0.00e+00 0.0 4.6e+04 3.7e+02 1.4e+02  5  0  4  1  9   6  0  7  2 11     0       0      0 0.00e+00    0 0.00e+00  0
SFRemoteOff            5 1.0 5.5212e-03 8.3 0.00e+00 0.0 3.9e+03 2.5e+02 2.0e+00  0  0  0  0  0   0  0  1  0  0     0       0      0 0.00e+00    0 0.00e+00  0
SFPack              1223 1.0 4.1372e-02 1.8 0.00e+00 0.0 0.0e+00 0.0e+00 0.0e+00  0  0  0  0  0   0  0  0  0  0     0       0      7 9.30e-02    0 0.00e+00  0
SFUnpack            1225 1.0 6.2002e-03 6.9 1.34e+05 593.4 0.0e+00 0.0e+00 0.0e+00  0  0  0  0  0   0  0  0  0  0   146       0      2 6.90e-03    0 0.00e+00  100
VecTDot              146 1.0 5.9547e-01 1.2 1.02e+06 1.2 0.0e+00 0.0e+00 1.5e+02  1  0  0  0 10   1  1  0  0 11   104       0      0 0.00e+00    0 0.00e+00  100
VecNorm               50 1.0 1.5432e-01 1.0 4.10e+05 1.2 0.0e+00 0.0e+00 5.0e+01  0  0  0  0  3   0  0  0  0  4   162       0      0 0.00e+00    0 0.00e+00  100
VecScale               2 1.0 1.6543e-05 2.9 4.40e+03 1.2 0.0e+00 0.0e+00 0.0e+00  0  0  0  0  0   0  0  0  0  0 15595       0      0 0.00e+00    0 0.00e+00  100
VecCopy              107 1.0 2.4085e-01 2.0 0.00e+00 0.0 0.0e+00 0.0e+00 0.0e+00  0  0  0  0  0   0  0  0  0  0     0       0      0 0.00e+00    0 0.00e+00  0
VecSet               149 1.0 2.9870e-01 7.5 0.00e+00 0.0 0.0e+00 0.0e+00 0.0e+00  0  0  0  0  0   0  0  0  0  0     0       0      0 0.00e+00    0 0.00e+00  0
VecAXPY              537 1.0 5.3192e-01 1.2 2.74e+06 1.2 0.0e+00 0.0e+00 0.0e+00  1  1  0  0  0   1  2  0  0  0   306       0      0 0.00e+00    0 0.00e+00  100
VecAYPX              458 1.0 9.3521e-03 1.6 2.20e+06 1.2 0.0e+00 0.0e+00 0.0e+00  0  1  0  0  0   0  1  0  0  0 13877       0      0 0.00e+00    0 0.00e+00  100
VecAssemblyBegin      14 1.0 6.1953e-02 3.7 0.00e+00 0.0 0.0e+00 0.0e+00 1.2e+01  0  0  0  0  1   0  0  0  0  1     0       0      0 0.00e+00    0 0.00e+00  0
VecAssemblyEnd        14 1.0 9.5979e-05 2.2 0.00e+00 0.0 0.0e+00 0.0e+00 0.0e+00  0  0  0  0  0   0  0  0  0  0     0       0      0 0.00e+00    0 0.00e+00  0
VecPointwiseMult     414 1.0 2.3499e-03 1.6 9.10e+05 1.2 0.0e+00 0.0e+00 0.0e+00  0  0  0  0  0   0  1  0  0  0 22725       0      0 0.00e+00    0 0.00e+00  100
VecScatterBegin      675 1.0 1.5491e+00 3.2 0.00e+00 0.0 3.8e+05 8.6e+02 0.0e+00  1  0 38 27  0   2  0 58 36  0     0       0      6 8.83e-02  936 1.02e+01  0
VecScatterEnd        675 1.0 1.0882e+00 2.1 1.34e+05 0.0 0.0e+00 0.0e+00 0.0e+00  1  0  0  0  0   2  0  0  0  0     1       0    937 1.02e+01    0 0.00e+00  100
DualSpaceSetUp         5 1.0 7.0120e-03 1.0 3.13e+03 1.0 0.0e+00 0.0e+00 0.0e+00  0  0  0  0  0   0  0  0  0  0    29       0      0 0.00e+00    0 0.00e+00  0
FESetUp                5 1.0 2.1220e-03 1.6 0.00e+00 0.0 0.0e+00 0.0e+00 0.0e+00  0  0  0  0  0   0  0  0  0  0     0       0      0 0.00e+00    0 0.00e+00  0
PCSetUp_GAMG+          1 1.0 6.0420e+00 1.0 7.47e+06 1.5 8.6e+04 3.3e+03 2.9e+02 10  2  8 24 19  10  4 13 31 22    66       0     72 3.19e+00   66 3.10e+00  100
 PCGAMGCreateG         2 1.0 2.6930e-01 1.0 6.24e+05 1.5 5.7e+03 5.9e+02 1.6e+01  0  0  1  0  1   0  0  1  0  1   122       0      4 5.65e-02    3 3.77e-02  100
 GAMG Coarsen          4 1.0 1.2547e+00 1.0 0.00e+00 0.0 2.6e+04 6.0e+03 3.9e+01  2  0  3 13  3   2  0  4 18  3     0       0     21 1.68e+00   18 1.63e+00  0
  GAMG MIS/Agg         2 1.0 1.1174e+00 1.0 0.00e+00 0.0 2.0e+04 7.4e+03 3.1e+01  2  0  2 12  2   2  0  3 16  2     0       0      3 1.31e+00    3 1.31e+00  0
 PCGAMGProl            2 1.0 1.3124e-01 1.1 0.00e+00 0.0 5.1e+03 1.1e+03 2.4e+01  0  0  0  0  2   0  0  1  1  2     0       0      6 1.45e-01    6 1.45e-01  0
  GAMG Prol-col        2 1.0 4.9000e-02 1.2 0.00e+00 0.0 2.6e+03 1.8e+03 4.0e+00  0  0  0  0  0   0  0  0  1  0     0       0      6 1.45e-01    6 1.45e-01  0
  GAMG Prol-lift       2 1.0 7.9483e-02 1.1 0.00e+00 0.0 2.5e+03 3.8e+02 1.2e+01  0  0  0  0  1   0  0  0  0  1     0       0      0 0.00e+00    0 0.00e+00  0
 PCGAMGOptProl         2 1.0 1.8270e+00 1.0 6.85e+06 1.5 2.3e+04 7.3e+02 6.4e+01  3  2  2  1  4   3  3  4  2  5   199       0     34 4.33e-01   33 4.14e-01  100
  GAMG smooth          2 1.0 1.0687e+00 1.0 1.03e+05 1.4 1.0e+04 4.8e+02 1.8e+01  2  0  1  0  1   2  0  2  1  1     5       0      3 3.77e-02    3 3.77e-02  95
 PCGAMGCreateL         2 1.0 2.4163e+00 1.0 0.00e+00 0.0 2.5e+04 3.9e+03 1.4e+02  4  0  2  8  9   4  0  4 11 11     0       0      6 8.69e-01    6 8.69e-01  0
  GAMG PtAP            2 1.0 2.2226e+00 1.0 0.00e+00 0.0 2.3e+04 3.8e+03 3.2e+01  4  0  2  7  2   4  0  3  9  2     0       0      6 8.69e-01    6 8.69e-01  0
  GAMG Reduce          2 1.0 1.9367e-01 1.0 0.00e+00 0.0 2.7e+03 4.8e+03 1.1e+02  0  0  0  1  7   0  0  0  1  8     0       0      0 0.00e+00    0 0.00e+00  0
PCGAMG Squ l00         1 1.0 5.8056e-01 1.0 0.00e+00 0.0 5.3e+03 2.3e+04 8.0e+00  1  0  1 10  1   1  0  1 13  1     0       0      2 1.23e+00    2 1.23e+00  0
PCGAMG Gal l00         1 1.0 1.1584e+00 1.0 0.00e+00 0.0 1.5e+04 4.5e+03 1.6e+01  2  0  1  5  1   2  0  2  7  1     0       0      4 6.63e-01    4 6.63e-01  0
PCGAMG Opt l00         1 1.0 5.2460e-01 1.0 0.00e+00 0.0 7.4e+03 5.5e+02 8.0e+00  1  0  1  0  1   1  0  1  0  1     0       0      2 3.08e-02    2 3.08e-02  0
PCGAMG Squ l01         1 1.0 5.3335e-01 1.0 0.00e+00 0.0 2.7e+03 3.1e+03 8.0e+00  1  0  0  1  1   1  0  0  1  1     0       0      1 8.39e-02    1 8.39e-02  0
PCGAMG Gal l01         1 1.0 1.0643e+00 1.0 0.00e+00 0.0 7.9e+03 2.5e+03 1.6e+01  2  0  1  2  1   2  0  1  2  1     0       0      2 2.06e-01    2 2.06e-01  0
PCGAMG Opt l01         1 1.0 4.9540e-01 1.0 0.00e+00 0.0 3.0e+03 3.0e+02 8.0e+00  1  0  0  0  1   1  0  0  0  1     0       0      1 6.86e-03    1 6.86e-03  0
PCSetUp                2 1.0 6.0541e+00 1.0 2.26e+07 4.6 8.6e+04 3.3e+03 2.9e+02 10  2  8 24 19  10  4 13 31 22    68       0     72 3.19e+00   66 3.10e+00  96
PCSetUpOnBlocks       49 1.0 1.2076e-02 148.2 1.73e+07 0.0 0.0e+00 0.0e+00 0.0e+00  0  0  0  0  0   0  0  0  0  0  1430       0      0 0.00e+00    0 0.00e+00  0
PCApply               49 1.0 2.4547e+00 1.0 1.36e+08 1.5 3.1e+05 8.0e+02 4.9e+01  4 37 31 21  3   4 69 47 28  4  2954       0    785 7.82e+00  784 7.82e+00  100

--- Event Stage 1: Solve only

MatMult              610 1.4 1.4037e+00 1.9 1.48e+08 1.5 3.0e+05 9.4e+02 0.0e+00  2 40 30 24  0  36 86 84 95  0  5643       0    686 8.89e+00  686 8.89e+00  100
MatMultAdd            98 1.0 5.1750e-01 2.4 4.82e+06 1.4 2.8e+04 2.5e+02 0.0e+00  1  1  3  1  0  12  3  8  2  0   508       0    145 2.17e-01   51 2.17e-01  100
MatMultTranspose      98 1.0 3.7351e-01 4.2 4.85e+06 1.4 2.8e+04 2.5e+02 0.0e+00  0  1  3  1  0   7  3  8  2  0   706       0     51 2.17e-01  145 2.17e-01  100
MatSolve              49 0.0 4.3035e-03 0.0 9.07e+06 0.0 0.0e+00 0.0e+00 0.0e+00  0  0  0  0  0   0  0  0  0  0  2107       0      0 0.00e+00    0 0.00e+00  0
MatResidual           98 1.0 3.1738e-01 1.9 3.10e+07 1.5 6.4e+04 9.2e+02 0.0e+00  0  8  6  5  0   8 18 18 20  0  5155       0    147 1.85e+00  147 1.85e+00  100
MatView                6 1.5 1.0154e-03 3.0 0.00e+00 0.0 0.0e+00 0.0e+00 4.0e+00  0  0  0  0  0   0  0  0  0  2     0       0      0 0.00e+00    0 0.00e+00  0
KSPSetUp               1 1.0 4.7100e-07 3.1 0.00e+00 0.0 0.0e+00 0.0e+00 0.0e+00  0  0  0  0  0   0  0  0  0  0     0       0      0 0.00e+00    0 0.00e+00  0
KSPSolve               1 1.0 2.9726e+00 1.0 1.64e+08 1.5 3.6e+05 8.3e+02 2.0e+02  5 45 35 25 13  99 96 100 100 97  2980       0    882 9.33e+00  882 9.33e+00  100
SNESSolve              1 1.0 3.0016e+00 1.0 1.70e+08 1.5 3.6e+05 8.3e+02 2.0e+02  5 47 35 25 13 100 100 100 100 97  3078       0    886 9.34e+00  886 9.34e+00  96
SNESFunctionEval       1 1.0 3.5001e-02 1.2 6.05e+06 1.0 5.6e+02 1.1e+03 0.0e+00  0  2  0  0  0   1  4  0  0  0 10862       0      4 1.87e-02    4 1.87e-02  0
DMPlexResidualFE       1 1.0 2.1097e-02 1.5 5.81e+06 1.0 0.0e+00 0.0e+00 0.0e+00  0  2  0  0  0   1  4  0  0  0 17613       0      0 0.00e+00    0 0.00e+00  0
SFBcastBegin           1 1.0 2.0858e-03 116.6 0.00e+00 0.0 2.8e+02 1.1e+03 0.0e+00  0  0  0  0  0   0  0  0  0  0     0       0      0 0.00e+00    2 9.36e-03  0
SFBcastEnd             1 1.0 5.8161e-03 1535.8 0.00e+00 0.0 0.0e+00 0.0e+00 0.0e+00  0  0  0  0  0   0  0  0  0  0     0       0      2 9.36e-03    0 0.00e+00  0
SFReduceBegin          1 1.0 2.2877e-03 125.1 0.00e+00 0.0 2.8e+02 1.1e+03 0.0e+00  0  0  0  0  0   0  0  0  0  0     0       0      0 0.00e+00    2 9.36e-03  0
SFReduceEnd            1 1.0 7.1278e-03 674.3 8.17e+02 0.0 0.0e+00 0.0e+00 0.0e+00  0  0  0  0  0   0  0  0  0  0     5       0      2 9.36e-03    0 0.00e+00  100
SFPack               639 1.0 2.8254e-03 2.3 0.00e+00 0.0 0.0e+00 0.0e+00 0.0e+00  0  0  0  0  0   0  0  0  0  0     0       0      0 0.00e+00    0 0.00e+00  0
SFUnpack             639 1.0 6.7054e-04 8.9 1.34e+05 593.4 0.0e+00 0.0e+00 0.0e+00  0  0  0  0  0   0  0  0  0  0  1353       0      0 0.00e+00    0 0.00e+00  100
VecTDot              100 1.0 3.7953e-01 1.1 8.19e+05 1.2 0.0e+00 0.0e+00 1.0e+02  1  0  0  0  7  12  1  0  0 49   132       0      0 0.00e+00    0 0.00e+00  100
VecNorm               50 1.0 1.5155e-01 1.0 4.10e+05 1.2 0.0e+00 0.0e+00 5.0e+01  0  0  0  0  3   5  0  0  0 24   165       0      0 0.00e+00    0 0.00e+00  100
VecCopy              100 1.0 2.3723e-01 2.0 0.00e+00 0.0 0.0e+00 0.0e+00 0.0e+00  0  0  0  0  0   6  0  0  0  0     0       0      0 0.00e+00    0 0.00e+00  0
VecSet               152 1.0 2.9331e-01 6.4 0.00e+00 0.0 0.0e+00 0.0e+00 0.0e+00  0  0  0  0  0   6  0  0  0  0     0       0      0 0.00e+00    0 0.00e+00  0
VecAXPY              491 1.0 2.5440e-03 1.5 2.53e+06 1.2 0.0e+00 0.0e+00 0.0e+00  0  1  0  0  0   0  2  0  0  0 59213       0      0 0.00e+00    0 0.00e+00  100
VecAYPX              440 1.0 3.1171e-03 1.5 2.12e+06 1.2 0.0e+00 0.0e+00 0.0e+00  0  1  0  0  0   0  1  0  0  0 40144       0      0 0.00e+00    0 0.00e+00  100
VecPointwiseMult     392 1.0 2.1605e-03 1.6 8.61e+05 1.2 0.0e+00 0.0e+00 0.0e+00  0  0  0  0  0   0  1  0  0  0 23404       0      0 0.00e+00    0 0.00e+00  100
VecScatterBegin      637 1.0 1.4426e+00 3.2 0.00e+00 0.0 3.6e+05 8.3e+02 0.0e+00  1  0 35 25  0  27  0 100 100  0     0       0      0 0.00e+00  882 9.33e+00  0
VecScatterEnd        637 1.0 1.0311e+00 2.1 1.34e+05 0.0 0.0e+00 0.0e+00 0.0e+00  1  0  0  0  0  28  0  0  0  0     1       0    882 9.33e+00    0 0.00e+00  100
PCSetUpOnBlocks       49 1.0 3.4390e-05 2.7 0.00e+00 0.0 0.0e+00 0.0e+00 0.0e+00  0  0  0  0  0   0  0  0  0  0     0       0      0 0.00e+00    0 0.00e+00  0
PCApply               49 1.0 2.3423e+00 1.0 1.36e+08 1.5 3.1e+05 8.0e+02 4.9e+01  4 37 31 21  3  78 78 87 84 24  3088       0    784 7.82e+00  784 7.82e+00  100
---------------------------------------------------------------------------------------------------------------------------------------------------------------

Object Type          Creations   Destructions. Reports information only for process 0.

--- Event Stage 0: Main Stage

           Container    69             69
                SNES     1              1
              DMSNES     1              1
       Krylov Solver     7              7
     DMKSP interface     1              1
              Matrix   219            219
      Matrix Coarsen     2              2
    Distributed Mesh   104            104
            DM Label   384            384
          Quadrature   286            286
      Mesh Transform     3              3
           Index Set  1750           1750
   IS L to G Mapping   194            194
             Section   630            630
   Star Forest Graph   455            455
     Discrete System   160            160
           Weak Form   161            161
    GraphPartitioner    48             48
              Vector   164            164
        Linear Space    10             10
          Dual Space    49             49
            FE Space     5              5
              Viewer     2              2
         PetscRandom     3              3
      Preconditioner     7              7
       Field over DM     1              1

--- Event Stage 1: Solve only

          Quadrature     1              1
           Index Set    31             31
              Viewer     1              1
========================================================================================================================
Average time to get PetscTime(): 3.4e-08
Average time for MPI_Barrier(): 4.3524e-06
Average time for zero size MPI_Send(): 4.1482e-06
#PETSc Option Table entries:
-benchmark_it 1 # (source: file)
-build_twosided allreduce # (source: file)
-dm_mat_type aijkokkos # (source: file)
-dm_plex_box_faces 4,4,4 # (source: command line)
-dm_plex_box_lower 0,0,0 # (source: file)
-dm_plex_box_upper 4,2,1 # (source: file)
-dm_plex_dim 3 # (source: file)
-dm_plex_simplex 0 # (source: file)
-dm_refine 3 # (source: command line)
-dm_vec_type kokkos # (source: file)
-dm_view # (source: file)
-info :pc,is # (source: file)
-ksp_converged_reason # (source: file)
-ksp_monitor # (source: file)
-ksp_norm_type unpreconditioned # (source: file)
-ksp_rtol 1e-12 # (source: file)
-ksp_type cg # (source: file)
-log_view # (source: file)
-mg_levels_ksp_chebyshev_esteig 0,0.2,0,1.05 # (source: file)
-mg_levels_ksp_type richardson # (source: command line)
-mg_levels_pc_jacobi_rowl1_scale .25 # (source: command line)
-mg_levels_pc_jacobi_type rowl1 # (source: command line)
-mg_levels_pc_type jacobi # (source: command line)
-options_left # (source: file)
-pc_gamg_aggressive_coarsening 2 # (source: file)
-pc_gamg_aggressive_square_graph true # (source: file)
-pc_gamg_coarse_eq_limit 1000 # (source: file)
-pc_gamg_esteig_ksp_type cg # (source: file)
-pc_gamg_mis_k_minimum_degree_ordering true # (source: file)
-pc_gamg_process_eq_limit 200 # (source: file)
-pc_gamg_reuse_interpolation true # (source: file)
-pc_gamg_threshold 0.04 # (source: file)
-pc_gamg_threshold_scale .25 # (source: file)
-pc_type gamg # (source: file)
-petscpartitioner_simple_node_grid 1,1,1 # (source: command line)
-petscpartitioner_simple_process_grid 4,4,4 # (source: file)
-petscpartitioner_type simple # (source: file)
-potential_petscspace_degree 2 # (source: command line)
-snes_lag_jacobian -2 # (source: file)
-snes_type ksponly # (source: file)
-snes_view # (source: file)
-use_gpu_aware_mpi 0 # (source: command line)
#End of PETSc Option Table entries
Compiled without FORTRAN kernels
Compiled with 64-bit PetscInt
Compiled with full precision matrices (default)
sizeof(short) 2 sizeof(int) 4 sizeof(long) 8 sizeof(void*) 8 sizeof(PetscScalar) 8 sizeof(PetscInt) 8
Configure options: --with-debugging=0 --with-make-np=8 --with-mpiexec="srun -G4" --with-batch=0 --with-cc=cc --with-cxx=CC --with-fc=ftn --with-64-bit-indices=1 --download-sowing-cc=cc --COPTFLAGS="   -g -O3" --CXXOPTFLAGS=" -g -O3" --FOPTFLAGS="   -g -O3" --CUDAFLAGS="   -g -O3" --with-cuda=1 --download-kokkos --download-kokkos-kernels=https://github.com/jczhang07/kokkos-kernels.git --download-kokkos-commit=origin/develop --download-kokkos-kernels-commit=origin/2024-02-07/perlmutter-fix --download-kokkos-kernels-cmake-arguments="-DCUBLAS_ROOT=/opt/nvidia/hpc_sdk/Linux_x86_64/23.9/math_libs/12.2 -DCUSPARSE_ROOT=/opt/nvidia/hpc_sdk/Linux_x86_64/23.9/math_libs/12.2 -DCUSOLVER_ROOT=/opt/nvidia/hpc_sdk/Linux_x86_64/23.9/math_libs/12.2" PETSC_ARCH=arch-perlmutter-opt-gcc-kokkos-cuda-jc
-----------------------------------------
Libraries compiled on 2024-02-11 20:50:57 on login03 
Machine characteristics: Linux-5.14.21-150400.24.81_12.0.87-cray_shasta_c-x86_64-with-glibc2.3.4
Using PETSc directory: /global/homes/m/madams/petsc
Using PETSc arch: arch-perlmutter-opt-gcc-kokkos-cuda-jc
-----------------------------------------

Using C compiler: cc  -fPIC -g -O3  
Using Fortran compiler: ftn  -fPIC -g -O3    
-----------------------------------------

Using include paths: -I/global/homes/m/madams/petsc/include -I/global/homes/m/madams/petsc/arch-perlmutter-opt-gcc-kokkos-cuda-jc/include -I/opt/nvidia/hpc_sdk/Linux_x86_64/23.9/cuda/12.2/include -I/opt/nvidia/hpc_sdk/Linux_x86_64/23.9/math_libs/12.2/include
-----------------------------------------

Using C linker: cc
Using Fortran linker: ftn
Using libraries: -Wl,-rpath,/global/homes/m/madams/petsc/arch-perlmutter-opt-gcc-kokkos-cuda-jc/lib -L/global/homes/m/madams/petsc/arch-perlmutter-opt-gcc-kokkos-cuda-jc/lib -lpetsc -Wl,-rpath,/global/homes/m/madams/petsc/arch-perlmutter-opt-gcc-kokkos-cuda-jc/lib -L/global/homes/m/madams/petsc/arch-perlmutter-opt-gcc-kokkos-cuda-jc/lib -Wl,-rpath,/opt/nvidia/hpc_sdk/Linux_x86_64/23.9/cuda/12.2/lib64 -L/opt/nvidia/hpc_sdk/Linux_x86_64/23.9/cuda/12.2/lib64 -L/opt/nvidia/hpc_sdk/Linux_x86_64/23.9/cuda/12.2/lib64/stubs -Wl,-rpath,/opt/cray/pe/mpich/8.1.28/ofi/gnu/12.3/lib -L/opt/cray/pe/mpich/8.1.28/ofi/gnu/12.3/lib -Wl,-rpath,/opt/cray/pe/mpich/8.1.28/gtl/lib -L/opt/cray/pe/mpich/8.1.28/gtl/lib -Wl,-rpath,/opt/cray/pe/libsci/23.12.5/GNU/12.3/x86_64/lib -L/opt/cray/pe/libsci/23.12.5/GNU/12.3/x86_64/lib -Wl,-rpath,/opt/cray/pe/hdf5-parallel/1.12.2.9/gnu/12.3/lib -L/opt/cray/pe/hdf5-parallel/1.12.2.9/gnu/12.3/lib -Wl,-rpath,/opt/cray/pe/dsmml/0.2.2/dsmml/lib -L/opt/cray/pe/dsmml/0.2.2/dsmml/lib -Wl,-rpath,/opt/nvidia/hpc_sdk/Linux_x86_64/23.9/cuda/12.2/lib64/stubs -Wl,-rpath,/opt/nvidia/hpc_sdk/Linux_x86_64/23.9/cuda/12.2/nvvm/lib64 -L/opt/nvidia/hpc_sdk/Linux_x86_64/23.9/cuda/12.2/nvvm/lib64 -Wl,-rpath,/opt/nvidia/hpc_sdk/Linux_x86_64/23.9/cuda/12.2/extras/CUPTI/lib64 -L/opt/nvidia/hpc_sdk/Linux_x86_64/23.9/cuda/12.2/extras/CUPTI/lib64 -Wl,-rpath,/opt/nvidia/hpc_sdk/Linux_x86_64/23.9/cuda/12.2/extras/Debugger/lib64 -L/opt/nvidia/hpc_sdk/Linux_x86_64/23.9/cuda/12.2/extras/Debugger/lib64 -Wl,-rpath,/opt/nvidia/hpc_sdk/Linux_x86_64/23.9/math_libs/12.2/lib64 -L/opt/nvidia/hpc_sdk/Linux_x86_64/23.9/math_libs/12.2/lib64 -Wl,-rpath,/opt/cray/xpmem/2.6.2-2.5_2.38__gd067c3f.shasta/lib64 -L/opt/cray/xpmem/2.6.2-2.5_2.38__gd067c3f.shasta/lib64 -Wl,-rpath,/usr/lib64/gcc/x86_64-suse-linux/12 -L/usr/lib64/gcc/x86_64-suse-linux/12 -Wl,-rpath,/usr/x86_64-suse-linux/lib -L/usr/x86_64-suse-linux/lib -lkokkoskernels -lkokkoscontainers -lkokkoscore -lkokkossimd -lcudart -lnvToolsExt -lcufft -lcublas -lcusparse -lcusolver -lcurand -lcuda -lX11 -lcuda -ldl -lmpi_gtl_cuda -lxpmem -lgfortran -lm -lhdf5_hl_parallel -lhdf5_parallel -lcupti -lcudart -lhdf5hl_fortran_parallel -lhdf5_fortran_parallel -lsci_gnu_123_mpi -lsci_gnu_123 -lmpifort_gnu_123 -lmpi_gnu_123 -ldsmml -lgfortran -lquadmath -lpthread -lm -lgcc_s -lstdc++
-----------------------------------------

#PETSc Option Table entries:
-benchmark_it 1 # (source: file)
-build_twosided allreduce # (source: file)
-dm_mat_type aijkokkos # (source: file)
-dm_plex_box_faces 4,4,4 # (source: command line)
-dm_plex_box_lower 0,0,0 # (source: file)
-dm_plex_box_upper 4,2,1 # (source: file)
-dm_plex_dim 3 # (source: file)
-dm_plex_simplex 0 # (source: file)
-dm_refine 3 # (source: command line)
-dm_vec_type kokkos # (source: file)
-dm_view # (source: file)
-info :pc,is # (source: file)
-ksp_converged_reason # (source: file)
-ksp_monitor # (source: file)
-ksp_norm_type unpreconditioned # (source: file)
-ksp_rtol 1e-12 # (source: file)
-ksp_type cg # (source: file)
-log_view # (source: file)
-mg_levels_ksp_chebyshev_esteig 0,0.2,0,1.05 # (source: file)
-mg_levels_ksp_type richardson # (source: command line)
-mg_levels_pc_jacobi_rowl1_scale .25 # (source: command line)
-mg_levels_pc_jacobi_type rowl1 # (source: command line)
-mg_levels_pc_type jacobi # (source: command line)
-options_left # (source: file)
-pc_gamg_aggressive_coarsening 2 # (source: file)
-pc_gamg_aggressive_square_graph true # (source: file)
-pc_gamg_coarse_eq_limit 1000 # (source: file)
-pc_gamg_esteig_ksp_type cg # (source: file)
-pc_gamg_mis_k_minimum_degree_ordering true # (source: file)
-pc_gamg_process_eq_limit 200 # (source: file)
-pc_gamg_reuse_interpolation true # (source: file)
-pc_gamg_threshold 0.04 # (source: file)
-pc_gamg_threshold_scale .25 # (source: file)
-pc_type gamg # (source: file)
-petscpartitioner_simple_node_grid 1,1,1 # (source: command line)
-petscpartitioner_simple_process_grid 4,4,4 # (source: file)
-petscpartitioner_type simple # (source: file)
-potential_petscspace_degree 2 # (source: command line)
-snes_lag_jacobian -2 # (source: file)
-snes_type ksponly # (source: file)
-snes_view # (source: file)
-use_gpu_aware_mpi 0 # (source: command line)
#End of PETSc Option Table entries
WARNING! There are options you set that were not used!
WARNING! could be spelling mistake, etc!
There is one unused database option. It is:
Option left: name:-mg_levels_ksp_chebyshev_esteig value: 0,0.2,0,1.05 source: file
