DM Object: box 4096 MPI processes
  type: plex
box in 3 dimensions:
  Min/Max of 0-cells per rank: 729/729
  Min/Max of 1-cells per rank: 1944/1944
  Min/Max of 2-cells per rank: 1728/1728
  Min/Max of 3-cells per rank: 512/512
Labels:
  celltype: 4 strata with value/size (0 (729), 1 (1944), 4 (1728), 7 (512))
  depth: 4 strata with value/size (0 (729), 1 (1944), 2 (1728), 3 (512))
  marker: 1 strata with value/size (1 (817))
  Face Sets: 3 strata with value/size (1 (225), 3 (225), 6 (225))
Number equations N = 16581375
[0] <pc:gamg> PCSetUp_GAMG(): (null): level 0) N=16581375, n data rows=1, n data cols=1, nnz/row (ave)=63, block size 1, np=4096
[0] <pc:gamg> PCGAMGCreateGraph_AGG(): 	 33.8523% nnz after filtering, with threshold 0.04, 54.872 nnz ave. (N=16581375, max row size 125
[0] <pc:gamg> PCGAMGCreateGraph_AGG(): Filtering left 33.8523 % edges in graph (1.851930e+05 6.269200e+04)
[0] <pc:gamg> PCGAMGSquareGraph_GAMG(): (null): Square Graph on level 1
[0] <is> MatCoarsenApply_MIS_private(): mis: nloc = 3375
[0] <is> MatCoarsenApply_MIS_private(): 	 removed 0 of 3375 vertices.  116 selected.
[0] <pc:gamg> fixAggregatesWithSquare(): isMPI = yes
[0] <pc:gamg> PCGAMGProlongator_AGG(): (null): New grid 491067 nodes
[0] <pc:gamg> PCGAMGOptProlongator_AGG(): (null): Smooth P0: max eigen=2.539787e+00 min=6.471611e-02 PC=jacobi
[0] <pc:gamg> PCGAMGOptProlongator_AGG(): (null): Smooth P0: level 0, cache spectra 0.0647161 2.53979
[0] <pc:gamg> PCGAMGCreateLevel_GAMG(): (null): Coarse grid reduction from 4096 to 2455 active processes
[0] <pc:gamg> PCGAMGCreateLevel_GAMG(): (null): Number of equations (loc) 116 with simple aggregation
[0] <pc:gamg> PCSetUp_GAMG(): (null): 1) N=491067, n data cols=1, nnz/row (ave)=202, 2048 active pes
[0] <pc:gamg> PCGAMGCreateGraph_AGG(): 	 10.9894% nnz after filtering, with threshold 0.01, 144.284 nnz ave. (N=491067, max row size 174
[0] <pc:gamg> PCGAMGCreateGraph_AGG(): Filtering left 10.9894 % edges in graph (3.405100e+04 3.742000e+03)
[0] <pc:gamg> PCGAMGSquareGraph_GAMG(): (null): Square Graph on level 2
[0] <is> MatCoarsenApply_MIS_private(): mis: nloc = 236
[0] <is> MatCoarsenApply_MIS_private(): 	 removed 0 of 236 vertices.  7 selected.
[0] <pc:gamg> fixAggregatesWithSquare(): isMPI = yes
[0] <pc:gamg> PCGAMGProlongator_AGG(): (null): New grid 15323 nodes
[0] <pc:gamg> PCGAMGOptProlongator_AGG(): (null): Smooth P0: max eigen=1.405134e+00 min=4.411827e-02 PC=jacobi
[0] <pc:gamg> PCGAMGOptProlongator_AGG(): (null): Smooth P0: level 1, cache spectra 0.0441183 1.40513
[0] <pc:gamg> PCGAMGCreateLevel_GAMG(): (null): Coarse grid reduction from 2048 to 77 active processes
[0] <pc:gamg> PCGAMGCreateLevel_GAMG(): (null): Number of equations (loc) 7 with simple aggregation
[0] <pc:gamg> PCSetUp_GAMG(): (null): 2) N=15323, n data cols=1, nnz/row (ave)=335, 64 active pes
[0] <pc:gamg> PCGAMGCreateGraph_AGG(): 	 11.1566% nnz after filtering, with threshold 0.0025, 253.173 nnz ave. (N=15323, max row size 350
[0] <pc:gamg> PCGAMGCreateGraph_AGG(): Filtering left 11.1566 % edges in graph (5.569800e+04 6.214000e+03)
[0] <pc:gamg> PCGAMGProlongator_AGG(): (null): New grid 1538 nodes
[0] <pc:gamg> PCGAMGOptProlongator_AGG(): (null): Smooth P0: max eigen=1.290529e+00 min=6.578212e-02 PC=jacobi
[0] <pc:gamg> PCGAMGOptProlongator_AGG(): (null): Smooth P0: level 2, cache spectra 0.0657821 1.29053
[0] <pc:gamg> PCGAMGCreateLevel_GAMG(): (null): Coarse grid reduction from 64 to 8 active processes
[0] <pc:gamg> PCGAMGCreateLevel_GAMG(): (null): Number of equations (loc) 24 with simple aggregation
[0] <pc:gamg> PCSetUp_GAMG(): (null): 3) N=1538, n data cols=1, nnz/row (ave)=674, 8 active pes
[0] <pc:gamg> PCGAMGCreateGraph_AGG(): 	 11.5665% nnz after filtering, with threshold 0.000625, 540.78 nnz ave. (N=1538, max row size 779
[0] <pc:gamg> PCGAMGCreateGraph_AGG(): Filtering left 11.5665 % edges in graph (9.355500e+04 1.082100e+04)
[0] <pc:gamg> PCGAMGProlongator_AGG(): (null): New grid 81 nodes
[0] <pc:gamg> PCGAMGOptProlongator_AGG(): (null): Smooth P0: max eigen=2.119632e+00 min=3.266572e-01 PC=jacobi
[0] <pc:gamg> PCGAMGOptProlongator_AGG(): (null): Smooth P0: level 3, cache spectra 0.326657 2.11963
[0] <pc:gamg> PCGAMGCreateLevel_GAMG(): (null): Force coarsest grid reduction to 1 active processes
[0] <pc:gamg> PCGAMGCreateLevel_GAMG(): (null): Number of equations (loc) 6 with simple aggregation
[0] <pc:gamg> PCSetUp_GAMG(): (null): 4) N=81, n data cols=1, nnz/row (ave)=81, 1 active pes
[0] <pc:gamg> PCSetUp_GAMG(): (null): 5 levels, operator complexity = 1.10089
[0] <pc:gamg> PCSetUp_GAMG(): (null): PCSetUp_GAMG: call KSPChebyshevSetEigenvalues on level 3 (N=1538) with emax = 2.11963 emin = 0.326657
[0] <pc:gamg> PCSetUp_GAMG(): (null): PCSetUp_GAMG: call KSPChebyshevSetEigenvalues on level 2 (N=15323) with emax = 1.29053 emin = 0.0657821
[0] <pc:gamg> PCSetUp_GAMG(): (null): PCSetUp_GAMG: call KSPChebyshevSetEigenvalues on level 1 (N=491067) with emax = 1.40513 emin = 0.0441183
[0] <pc:gamg> PCSetUp_GAMG(): (null): PCSetUp_GAMG: call KSPChebyshevSetEigenvalues on level 0 (N=16581375) with emax = 2.53979 emin = 0.0647161
[0] <pc:gamg> PCSetUp_MG(): Using outer operators to define finest grid operator 
  because PCMGGetSmoother(pc,nlevels-1,&ksp);KSPSetOperators(ksp,...); was not called.
    0 KSP Residual norm 1.744425883244e+01 
    1 KSP Residual norm 1.714608705709e+00 
    2 KSP Residual norm 9.411465399932e-01 
    3 KSP Residual norm 6.515878128742e-01 
    4 KSP Residual norm 4.249432478403e-01 
    5 KSP Residual norm 2.786717513933e-01 
    6 KSP Residual norm 1.749847056676e-01 
    7 KSP Residual norm 9.403976590254e-02 
    8 KSP Residual norm 4.928580032078e-02 
    9 KSP Residual norm 2.864846538119e-02 
   10 KSP Residual norm 1.656948025155e-02 
   11 KSP Residual norm 9.516420186583e-03 
   12 KSP Residual norm 5.601509202301e-03 
   13 KSP Residual norm 3.270685061610e-03 
   14 KSP Residual norm 1.908406811086e-03 
   15 KSP Residual norm 1.077598195617e-03 
   16 KSP Residual norm 6.377103790351e-04 
   17 KSP Residual norm 4.059232653392e-04 
   18 KSP Residual norm 2.571438340861e-04 
   19 KSP Residual norm 1.554275341379e-04 
   20 KSP Residual norm 9.139654275375e-05 
   21 KSP Residual norm 5.339373588589e-05 
   22 KSP Residual norm 3.092544897246e-05 
   23 KSP Residual norm 1.765400355254e-05 
   24 KSP Residual norm 9.856934561278e-06 
   25 KSP Residual norm 5.578384386806e-06 
   26 KSP Residual norm 3.232977793225e-06 
   27 KSP Residual norm 1.963667154040e-06 
   28 KSP Residual norm 1.198207039922e-06 
   29 KSP Residual norm 7.018320521229e-07 
   30 KSP Residual norm 4.018836146703e-07 
   31 KSP Residual norm 2.406080044739e-07 
   32 KSP Residual norm 1.463838199661e-07 
   33 KSP Residual norm 8.704321706407e-08 
   34 KSP Residual norm 5.057339414903e-08 
   35 KSP Residual norm 3.013967011113e-08 
   36 KSP Residual norm 1.825876536240e-08 
   37 KSP Residual norm 1.101120887812e-08 
   38 KSP Residual norm 6.561879152340e-09 
   39 KSP Residual norm 3.833454962860e-09 
   40 KSP Residual norm 2.198961233483e-09 
   41 KSP Residual norm 1.277938225512e-09 
   42 KSP Residual norm 7.666178741261e-10 
   43 KSP Residual norm 4.728260258001e-10 
   44 KSP Residual norm 2.949712624373e-10 
   45 KSP Residual norm 1.784040963551e-10 
   46 KSP Residual norm 1.028693087541e-10 
   47 KSP Residual norm 5.958704079093e-11 
   48 KSP Residual norm 3.567910593266e-11 
   49 KSP Residual norm 2.154108708460e-11 
   50 KSP Residual norm 1.245131530003e-11 
  Linear solve converged due to CONVERGED_RTOL iterations 50
SNES Object: 4096 MPI processes
  type: ksponly
  maximum iterations=50, maximum function evaluations=10000
  tolerances: relative=1e-08, absolute=1e-50, solution=1e-08
  total number of linear solver iterations=50
  total number of function evaluations=1
  norm schedule ALWAYS
  Jacobian is never rebuilt
  KSP Object: 4096 MPI processes
    type: cg
    maximum iterations=10000, initial guess is zero
    tolerances:  relative=1e-12, absolute=1e-50, divergence=10000.
    left preconditioning
    using UNPRECONDITIONED norm type for convergence test
  PC Object: 4096 MPI processes
    type: gamg
      type is MULTIPLICATIVE, levels=5 cycles=v
        Cycles per PCApply=1
        Using externally compute Galerkin coarse grid matrices
        GAMG specific options
          Threshold for dropping small values in graph on each level =     0.04     0.01     0.0025     0.000625     0.00015625    
          Threshold scaling factor for each level not specified = 0.25
          AGG specific options
            Number of levels of aggressive coarsening 2
            Square graph aggressive coarsening
            Number smoothing steps 1
          Complexity:    grid = 1.03064    operator = 1.10089
    Coarse grid solver -- level 0 -------------------------------
      KSP Object: (mg_coarse_) 4096 MPI processes
        type: preonly
        maximum iterations=10000, initial guess is zero
        tolerances:  relative=1e-05, absolute=1e-50, divergence=10000.
        left preconditioning
        using NONE norm type for convergence test
      PC Object: (mg_coarse_) 4096 MPI processes
        type: bjacobi
          number of blocks = 4096
          Local solver information for first block is in the following KSP and PC objects on rank 0:
          Use -mg_coarse_ksp_view ::ascii_info_detail to display information for all blocks
          KSP Object: (mg_coarse_sub_) 1 MPI process
            type: preonly
            maximum iterations=1, initial guess is zero
            tolerances:  relative=1e-05, absolute=1e-50, divergence=10000.
            left preconditioning
            using NONE norm type for convergence test
          PC Object: (mg_coarse_sub_) 1 MPI process
            type: lu
              out-of-place factorization
              tolerance for zero pivot 2.22045e-14
              using diagonal shift on blocks to prevent zero pivot [INBLOCKS]
              matrix ordering: nd
              factor fill ratio given 5., needed 1.
                Factored matrix follows:
                  Mat Object: (mg_coarse_sub_) 1 MPI process
                    type: seqaijkokkos
                    rows=81, cols=81
                    package used to perform factorization: kokkos
                    total: nonzeros=6561, allocated nonzeros=6561
                      using I-node routines: found 17 nodes, limit used is 5
            linear system matrix = precond matrix:
            Mat Object: (mg_coarse_sub_) 1 MPI process
              type: seqaijkokkos
              rows=81, cols=81
              total: nonzeros=6561, allocated nonzeros=6561
              total number of mallocs used during MatSetValues calls=0
                using I-node routines: found 17 nodes, limit used is 5
        linear system matrix = precond matrix:
        Mat Object: 4096 MPI processes
          type: mpiaijkokkos
          rows=81, cols=81
          total: nonzeros=6561, allocated nonzeros=6561
          total number of mallocs used during MatSetValues calls=0
            using I-node (on process 0) routines: found 17 nodes, limit used is 5
    Down solver (pre-smoother) on level 1 -------------------------------
      KSP Object: (mg_levels_1_) 4096 MPI processes
        type: chebyshev
          Chebyshev polynomial of first kind
          eigenvalue targets used: min 0.423926, max 2.22561
          eigenvalues provided (min 0.326657, max 2.11963) with transform: [0. 0.2; 0. 1.05]
        maximum iterations=2, nonzero initial guess
        tolerances:  relative=1e-05, absolute=1e-50, divergence=10000.
        left preconditioning
        using NONE norm type for convergence test
      PC Object: (mg_levels_1_) 4096 MPI processes
        type: jacobi
          type DIAGONAL
        linear system matrix = precond matrix:
        Mat Object: 4096 MPI processes
          type: mpiaijkokkos
          rows=1538, cols=1538
          total: nonzeros=1037668, allocated nonzeros=1037668
          total number of mallocs used during MatSetValues calls=0
            not using I-node (on process 0) routines
    Up solver (post-smoother) same as down solver (pre-smoother)
    Down solver (pre-smoother) on level 2 -------------------------------
      KSP Object: (mg_levels_2_) 4096 MPI processes
        type: chebyshev
          Chebyshev polynomial of first kind
          eigenvalue targets used: min 0.258106, max 1.35506
          eigenvalues provided (min 0.0657821, max 1.29053) with transform: [0. 0.2; 0. 1.05]
        maximum iterations=2, nonzero initial guess
        tolerances:  relative=1e-05, absolute=1e-50, divergence=10000.
        left preconditioning
        using NONE norm type for convergence test
      PC Object: (mg_levels_2_) 4096 MPI processes
        type: jacobi
          type DIAGONAL
        linear system matrix = precond matrix:
        Mat Object: 4096 MPI processes
          type: mpiaijkokkos
          rows=15323, cols=15323
          total: nonzeros=5145091, allocated nonzeros=5145091
          total number of mallocs used during MatSetValues calls=0
            not using I-node (on process 0) routines
    Up solver (post-smoother) same as down solver (pre-smoother)
    Down solver (pre-smoother) on level 3 -------------------------------
      KSP Object: (mg_levels_3_) 4096 MPI processes
        type: chebyshev
          Chebyshev polynomial of first kind
          eigenvalue targets used: min 0.281027, max 1.47539
          eigenvalues provided (min 0.0441183, max 1.40513) with transform: [0. 0.2; 0. 1.05]
        maximum iterations=2, nonzero initial guess
        tolerances:  relative=1e-05, absolute=1e-50, divergence=10000.
        left preconditioning
        using NONE norm type for convergence test
      PC Object: (mg_levels_3_) 4096 MPI processes
        type: jacobi
          type DIAGONAL
        linear system matrix = precond matrix:
        Mat Object: 4096 MPI processes
          type: mpiaijkokkos
          rows=491067, cols=491067
          total: nonzeros=99311635, allocated nonzeros=99311635
          total number of mallocs used during MatSetValues calls=0
            not using I-node (on process 0) routines
    Up solver (post-smoother) same as down solver (pre-smoother)
    Down solver (pre-smoother) on level 4 -------------------------------
      KSP Object: (mg_levels_4_) 4096 MPI processes
        type: chebyshev
          Chebyshev polynomial of first kind
          eigenvalue targets used: min 0.507957, max 2.66678
          eigenvalues provided (min 0.0647161, max 2.53979) with transform: [0. 0.2; 0. 1.05]
        maximum iterations=2, nonzero initial guess
        tolerances:  relative=1e-05, absolute=1e-50, divergence=10000.
        left preconditioning
        using NONE norm type for convergence test
      PC Object: (mg_levels_4_) 4096 MPI processes
        type: jacobi
          type DIAGONAL
        linear system matrix = precond matrix:
        Mat Object: 4096 MPI processes
          type: mpiaijkokkos
          rows=16581375, cols=16581375
          total: nonzeros=1045678375, allocated nonzeros=1045678375
          total number of mallocs used during MatSetValues calls=0
            not using I-node (on process 0) routines
    Up solver (post-smoother) same as down solver (pre-smoother)
    linear system matrix = precond matrix:
    Mat Object: 4096 MPI processes
      type: mpiaijkokkos
      rows=16581375, cols=16581375
      total: nonzeros=1045678375, allocated nonzeros=1045678375
      total number of mallocs used during MatSetValues calls=0
        not using I-node (on process 0) routines
    0 KSP Residual norm 1.744425883244e+01 
    1 KSP Residual norm 1.714608705709e+00 
    2 KSP Residual norm 9.411465399932e-01 
    3 KSP Residual norm 6.515878128742e-01 
    4 KSP Residual norm 4.249432478403e-01 
    5 KSP Residual norm 2.786717513933e-01 
    6 KSP Residual norm 1.749847056676e-01 
    7 KSP Residual norm 9.403976590254e-02 
    8 KSP Residual norm 4.928580032078e-02 
    9 KSP Residual norm 2.864846538119e-02 
   10 KSP Residual norm 1.656948025155e-02 
   11 KSP Residual norm 9.516420186583e-03 
   12 KSP Residual norm 5.601509202301e-03 
   13 KSP Residual norm 3.270685061610e-03 
   14 KSP Residual norm 1.908406811086e-03 
   15 KSP Residual norm 1.077598195617e-03 
   16 KSP Residual norm 6.377103790351e-04 
   17 KSP Residual norm 4.059232653392e-04 
   18 KSP Residual norm 2.571438340861e-04 
   19 KSP Residual norm 1.554275341379e-04 
   20 KSP Residual norm 9.139654275375e-05 
   21 KSP Residual norm 5.339373588589e-05 
   22 KSP Residual norm 3.092544897246e-05 
   23 KSP Residual norm 1.765400355254e-05 
   24 KSP Residual norm 9.856934561278e-06 
   25 KSP Residual norm 5.578384386806e-06 
   26 KSP Residual norm 3.232977793225e-06 
   27 KSP Residual norm 1.963667154040e-06 
   28 KSP Residual norm 1.198207039922e-06 
   29 KSP Residual norm 7.018320521229e-07 
   30 KSP Residual norm 4.018836146703e-07 
   31 KSP Residual norm 2.406080044739e-07 
   32 KSP Residual norm 1.463838199661e-07 
   33 KSP Residual norm 8.704321706407e-08 
   34 KSP Residual norm 5.057339414903e-08 
   35 KSP Residual norm 3.013967011113e-08 
   36 KSP Residual norm 1.825876536240e-08 
   37 KSP Residual norm 1.101120887812e-08 
   38 KSP Residual norm 6.561879152340e-09 
   39 KSP Residual norm 3.833454962860e-09 
   40 KSP Residual norm 2.198961233483e-09 
   41 KSP Residual norm 1.277938225512e-09 
   42 KSP Residual norm 7.666178741261e-10 
   43 KSP Residual norm 4.728260258001e-10 
   44 KSP Residual norm 2.949712624373e-10 
   45 KSP Residual norm 1.784040963551e-10 
   46 KSP Residual norm 1.028693087541e-10 
   47 KSP Residual norm 5.958704079093e-11 
   48 KSP Residual norm 3.567910593266e-11 
   49 KSP Residual norm 2.154108708460e-11 
   50 KSP Residual norm 1.245131530003e-11 
  Linear solve converged due to CONVERGED_RTOL iterations 50
SNES Object: 4096 MPI processes
  type: ksponly
  maximum iterations=50, maximum function evaluations=10000
  tolerances: relative=1e-08, absolute=1e-50, solution=1e-08
  total number of linear solver iterations=50
  total number of function evaluations=1
  norm schedule ALWAYS
  Jacobian is never rebuilt
  KSP Object: 4096 MPI processes
    type: cg
    maximum iterations=10000, initial guess is zero
    tolerances:  relative=1e-12, absolute=1e-50, divergence=10000.
    left preconditioning
    using UNPRECONDITIONED norm type for convergence test
  PC Object: 4096 MPI processes
    type: gamg
      type is MULTIPLICATIVE, levels=5 cycles=v
        Cycles per PCApply=1
        Using externally compute Galerkin coarse grid matrices
        GAMG specific options
          Threshold for dropping small values in graph on each level =     0.04     0.01     0.0025     0.000625     0.00015625    
          Threshold scaling factor for each level not specified = 0.25
          AGG specific options
            Number of levels of aggressive coarsening 2
            Square graph aggressive coarsening
            Number smoothing steps 1
          Complexity:    grid = 1.03064    operator = 1.10089
    Coarse grid solver -- level 0 -------------------------------
      KSP Object: (mg_coarse_) 4096 MPI processes
        type: preonly
        maximum iterations=10000, initial guess is zero
        tolerances:  relative=1e-05, absolute=1e-50, divergence=10000.
        left preconditioning
        using NONE norm type for convergence test
      PC Object: (mg_coarse_) 4096 MPI processes
        type: bjacobi
          number of blocks = 4096
          Local solver information for first block is in the following KSP and PC objects on rank 0:
          Use -mg_coarse_ksp_view ::ascii_info_detail to display information for all blocks
          KSP Object: (mg_coarse_sub_) 1 MPI process
            type: preonly
            maximum iterations=1, initial guess is zero
            tolerances:  relative=1e-05, absolute=1e-50, divergence=10000.
            left preconditioning
            using NONE norm type for convergence test
          PC Object: (mg_coarse_sub_) 1 MPI process
            type: lu
              out-of-place factorization
              tolerance for zero pivot 2.22045e-14
              using diagonal shift on blocks to prevent zero pivot [INBLOCKS]
              matrix ordering: nd
              factor fill ratio given 5., needed 1.
                Factored matrix follows:
                  Mat Object: (mg_coarse_sub_) 1 MPI process
                    type: seqaijkokkos
                    rows=81, cols=81
                    package used to perform factorization: kokkos
                    total: nonzeros=6561, allocated nonzeros=6561
                      using I-node routines: found 17 nodes, limit used is 5
            linear system matrix = precond matrix:
            Mat Object: (mg_coarse_sub_) 1 MPI process
              type: seqaijkokkos
              rows=81, cols=81
              total: nonzeros=6561, allocated nonzeros=6561
              total number of mallocs used during MatSetValues calls=0
                using I-node routines: found 17 nodes, limit used is 5
        linear system matrix = precond matrix:
        Mat Object: 4096 MPI processes
          type: mpiaijkokkos
          rows=81, cols=81
          total: nonzeros=6561, allocated nonzeros=6561
          total number of mallocs used during MatSetValues calls=0
            using I-node (on process 0) routines: found 17 nodes, limit used is 5
    Down solver (pre-smoother) on level 1 -------------------------------
      KSP Object: (mg_levels_1_) 4096 MPI processes
        type: chebyshev
          Chebyshev polynomial of first kind
          eigenvalue targets used: min 0.423926, max 2.22561
          eigenvalues provided (min 0.326657, max 2.11963) with transform: [0. 0.2; 0. 1.05]
        maximum iterations=2, nonzero initial guess
        tolerances:  relative=1e-05, absolute=1e-50, divergence=10000.
        left preconditioning
        using NONE norm type for convergence test
      PC Object: (mg_levels_1_) 4096 MPI processes
        type: jacobi
          type DIAGONAL
        linear system matrix = precond matrix:
        Mat Object: 4096 MPI processes
          type: mpiaijkokkos
          rows=1538, cols=1538
          total: nonzeros=1037668, allocated nonzeros=1037668
          total number of mallocs used during MatSetValues calls=0
            not using I-node (on process 0) routines
    Up solver (post-smoother) same as down solver (pre-smoother)
    Down solver (pre-smoother) on level 2 -------------------------------
      KSP Object: (mg_levels_2_) 4096 MPI processes
        type: chebyshev
          Chebyshev polynomial of first kind
          eigenvalue targets used: min 0.258106, max 1.35506
          eigenvalues provided (min 0.0657821, max 1.29053) with transform: [0. 0.2; 0. 1.05]
        maximum iterations=2, nonzero initial guess
        tolerances:  relative=1e-05, absolute=1e-50, divergence=10000.
        left preconditioning
        using NONE norm type for convergence test
      PC Object: (mg_levels_2_) 4096 MPI processes
        type: jacobi
          type DIAGONAL
        linear system matrix = precond matrix:
        Mat Object: 4096 MPI processes
          type: mpiaijkokkos
          rows=15323, cols=15323
          total: nonzeros=5145091, allocated nonzeros=5145091
          total number of mallocs used during MatSetValues calls=0
            not using I-node (on process 0) routines
    Up solver (post-smoother) same as down solver (pre-smoother)
    Down solver (pre-smoother) on level 3 -------------------------------
      KSP Object: (mg_levels_3_) 4096 MPI processes
        type: chebyshev
          Chebyshev polynomial of first kind
          eigenvalue targets used: min 0.281027, max 1.47539
          eigenvalues provided (min 0.0441183, max 1.40513) with transform: [0. 0.2; 0. 1.05]
        maximum iterations=2, nonzero initial guess
        tolerances:  relative=1e-05, absolute=1e-50, divergence=10000.
        left preconditioning
        using NONE norm type for convergence test
      PC Object: (mg_levels_3_) 4096 MPI processes
        type: jacobi
          type DIAGONAL
        linear system matrix = precond matrix:
        Mat Object: 4096 MPI processes
          type: mpiaijkokkos
          rows=491067, cols=491067
          total: nonzeros=99311635, allocated nonzeros=99311635
          total number of mallocs used during MatSetValues calls=0
            not using I-node (on process 0) routines
    Up solver (post-smoother) same as down solver (pre-smoother)
    Down solver (pre-smoother) on level 4 -------------------------------
      KSP Object: (mg_levels_4_) 4096 MPI processes
        type: chebyshev
          Chebyshev polynomial of first kind
          eigenvalue targets used: min 0.507957, max 2.66678
          eigenvalues provided (min 0.0647161, max 2.53979) with transform: [0. 0.2; 0. 1.05]
        maximum iterations=2, nonzero initial guess
        tolerances:  relative=1e-05, absolute=1e-50, divergence=10000.
        left preconditioning
        using NONE norm type for convergence test
      PC Object: (mg_levels_4_) 4096 MPI processes
        type: jacobi
          type DIAGONAL
        linear system matrix = precond matrix:
        Mat Object: 4096 MPI processes
          type: mpiaijkokkos
          rows=16581375, cols=16581375
          total: nonzeros=1045678375, allocated nonzeros=1045678375
          total number of mallocs used during MatSetValues calls=0
            not using I-node (on process 0) routines
    Up solver (post-smoother) same as down solver (pre-smoother)
    linear system matrix = precond matrix:
    Mat Object: 4096 MPI processes
      type: mpiaijkokkos
      rows=16581375, cols=16581375
      total: nonzeros=1045678375, allocated nonzeros=1045678375
      total number of mallocs used during MatSetValues calls=0
        not using I-node (on process 0) routines
****************************************************************************************************************************************************************
***                                WIDEN YOUR WINDOW TO 160 CHARACTERS.  Use 'enscript -r -fCourier9' to print this document                                 ***
****************************************************************************************************************************************************************

------------------------------------------------------------------ PETSc Performance Summary: ------------------------------------------------------------------

/global/u2/m/madams/petsc/src/snes/tests/data/../ex13 on a arch-kokkos-opt named nid001008 with 4096 processors, by madams Fri Feb  9 02:25:43 2024
Using Petsc Development GIT revision: v3.20.4-590-g26f22146603  GIT Date: 2024-02-07 12:58:08 -0500

                         Max       Max/Min     Avg       Total
Time (sec):           2.275e+01     1.000   2.275e+01
Objects:              0.000e+00     0.000   0.000e+00
Flops:                5.402e+08     2.082   3.411e+08  1.397e+12
Flops/sec:            2.374e+07     2.082   1.499e+07  6.141e+10
MPI Msg Count:        2.742e+05     2.469   2.263e+05  9.268e+08
MPI Msg Len (bytes):  2.338e+08     2.145   8.864e+02  8.215e+11
MPI Reductions:       4.220e+04     1.000

Flop counting convention: 1 flop = 1 real number operation of type (multiply/divide/add/subtract)
                            e.g., VecAXPY() for real vectors of length N --> 2N flops
                            and VecAXPY() for complex vectors of length N --> 8N flops

Summary of Stages:   ----- Time ------  ----- Flop ------  --- Messages ---  -- Message Lengths --  -- Reductions --
                        Avg     %Total     Avg     %Total    Count   %Total     Avg         %Total    Count   %Total
 0:      Main Stage: 1.9429e+01  85.4%  7.3907e+11  52.9%  8.878e+08  95.8%  8.956e+02       96.8%  4.197e+04  99.4%
 1:      Solve only: 3.3244e+00  14.6%  6.5815e+11  47.1%  3.903e+07   4.2%  6.787e+02        3.2%  2.140e+02   0.5%

------------------------------------------------------------------------------------------------------------------------
See the 'Profiling' chapter of the users' manual for details on interpreting output.
Phase summary info:
   Count: number of times phase was executed
   Time and Flop: Max - maximum over all processors
                  Ratio - ratio of maximum to minimum over all processors
   Mess: number of messages sent
   AvgLen: average message length (bytes)
   Reduct: number of global reductions
   Global: entire computation
   Stage: stages of a computation. Set stages with PetscLogStagePush() and PetscLogStagePop().
      %T - percent time in this phase         %F - percent flop in this phase
      %M - percent messages in this phase     %L - percent message lengths in this phase
      %R - percent reductions in this phase
   Total Mflop/s: 10e-6 * (sum of flop over all processors)/(max time over all processors)
   GPU Mflop/s: 10e-6 * (sum of flop on GPU over all processors)/(max GPU time over all processors)
   CpuToGpu Count: total number of CPU to GPU copies per processor
   CpuToGpu Size (Mbytes): 10e-6 * (total size of CPU to GPU copies per processor)
   GpuToCpu Count: total number of GPU to CPU copies per processor
   GpuToCpu Size (Mbytes): 10e-6 * (total size of GPU to CPU copies per processor)
   GPU %F: percent flops on GPU in this event
------------------------------------------------------------------------------------------------------------------------
Event                Count      Time (sec)     Flop                              --- Global ---  --- Stage ----  Total   GPU    - CpuToGpu -   - GpuToCpu - GPU
                   Max Ratio  Max     Ratio   Max  Ratio  Mess   AvgLen  Reduct  %T %F %M %L %R  %T %F %M %L %R Mflop/s Mflop/s Count   Size   Count   Size  %F
---------------------------------------------------------------------------------------------------------------------------------------------------------------

--- Event Stage 0: Main Stage

BuildTwoSided      12418 1.0 5.0329e+00 1.2 0.00e+00 0.0 1.4e+08 8.0e+00 1.2e+04 20  0 15  0 29  23  0 16  0 30     0       0      0 0.00e+00    0 0.00e+00  0
BuildTwoSidedF        40 1.0 1.3105e-01 2.0 0.00e+00 0.0 1.6e+05 2.1e+04 4.0e+01  0  0  0  0  0   1  0  0  0  0     0       0      0 0.00e+00    0 0.00e+00  0
MatMult             1228 1.4 1.3929e+00 1.9 2.40e+08 2.3 3.4e+07 7.8e+02 0.0e+00  4 42  4  3  0   5 80  4  3  0 422174       0    739 1.29e+01  737 1.29e+01  100
MatMultAdd           200 1.0 4.9478e-01 6.6 6.92e+06 1.9 3.3e+06 1.7e+02 0.0e+00  2  1  0  0  0   2  2  0  0  0 37236       0    152 2.69e-01   52 2.69e-01  100
MatMultTranspose     200 1.0 3.5340e-01 3.6 7.18e+06 2.0 3.3e+06 1.7e+02 0.0e+00  1  1  0  0  0   1  3  0  0  0 52327       0     52 2.72e-01  152 2.69e-01  100
MatSolve              50 0.0 8.7148e-04 0.0 6.52e+05 0.0 0.0e+00 0.0e+00 0.0e+00  0  0  0  0  0   0  0  0  0  0   748       0      0 0.00e+00    0 0.00e+00  0
MatLUFactorSym         1 1.0 1.0147e-04 9.0 0.00e+00 0.0 0.0e+00 0.0e+00 0.0e+00  0  0  0  0  0   0  0  0  0  0     0       0      0 0.00e+00    0 0.00e+00  0
MatLUFactorNum         1 1.0 1.6785e-04 30.8 3.51e+05 0.0 0.0e+00 0.0e+00 0.0e+00  0  0  0  0  0   0  0  0  0  0  2092       0      0 0.00e+00    0 0.00e+00  0
MatConvert             4 1.0 1.2061e-01 1.3 0.00e+00 0.0 2.8e+05 3.9e+02 4.0e+00  0  0  0  0  0   1  0  0  0  0     0       0      0 0.00e+00    0 0.00e+00  0
MatScale              12 1.0 9.4474e-02 16.4 1.17e+06 2.5 1.4e+05 7.6e+02 0.0e+00  0  0  0  0  0   0  0  0  0  0 28270       0      5 7.75e-02    3 5.17e-02  100
MatResidual          200 1.0 3.1190e-01 2.3 5.19e+07 2.5 6.9e+06 7.6e+02 0.0e+00  1  8  1  1  0   1 16  1  1  0 374557       0    152 2.58e+00  152 2.58e+00  100
MatAssemblyBegin     129 1.0 6.4481e-02 1.8 0.00e+00 0.0 1.6e+05 2.1e+04 2.4e+01  0  0  0  0  0   0  0  0  0  0     0       0      0 0.00e+00    0 0.00e+00  0
MatAssemblyEnd       129 1.0 1.7421e+00 1.8 3.63e+04 0.0 2.3e+06 2.1e+02 1.8e+02  5  0  0  0  0   6  0  0  0  0    79       0      0 0.00e+00    0 0.00e+00  0
MatGetRowIJ            1 0.0 7.8850e-06 0.0 0.00e+00 0.0 0.0e+00 0.0e+00 0.0e+00  0  0  0  0  0   0  0  0  0  0     0       0      0 0.00e+00    0 0.00e+00  0
MatCreateSubMat        8 1.0 4.2299e-01 1.0 0.00e+00 0.0 2.4e+05 3.8e+03 1.2e+02  2  0  0  0  0   2  0  0  0  0     0       0      0 0.00e+00    0 0.00e+00  0
MatGetOrdering         1 0.0 4.8043e-05 0.0 0.00e+00 0.0 0.0e+00 0.0e+00 0.0e+00  0  0  0  0  0   0  0  0  0  0     0       0      0 0.00e+00    0 0.00e+00  0
MatCoarsen             4 1.0 1.4108e-01 1.0 0.00e+00 0.0 2.2e+06 8.7e+02 1.1e+02  1  0  0  0  0   1  0  0  0  0     0       0      0 0.00e+00    0 0.00e+00  0
MatZeroEntries         1 1.0 7.2555e-03 3.3 0.00e+00 0.0 0.0e+00 0.0e+00 0.0e+00  0  0  0  0  0   0  0  0  0  0     0       0      0 0.00e+00    0 0.00e+00  0
MatView                8 1.3 1.1996e-01 188.5 0.00e+00 0.0 0.0e+00 0.0e+00 6.0e+00  0  0  0  0  0   0  0  0  0  0     0       0      0 0.00e+00    0 0.00e+00  0
MatAXPY                4 1.0 6.0514e-02 1.2 4.64e+03 1.3 0.0e+00 0.0e+00 4.0e+00  0  0  0  0  0   0  0  0  0  0   282       0      0 0.00e+00    0 0.00e+00  0
MatTranspose           2 1.0 6.2686e-02 1.0 0.00e+00 0.0 1.7e+03 5.6e+01 1.8e+01  0  0  0  0  0   0  0  0  0  0     0       0      0 0.00e+00    0 0.00e+00  0
MatMatMultSym          4 1.0 1.1812e+00 1.0 0.00e+00 0.0 1.1e+06 3.9e+02 3.2e+01  5  0  0  0  0   6  0  0  0  0     0       0      3 5.17e-02    3 5.17e-02  0
MatMatMultNum          4 1.0 3.4550e-06 3.2 0.00e+00 0.0 0.0e+00 0.0e+00 0.0e+00  0  0  0  0  0   0  0  0  0  0     0       0      0 0.00e+00    0 0.00e+00  0
MatPtAPSymbolic        4 1.0 2.5407e+00 1.0 0.00e+00 0.0 2.7e+06 2.9e+03 6.4e+01 11  0  0  1  0  13  0  0  1  0     0       0      6 1.26e+00    6 1.26e+00  0
MatPtAPNumeric         4 1.0 3.2360e-06 3.5 0.00e+00 0.0 0.0e+00 0.0e+00 0.0e+00  0  0  0  0  0   0  0  0  0  0     0       0      0 0.00e+00    0 0.00e+00  0
MatTrnMatMultSym       2 1.0 1.0000e+00 1.0 0.00e+00 0.0 8.0e+05 1.4e+04 1.6e+01  4  0  0  1  0   5  0  0  1  0     0       0      3 1.73e+00    3 1.73e+00  0
MatSetPreallCOO       20 1.0 1.1134e-04 1.9 0.00e+00 0.0 0.0e+00 0.0e+00 0.0e+00  0  0  0  0  0   0  0  0  0  0     0       0      0 0.00e+00    0 0.00e+00  0
MatSetValuesCOO       20 1.0 7.6329e-05 2.7 0.00e+00 0.0 0.0e+00 0.0e+00 0.0e+00  0  0  0  0  0   0  0  0  0  0     0       0      0 0.00e+00    0 0.00e+00  0
KSPSetUp              11 1.0 5.5117e-02 2.1 0.00e+00 0.0 0.0e+00 0.0e+00 0.0e+00  0  0  0  0  0   0  0  0  0  0     0       0      0 0.00e+00    0 0.00e+00  0
KSPSolve               1 1.0 3.3267e+00 1.0 2.52e+08 2.2 3.9e+07 6.8e+02 2.0e+02 15 45  4  3  0  17 86  4  3  0 190637       0    911 1.29e+01  911 1.29e+01  100
SNESSolve              1 1.0 1.0387e+01 1.0 2.82e+08 2.0 4.9e+07 1.1e+03 8.4e+02 46 53  5  7  2  53 100  6  7  2 70954       0    993 1.73e+01  983 1.72e+01  90
SNESSetUp              1 1.0 1.7973e-01 1.0 0.00e+00 0.0 6.7e+05 1.5e+04 2.2e+01  1  0  0  1  0   1  0  0  1  0     0       0      0 0.00e+00    0 0.00e+00  0
SNESFunctionEval       1 1.0 6.8585e-02 1.2 6.74e+06 1.0 1.0e+05 7.3e+02 3.0e+00  0  2  0  0  0   0  4  0  0  0 390249       0      7 6.87e-02    4 2.42e-02  0
SNESJacobianEval       1 1.0 3.8684e-01 1.3 1.20e+07 1.0 7.7e+04 4.3e+04 2.0e+00  2  3  0  0  0   2  7  0  0  0 124911       0      2 1.21e-02    2 1.21e-02  0
DMRefine               3 1.0 1.4085e-02 1.0 0.00e+00 0.0 6.4e+05 1.5e+02 3.8e+01  0  0  0  0  0   0  0  0  0  0     0       0      0 0.00e+00    0 0.00e+00  0
DMCreateMat            1 1.0 1.7670e-01 1.0 0.00e+00 0.0 6.7e+05 1.5e+04 1.9e+01  1  0  0  1  0   1  0  0  1  0     0       0      0 0.00e+00    0 0.00e+00  0
DMPlexCrFromOpts       1 1.0 8.2674e-03 1.1 0.00e+00 0.0 0.0e+00 0.0e+00 1.0e+00  0  0  0  0  0   0  0  0  0  0     0       0      0 0.00e+00    0 0.00e+00  0
Mesh Partition         1 1.0 2.1471e-01 1.2 0.00e+00 0.0 2.0e+04 2.2e+02 8.0e+00  1  0  0  0  0   1  0  0  0  0     0       0      0 0.00e+00    0 0.00e+00  0
Mesh Migration         1 1.0 5.2826e-01 1.1 0.00e+00 0.0 1.0e+05 1.7e+02 3.2e+01  2  0  0  0  0   3  0  0  0  0     0       0      0 0.00e+00    0 0.00e+00  0
DMPlexPartSelf         1 1.0 4.5872e-02 1596.4 0.00e+00 0.0 0.0e+00 0.0e+00 0.0e+00  0  0  0  0  0   0  0  0  0  0     0       0      0 0.00e+00    0 0.00e+00  0
DMPlexPartLblInv       1 1.0 9.7341e-02 1.9 0.00e+00 0.0 0.0e+00 0.0e+00 3.0e+00  0  0  0  0  0   0  0  0  0  0     0       0      0 0.00e+00    0 0.00e+00  0
DMPlexPartLblSF        1 1.0 5.8060e-02 59.6 0.00e+00 0.0 8.2e+03 1.1e+02 1.0e+00  0  0  0  0  0   0  0  0  0  0     0       0      0 0.00e+00    0 0.00e+00  0
DMPlexPartStrtSF       1 1.0 1.5706e-02 2.3 0.00e+00 0.0 4.1e+03 4.3e+02 0.0e+00  0  0  0  0  0   0  0  0  0  0     0       0      0 0.00e+00    0 0.00e+00  0
DMPlexPointSF          1 1.0 6.5599e-02 1.0 0.00e+00 0.0 8.2e+03 5.4e+02 0.0e+00  0  0  0  0  0   0  0  0  0  0     0       0      0 0.00e+00    0 0.00e+00  0
DMPlexInterp          30 1.0 1.7686e-03 1.6 0.00e+00 0.0 0.0e+00 0.0e+00 0.0e+00  0  0  0  0  0   0  0  0  0  0     0       0      0 0.00e+00    0 0.00e+00  0
DMPlexDistribute       1 1.0 7.7075e-01 1.0 0.00e+00 0.0 1.3e+05 2.0e+02 4.3e+01  3  0  0  0  0   4  0  0  0  0     0       0      0 0.00e+00    0 0.00e+00  0
DMPlexDistCones        1 1.0 7.8961e-02 1.0 0.00e+00 0.0 2.5e+04 2.9e+02 2.0e+00  0  0  0  0  0   0  0  0  0  0     0       0      0 0.00e+00    0 0.00e+00  0
DMPlexDistLabels       1 1.0 8.7482e-02 1.0 0.00e+00 0.0 4.5e+04 1.6e+02 2.4e+01  0  0  0  0  0   0  0  0  0  0     0       0      0 0.00e+00    0 0.00e+00  0
DMPlexDistField        1 1.0 3.1657e-01 1.0 0.00e+00 0.0 2.9e+04 8.7e+01 2.0e+00  1  0  0  0  0   2  0  0  0  0     0       0      0 0.00e+00    0 0.00e+00  0
DMPlexStratify        48 1.0 1.3152e-02 2.6 0.00e+00 0.0 0.0e+00 0.0e+00 5.0e+00  0  0  0  0  0   0  0  0  0  0     0       0      0 0.00e+00    0 0.00e+00  0
DMPlexSymmetrize      48 1.0 1.9659e-03 8.0 0.00e+00 0.0 0.0e+00 0.0e+00 0.0e+00  0  0  0  0  0   0  0  0  0  0     0       0      0 0.00e+00    0 0.00e+00  0
DMPlexPrealloc         1 1.0 1.7372e-01 1.0 0.00e+00 0.0 6.7e+05 1.5e+04 1.7e+01  1  0  0  1  0   1  0  0  1  0     0       0      0 0.00e+00    0 0.00e+00  0
DMPlexResidualFE       1 1.0 2.6899e-02 1.5 6.50e+06 1.0 0.0e+00 0.0e+00 0.0e+00  0  2  0  0  0   0  4  0  0  0 989350       0      0 0.00e+00    0 0.00e+00  0
DMPlexJacobianFE       1 1.0 3.7395e-01 1.3 1.18e+07 1.0 5.1e+04 6.4e+04 2.0e+00  2  3  0  0  0   2  7  0  0  0 128818       0      0 0.00e+00    0 0.00e+00  0
DMPlexGenerate         1 1.0 8.2450e-03 1.1 0.00e+00 0.0 0.0e+00 0.0e+00 1.0e+00  0  0  0  0  0   0  0  0  0  0     0       0      0 0.00e+00    0 0.00e+00  0
DMPlexTransform        3 1.0 1.1896e-02 1.1 0.00e+00 0.0 6.4e+05 1.5e+02 2.0e+01  0  0  0  0  0   0  0  0  0  0     0       0      0 0.00e+00    0 0.00e+00  0
SFSetGraph         12385 1.0 7.4640e-03 4.1 0.00e+00 0.0 0.0e+00 0.0e+00 0.0e+00  0  0  0  0  0   0  0  0  0  0     0       0      0 0.00e+00    0 0.00e+00  0
SFSetUp            12378 1.0 5.1980e+00 1.2 0.00e+00 0.0 2.8e+08 4.2e+02 1.2e+04 21  0 30 14 29  25  0 32 15 29     0       0      0 0.00e+00    0 0.00e+00  0
SFBcastBegin       24701 1.0 3.9003e-01 2.8 0.00e+00 0.0 4.6e+08 9.2e+02 0.0e+00  1  0 49 51  0   2  0 52 53  0     0       0      2 3.84e-02   10 7.98e-01  0
SFBcastEnd         24701 1.0 8.1943e-01 3.0 0.00e+00 0.0 0.0e+00 0.0e+00 0.0e+00  2  0  0  0  0   3  0  0  0  0     0       0     11 8.04e-01    0 0.00e+00  0
SFReduceBegin       4122 1.0 1.4449e-01 6.5 0.00e+00 0.0 1.1e+08 2.1e+03 0.0e+00  0  0 11 27  0   1  0 12 28  0     0       0      0 0.00e+00    8 2.28e+00  0
SFReduceEnd         4122 1.0 1.7555e-01 15.2 8.17e+02 0.0 0.0e+00 0.0e+00 0.0e+00  0  0  0  0  0   0  0  0  0  0    18       0      8 2.28e+00    0 0.00e+00  100
SFFetchOpBegin         2 1.0 5.4735e-04 177.4 0.00e+00 0.0 5.1e+04 2.2e+04 0.0e+00  0  0  0  0  0   0  0  0  0  0     0       0      0 0.00e+00    0 0.00e+00  0
SFFetchOpEnd           2 1.0 4.2534e-03 7.0 0.00e+00 0.0 5.1e+04 2.2e+04 0.0e+00  0  0  0  0  0   0  0  0  0  0     0       0      0 0.00e+00    0 0.00e+00  0
SFCreateEmbed          6 1.0 8.5609e-03 8.5 0.00e+00 0.0 1.3e+05 5.7e+01 0.0e+00  0  0  0  0  0   0  0  0  0  0     0       0      0 0.00e+00    0 0.00e+00  0
SFDistSection       8199 1.0 2.7747e+00 1.3 0.00e+00 0.0 6.3e+08 8.2e+02 1.2e+04 11  0 68 63 29  13  0 71 65 29     0       0      0 0.00e+00    0 0.00e+00  0
SFSectionSF         8204 1.0 3.9246e+00 1.2 0.00e+00 0.0 6.7e+07 6.8e+01 8.2e+03 15  0  7  1 19  18  0  8  1 20     0       0      0 0.00e+00    0 0.00e+00  0
SFRemoteOff            5 1.0 9.3161e-03 5.7 0.00e+00 0.0 3.6e+05 2.1e+02 2.0e+00  0  0  0  0  0   0  0  0  0  0     0       0      0 0.00e+00    0 0.00e+00  0
SFPack             30141 1.0 1.0500e-01 2.1 0.00e+00 0.0 0.0e+00 0.0e+00 0.0e+00  0  0  0  0  0   0  0  0  0  0     0       0      7 1.25e-01    0 0.00e+00  0
SFUnpack           30143 1.0 5.2272e-02 6.3 2.68e+05 1192.0 0.0e+00 0.0e+00 0.0e+00  0  0  0  0  0   0  0  0  0  0  1379       0      2 8.75e-03    0 0.00e+00  100
VecTDot              194 1.0 7.5200e-01 1.3 1.05e+06 1.2 0.0e+00 0.0e+00 1.9e+02  3  0  0  0  0   3  1  0  0  0  5544       0      0 0.00e+00    0 0.00e+00  100
VecNorm               51 1.0 1.6975e-01 1.1 4.18e+05 1.2 0.0e+00 0.0e+00 5.1e+01  1  0  0  0  0   1  0  0  0  0  9962       0      0 0.00e+00    0 0.00e+00  100
VecCopy              611 1.0 9.6222e-01 1.9 0.00e+00 0.0 0.0e+00 0.0e+00 0.0e+00  3  0  0  0  0   4  0  0  0  0     0       0      0 0.00e+00    0 0.00e+00  0
VecSet               252 1.0 2.1136e-01 7.4 0.00e+00 0.0 0.0e+00 0.0e+00 0.0e+00  1  0  0  0  0   1  0  0  0  0     0       0      0 0.00e+00    0 0.00e+00  0
VecAXPY              181 1.0 7.4997e-02 1.5 1.01e+06 1.2 0.0e+00 0.0e+00 0.0e+00  0  0  0  0  0   0  1  0  0  0 53776       0      0 0.00e+00    0 0.00e+00  100
VecAYPX             1285 1.0 1.4546e-02 3.2 3.27e+06 1.3 0.0e+00 0.0e+00 0.0e+00  0  1  0  0  0   0  2  0  0  0 837783       0      0 0.00e+00    0 0.00e+00  100
VecAXPBYCZ           400 1.0 7.9637e-03 1.7 2.32e+06 1.3 0.0e+00 0.0e+00 0.0e+00  0  1  0  0  0   0  1  0  0  0 1072948       0      0 0.00e+00    0 0.00e+00  100
VecAssemblyBegin      20 1.0 7.1042e-02 3.0 0.00e+00 0.0 0.0e+00 0.0e+00 1.6e+01  0  0  0  0  0   0  0  0  0  0     0       0      0 0.00e+00    0 0.00e+00  0
VecAssemblyEnd        20 1.0 2.4013e-04 1.8 0.00e+00 0.0 0.0e+00 0.0e+00 0.0e+00  0  0  0  0  0   0  0  0  0  0     0       0      0 0.00e+00    0 0.00e+00  0
VecPointwiseMult     844 1.0 4.3697e-03 2.3 9.79e+05 1.3 0.0e+00 0.0e+00 0.0e+00  0  0  0  0  0   0  0  0  0  0 825188       0      0 0.00e+00    0 0.00e+00  100
VecScatterBegin     1316 1.0 1.2653e+00 2.9 0.00e+00 0.0 4.1e+07 7.0e+02 0.0e+00  4  0  4  4  0   4  0  5  4  0     0       0      6 1.19e-01  965 1.41e+01  0
VecScatterEnd       1316 1.0 1.1964e+00 2.9 2.68e+05 0.0 0.0e+00 0.0e+00 0.0e+00  4  0  0  0  0   4  0  0  0  0    58       0    965 1.41e+01    0 0.00e+00  100
DualSpaceSetUp         5 1.0 1.0320e-02 1.6 3.13e+03 1.0 0.0e+00 0.0e+00 0.0e+00  0  0  0  0  0   0  0  0  0  0  1244       0      0 0.00e+00    0 0.00e+00  0
FESetUp                5 1.0 2.2819e-03 2.1 0.00e+00 0.0 0.0e+00 0.0e+00 0.0e+00  0  0  0  0  0   0  0  0  0  0     0       0      0 0.00e+00    0 0.00e+00  0
PCSetUp_GAMG+          1 1.0 6.7046e+00 1.0 1.20e+07 2.4 1.0e+07 2.4e+03 6.3e+02 29  2  1  3  1  34  4  1  3  2  4128       0     73 4.35e+00   66 4.23e+00  100
 PCGAMGCreateG         4 1.0 3.8388e-01 1.0 1.03e+06 2.6 5.9e+05 4.9e+02 3.2e+01  2  0  0  0  0   2  0  0  0  0  5998       0      5 7.75e-02    3 5.17e-02  100
 GAMG Coarsen          8 1.0 1.2737e+00 1.0 0.00e+00 0.0 3.7e+06 3.7e+03 1.3e+02  6  0  0  2  0   7  0  0  2  0     0       0     21 2.22e+00   18 2.16e+00  0
  GAMG MIS/Agg         4 1.0 1.1415e+00 1.0 0.00e+00 0.0 3.0e+06 4.2e+03 1.2e+02  5  0  0  2  0   6  0  0  2  0     0       0      3 1.73e+00    3 1.73e+00  0
 PCGAMGProl            4 1.0 1.7916e-01 1.0 0.00e+00 0.0 5.0e+05 9.6e+02 4.8e+01  1  0  0  0  0   1  0  0  0  0     0       0      6 1.94e-01    6 1.94e-01  0
  GAMG Prol-col        4 1.0 4.3204e-02 1.1 0.00e+00 0.0 2.8e+05 1.4e+03 8.0e+00  0  0  0  0  0   0  0  0  0  0     0       0      6 1.94e-01    6 1.94e-01  0
  GAMG Prol-lift       4 1.0 1.3077e-01 1.0 0.00e+00 0.0 2.2e+05 3.5e+02 2.4e+01  1  0  0  0  0   1  0  0  0  0     0       0      0 0.00e+00    0 0.00e+00  0
 PCGAMGOptProl         4 1.0 1.6764e+00 1.0 1.10e+07 2.4 2.5e+06 6.0e+02 1.3e+02  7  2  0  0  0   9  3  0  0  0 15137       0     35 5.94e-01   33 5.69e-01  100
  GAMG smooth          4 1.0 1.2483e+00 1.0 1.43e+05 1.9 1.1e+06 3.9e+02 3.6e+01  5  0  0  0  0   6  0  0  0  0   309       0      3 5.17e-02    3 5.17e-02  96
 PCGAMGCreateL         4 1.0 3.0376e+00 1.0 0.00e+00 0.0 3.0e+06 3.0e+03 2.8e+02 13  0  0  1  1  16  0  0  1  1     0       0      6 1.26e+00    6 1.26e+00  0
  GAMG PtAP            4 1.0 2.5408e+00 1.0 0.00e+00 0.0 2.7e+06 2.9e+03 6.4e+01 11  0  0  1  0  13  0  0  1  0     0       0      6 1.26e+00    6 1.26e+00  0
  GAMG Reduce          4 1.0 4.9701e-01 1.0 0.00e+00 0.0 2.7e+05 3.4e+03 2.2e+02  2  0  0  0  1   3  0  0  0  1     0       0      0 0.00e+00    0 0.00e+00  0
PCGAMG Squ l00         1 1.0 6.3152e-01 1.0 0.00e+00 0.0 5.0e+05 2.0e+04 8.0e+00  3  0  0  1  0   3  0  0  1  0     0       0      2 1.62e+00    2 1.62e+00  0
PCGAMG Gal l00         1 1.0 1.1997e+00 1.0 0.00e+00 0.0 1.4e+06 3.8e+03 1.6e+01  5  0  0  1  0   6  0  0  1  0     0       0      4 8.80e-01    4 8.80e-01  0
PCGAMG Opt l00         1 1.0 5.4560e-01 1.0 0.00e+00 0.0 7.3e+05 4.7e+02 8.0e+00  2  0  0  0  0   3  0  0  0  0     0       0      2 4.07e-02    2 4.07e-02  0
PCGAMG Squ l01         1 1.0 3.6857e-01 1.0 0.00e+00 0.0 3.0e+05 2.4e+03 8.0e+00  2  0  0  0  0   2  0  0  0  0     0       0      1 1.14e-01    1 1.14e-01  0
PCGAMG Gal l01         1 1.0 7.0791e-01 1.0 0.00e+00 0.0 1.2e+06 1.7e+03 1.6e+01  3  0  0  0  0   4  0  0  0  0     0       0      2 3.38e-01    2 3.38e-01  0
PCGAMG Opt l01         1 1.0 3.3022e-01 1.0 0.00e+00 0.0 3.7e+05 2.4e+02 8.0e+00  1  0  0  0  0   2  0  0  0  0     0       0      1 1.06e-02    1 1.06e-02  0
PCGAMG Gal l02         1 1.0 3.3694e-01 1.0 0.00e+00 0.0 2.3e+04 1.1e+04 1.6e+01  1  0  0  0  0   2  0  0  0  0     0       0      0 4.18e-02    0 4.18e-02  0
PCGAMG Opt l02         1 1.0 1.5334e-01 1.0 0.00e+00 0.0 7.5e+03 3.8e+02 8.0e+00  1  0  0  0  0   1  0  0  0  0     0       0      0 3.37e-04    0 3.37e-04  0
PCGAMG Gal l03         1 1.0 2.9631e-01 1.0 0.00e+00 0.0 9.0e+02 1.5e+04 1.6e+01  1  0  0  0  0   2  0  0  0  0     0       0      0 2.10e-03    0 2.10e-03  0
PCGAMG Opt l03         1 1.0 1.5215e-01 1.0 0.00e+00 0.0 4.5e+02 6.9e+02 8.0e+00  1  0  0  0  0   1  0  0  0  0     0       0      0 3.69e-05    0 3.69e-05  0
PCSetUp                2 1.0 6.7050e+00 1.0 1.20e+07 2.4 1.0e+07 2.4e+03 6.3e+02 29  2  1  3  1  34  4  1  3  2  4128       0     73 4.35e+00   66 4.23e+00  100
PCSetUpOnBlocks       50 1.0 3.7674e-04 5.1 3.51e+05 0.0 0.0e+00 0.0e+00 0.0e+00  0  0  0  0  0   0  0  0  0  0   932       0      0 0.00e+00    0 0.00e+00  0
PCApply               50 1.0 2.6999e+00 1.0 2.26e+08 2.4 3.4e+07 6.5e+02 5.0e+01 12 37  4  3  0  14 70  4  3  0 192456       0    811 1.09e+01  811 1.09e+01  100

--- Event Stage 1: Solve only

MatMult             1019 1.2 1.2864e+00 1.9 2.29e+08 2.3 3.2e+07 7.8e+02 0.0e+00  4 40  3  3  0  29 86 83 96  0 439251       0    707 1.24e+01  707 1.24e+01  100
MatMultAdd           200 1.0 4.9510e-01 6.6 6.92e+06 1.9 3.3e+06 1.7e+02 0.0e+00  2  1  0  0  0  11  3  8  2  0 37212       0    152 2.69e-01   52 2.69e-01  100
MatMultTranspose     200 1.0 2.8964e-01 4.9 7.18e+06 2.0 3.3e+06 1.7e+02 0.0e+00  1  1  0  0  0   6  3  8  2  0 63846       0     52 2.69e-01  152 2.69e-01  100
MatSolve              50 0.0 8.6619e-04 0.0 6.52e+05 0.0 0.0e+00 0.0e+00 0.0e+00  0  0  0  0  0   0  0  0  0  0   753       0      0 0.00e+00    0 0.00e+00  0
MatResidual          200 1.0 3.1257e-01 2.3 5.19e+07 2.5 6.9e+06 7.6e+02 0.0e+00  1  8  1  1  0   7 18 18 20  0 373763       0    152 2.58e+00  152 2.58e+00  100
MatView                8 1.3 4.9717e-02 84.1 0.00e+00 0.0 0.0e+00 0.0e+00 6.0e+00  0  0  0  0  0   1  0  0  0  3     0       0      0 0.00e+00    0 0.00e+00  0
KSPSetUp               1 1.0 5.4200e-07 4.9 0.00e+00 0.0 0.0e+00 0.0e+00 0.0e+00  0  0  0  0  0   0  0  0  0  0     0       0      0 0.00e+00    0 0.00e+00  0
KSPSolve               1 1.0 3.2484e+00 1.0 2.52e+08 2.2 3.9e+07 6.8e+02 2.0e+02 14 45  4  3  0  98 96 100 100 95 195227       0    911 1.29e+01  911 1.29e+01  100
SNESSolve              1 1.0 3.2739e+00 1.0 2.58e+08 2.1 3.9e+07 6.8e+02 2.0e+02 14 47  4  3  0  98 100 100 100 95 201033       0    915 1.29e+01  915 1.29e+01  96
SNESFunctionEval       1 1.0 3.6361e-02 1.5 6.05e+06 1.0 5.1e+04 9.7e+02 0.0e+00  0  2  0  0  0   1  4  0  0  0 658232       0      4 2.42e-02    4 2.42e-02  0
DMPlexResidualFE       1 1.0 2.3699e-02 1.8 5.81e+06 1.0 0.0e+00 0.0e+00 0.0e+00  0  2  0  0  0   0  4  0  0  0 1003504       0      0 0.00e+00    0 0.00e+00  0
SFBcastBegin           1 1.0 2.4737e-03 166.6 0.00e+00 0.0 2.6e+04 9.7e+02 0.0e+00  0  0  0  0  0   0  0  0  0  0     0       0      0 0.00e+00    2 1.21e-02  0
SFBcastEnd             1 1.0 5.7836e-03 1387.6 0.00e+00 0.0 0.0e+00 0.0e+00 0.0e+00  0  0  0  0  0   0  0  0  0  0     0       0      2 1.21e-02    0 0.00e+00  0
SFReduceBegin          1 1.0 2.5006e-03 231.9 0.00e+00 0.0 2.6e+04 9.7e+02 0.0e+00  0  0  0  0  0   0  0  0  0  0     0       0      0 0.00e+00    2 1.21e-02  0
SFReduceEnd            1 1.0 1.1354e-02 1090.7 8.17e+02 0.0 0.0e+00 0.0e+00 0.0e+00  0  0  0  0  0   0  0  0  0  0   273       0      2 1.21e-02    0 0.00e+00  100
SFPack              1252 1.0 5.0938e-03 4.1 0.00e+00 0.0 0.0e+00 0.0e+00 0.0e+00  0  0  0  0  0   0  0  0  0  0     0       0      0 0.00e+00    0 0.00e+00  0
SFUnpack            1252 1.0 1.2454e-03 11.8 2.68e+05 1192.0 0.0e+00 0.0e+00 0.0e+00  0  0  0  0  0   0  0  0  0  0 57870       0      0 0.00e+00    0 0.00e+00  100
VecTDot              102 1.0 4.6183e-01 1.4 8.36e+05 1.2 0.0e+00 0.0e+00 1.0e+02  2  0  0  0  0  11  1  0  0 48  7324       0      0 0.00e+00    0 0.00e+00  100
VecNorm               51 1.0 1.6334e-01 1.1 4.18e+05 1.2 0.0e+00 0.0e+00 5.1e+01  1  0  0  0  0   5  0  0  0 24 10353       0      0 0.00e+00    0 0.00e+00  100
VecCopy              602 1.0 9.5298e-01 1.9 0.00e+00 0.0 0.0e+00 0.0e+00 0.0e+00  3  0  0  0  0  22  0  0  0  0     0       0      0 0.00e+00    0 0.00e+00  0
VecSet               255 1.0 2.1603e-01 6.8 0.00e+00 0.0 0.0e+00 0.0e+00 0.0e+00  1  0  0  0  0   4  0  0  0  0     0       0      0 0.00e+00    0 0.00e+00  0
VecAXPY              101 1.0 1.1859e-03 1.6 8.27e+05 1.2 0.0e+00 0.0e+00 0.0e+00  0  0  0  0  0   0  1  0  0  0 2824397       0      0 0.00e+00    0 0.00e+00  100
VecAYPX             1249 1.0 7.6264e-03 2.5 3.19e+06 1.3 0.0e+00 0.0e+00 0.0e+00  0  1  0  0  0   0  2  0  0  0 1557549       0      0 0.00e+00    0 0.00e+00  100
VecAXPBYCZ           400 1.0 1.9272e-03 2.5 2.32e+06 1.3 0.0e+00 0.0e+00 0.0e+00  0  1  0  0  0   0  1  0  0  0 4433717       0      0 0.00e+00    0 0.00e+00  100
VecPointwiseMult     800 1.0 4.0965e-03 2.4 9.28e+05 1.3 0.0e+00 0.0e+00 0.0e+00  0  0  0  0  0   0  1  0  0  0 834334       0      0 0.00e+00    0 0.00e+00  100
VecScatterBegin     1250 1.0 1.1630e+00 3.0 0.00e+00 0.0 3.9e+07 6.8e+02 0.0e+00  3  0  4  3  0  22  0 100 100  0     0       0      0 0.00e+00  911 1.29e+01  0
VecScatterEnd       1250 1.0 1.0763e+00 2.8 2.68e+05 0.0 0.0e+00 0.0e+00 0.0e+00  3  0  0  0  0  23  0  0  0  0    64       0    911 1.29e+01    0 0.00e+00  100
PCSetUpOnBlocks       50 1.0 3.8503e-05 3.3 0.00e+00 0.0 0.0e+00 0.0e+00 0.0e+00  0  0  0  0  0   0  0  0  0  0     0       0      0 0.00e+00    0 0.00e+00  0
PCApply               50 1.0 2.6316e+00 1.1 2.26e+08 2.4 3.4e+07 6.5e+02 5.0e+01 11 37  4  3  0  77 79 88 84 23 197444       0    811 1.09e+01  811 1.09e+01  100
---------------------------------------------------------------------------------------------------------------------------------------------------------------

Object Type          Creations   Destructions. Reports information only for process 0.

--- Event Stage 0: Main Stage

           Container    71             71
                SNES     1              1
              DMSNES     1              1
       Krylov Solver    11             11
     DMKSP interface     1              1
              Matrix   289            289
      Matrix Coarsen     4              4
    Distributed Mesh   107            107
            DM Label  8448           8448
          Quadrature   286            286
      Mesh Transform     3              3
           Index Set 38106          38106
   IS L to G Mapping   194            194
             Section 16758          16758
   Star Forest Graph 12591          12591
     Discrete System   163            163
           Weak Form   164            164
    GraphPartitioner    48             48
              Vector   246            246
        Linear Space    10             10
          Dual Space    49             49
            FE Space     5              5
              Viewer     2              2
      Preconditioner    11             11
       Field over DM     1              1
         PetscRandom     4              4

--- Event Stage 1: Solve only

          Quadrature     1              1
           Index Set    31             31
              Viewer     1              1
========================================================================================================================
Average time to get PetscTime(): 3.71e-08
Average time for MPI_Barrier(): 3.36692e-05
Average time for zero size MPI_Send(): 4.77073e-06
#PETSc Option Table entries:
-benchmark_it 1 # (source: file)
-build_twosided allreduce # (source: file)
-dm_mat_type aijkokkos # (source: file)
-dm_plex_box_faces 16,16,16 # (source: command line)
-dm_plex_box_lower 0,0,0 # (source: file)
-dm_plex_box_upper 4,2,1 # (source: file)
-dm_plex_dim 3 # (source: file)
-dm_plex_simplex 0 # (source: file)
-dm_refine 3 # (source: command line)
-dm_vec_type kokkos # (source: file)
-dm_view # (source: file)
-info :pc,is # (source: file)
-ksp_converged_reason # (source: file)
-ksp_monitor # (source: file)
-ksp_norm_type unpreconditioned # (source: file)
-ksp_rtol 1e-12 # (source: file)
-ksp_type cg # (source: file)
-log_view # (source: file)
-mg_levels_ksp_chebyshev_esteig 0,0.2,0,1.05 # (source: file)
-options_left # (source: file)
-pc_gamg_aggressive_coarsening 2 # (source: file)
-pc_gamg_aggressive_square_graph true # (source: file)
-pc_gamg_coarse_eq_limit 1000 # (source: file)
-pc_gamg_esteig_ksp_type cg # (source: file)
-pc_gamg_mis_k_minimum_degree_ordering true # (source: file)
-pc_gamg_process_eq_limit 200 # (source: file)
-pc_gamg_reuse_interpolation true # (source: file)
-pc_gamg_threshold 0.04 # (source: file)
-pc_gamg_threshold_scale .25 # (source: file)
-pc_type gamg # (source: file)
-petscpartitioner_simple_node_grid 4,4,4 # (source: command line)
-petscpartitioner_simple_process_grid 4,4,4 # (source: file)
-petscpartitioner_type simple # (source: file)
-potential_petscspace_degree 2 # (source: command line)
-snes_lag_jacobian -2 # (source: file)
-snes_type ksponly # (source: file)
-snes_view # (source: file)
-use_gpu_aware_mpi 0 # (source: command line)
#End of PETSc Option Table entries
Compiled without FORTRAN kernels
Compiled with 64-bit PetscInt
Compiled with full precision matrices (default)
sizeof(short) 2 sizeof(int) 4 sizeof(long) 8 sizeof(void*) 8 sizeof(PetscScalar) 8 sizeof(PetscInt) 8
Configure options: --PETSC_ARCH=arch-kokkos-opt --with-debugging=0 --with-make-np=8 --with-mpiexec="srun -G4" --with-batch=0 --with-cc=cc --with-cxx=CC --with-fc=ftn --with-64-bit-indices=1 --download-sowing-cc=cc --COPTFLAGS="   -g -O3" --CXXOPTFLAGS=" -g -O3" --FOPTFLAGS="   -g -O3" --CUDAFLAGS="   -g -O3" --with-cuda=1 --download-kokkos --download-kokkos-kernels=https://github.com/jczhang07/kokkos-kernels.git --download-kokkos-commit=origin/develop --download-kokkos-kernels-commit=origin/2024-02-07/perlmutter-fix --download-kokkos-kernels-cmake-arguments="-DCUBLAS_ROOT=/opt/nvidia/hpc_sdk/Linux_x86_64/23.9/math_libs/12.2 -DCUSPARSE_ROOT=/opt/nvidia/hpc_sdk/Linux_x86_64/23.9/math_libs/12.2 -DCUSOLVER_ROOT=/opt/nvidia/hpc_sdk/Linux_x86_64/23.9/math_libs/12.2"
-----------------------------------------
Libraries compiled on 2024-02-08 19:36:55 on login40 
Machine characteristics: Linux-5.14.21-150400.24.81_12.0.87-cray_shasta_c-x86_64-with-glibc2.3.4
Using PETSc directory: /global/homes/m/madams/petsc
Using PETSc arch: arch-kokkos-opt
-----------------------------------------

Using C compiler: cc  -fPIC -g -O3  
Using Fortran compiler: ftn  -fPIC -g -O3    
-----------------------------------------

Using include paths: -I/global/homes/m/madams/petsc/include -I/global/homes/m/madams/petsc/arch-kokkos-opt/include -I/opt/nvidia/hpc_sdk/Linux_x86_64/23.9/cuda/12.2/include -I/opt/nvidia/hpc_sdk/Linux_x86_64/23.9/math_libs/12.2/include
-----------------------------------------

Using C linker: cc
Using Fortran linker: ftn
Using libraries: -Wl,-rpath,/global/homes/m/madams/petsc/arch-kokkos-opt/lib -L/global/homes/m/madams/petsc/arch-kokkos-opt/lib -lpetsc -Wl,-rpath,/global/homes/m/madams/petsc/arch-kokkos-opt/lib -L/global/homes/m/madams/petsc/arch-kokkos-opt/lib -Wl,-rpath,/opt/nvidia/hpc_sdk/Linux_x86_64/23.9/cuda/12.2/lib64 -L/opt/nvidia/hpc_sdk/Linux_x86_64/23.9/cuda/12.2/lib64 -L/opt/nvidia/hpc_sdk/Linux_x86_64/23.9/cuda/12.2/lib64/stubs -Wl,-rpath,/opt/cray/pe/mpich/8.1.28/ofi/gnu/12.3/lib -L/opt/cray/pe/mpich/8.1.28/ofi/gnu/12.3/lib -Wl,-rpath,/opt/cray/pe/mpich/8.1.28/gtl/lib -L/opt/cray/pe/mpich/8.1.28/gtl/lib -Wl,-rpath,/opt/cray/pe/libsci/23.12.5/GNU/12.3/x86_64/lib -L/opt/cray/pe/libsci/23.12.5/GNU/12.3/x86_64/lib -Wl,-rpath,/opt/cray/pe/hdf5-parallel/1.12.2.9/gnu/12.3/lib -L/opt/cray/pe/hdf5-parallel/1.12.2.9/gnu/12.3/lib -Wl,-rpath,/opt/cray/pe/dsmml/0.2.2/dsmml/lib -L/opt/cray/pe/dsmml/0.2.2/dsmml/lib -Wl,-rpath,/opt/nvidia/hpc_sdk/Linux_x86_64/23.9/cuda/12.2/lib64/stubs -Wl,-rpath,/opt/nvidia/hpc_sdk/Linux_x86_64/23.9/cuda/12.2/nvvm/lib64 -L/opt/nvidia/hpc_sdk/Linux_x86_64/23.9/cuda/12.2/nvvm/lib64 -Wl,-rpath,/opt/nvidia/hpc_sdk/Linux_x86_64/23.9/cuda/12.2/extras/CUPTI/lib64 -L/opt/nvidia/hpc_sdk/Linux_x86_64/23.9/cuda/12.2/extras/CUPTI/lib64 -Wl,-rpath,/opt/nvidia/hpc_sdk/Linux_x86_64/23.9/cuda/12.2/extras/Debugger/lib64 -L/opt/nvidia/hpc_sdk/Linux_x86_64/23.9/cuda/12.2/extras/Debugger/lib64 -Wl,-rpath,/opt/nvidia/hpc_sdk/Linux_x86_64/23.9/math_libs/12.2/lib64 -L/opt/nvidia/hpc_sdk/Linux_x86_64/23.9/math_libs/12.2/lib64 -Wl,-rpath,/opt/cray/xpmem/2.6.2-2.5_2.38__gd067c3f.shasta/lib64 -L/opt/cray/xpmem/2.6.2-2.5_2.38__gd067c3f.shasta/lib64 -Wl,-rpath,/usr/lib64/gcc/x86_64-suse-linux/12 -L/usr/lib64/gcc/x86_64-suse-linux/12 -Wl,-rpath,/usr/x86_64-suse-linux/lib -L/usr/x86_64-suse-linux/lib -lkokkoskernels -lkokkoscontainers -lkokkoscore -lkokkossimd -lcudart -lnvToolsExt -lcufft -lcublas -lcusparse -lcusolver -lcurand -lcuda -lX11 -lcuda -ldl -lmpi_gtl_cuda -lxpmem -lgfortran -lm -lhdf5_hl_parallel -lhdf5_parallel -lcupti -lcudart -lhdf5hl_fortran_parallel -lhdf5_fortran_parallel -lsci_gnu_123_mpi -lsci_gnu_123 -lmpifort_gnu_123 -lmpi_gnu_123 -ldsmml -lgfortran -lquadmath -lpthread -lm -lgcc_s -lstdc++
-----------------------------------------

#PETSc Option Table entries:
-benchmark_it 1 # (source: file)
-build_twosided allreduce # (source: file)
-dm_mat_type aijkokkos # (source: file)
-dm_plex_box_faces 16,16,16 # (source: command line)
-dm_plex_box_lower 0,0,0 # (source: file)
-dm_plex_box_upper 4,2,1 # (source: file)
-dm_plex_dim 3 # (source: file)
-dm_plex_simplex 0 # (source: file)
-dm_refine 3 # (source: command line)
-dm_vec_type kokkos # (source: file)
-dm_view # (source: file)
-info :pc,is # (source: file)
-ksp_converged_reason # (source: file)
-ksp_monitor # (source: file)
-ksp_norm_type unpreconditioned # (source: file)
-ksp_rtol 1e-12 # (source: file)
-ksp_type cg # (source: file)
-log_view # (source: file)
-mg_levels_ksp_chebyshev_esteig 0,0.2,0,1.05 # (source: file)
-options_left # (source: file)
-pc_gamg_aggressive_coarsening 2 # (source: file)
-pc_gamg_aggressive_square_graph true # (source: file)
-pc_gamg_coarse_eq_limit 1000 # (source: file)
-pc_gamg_esteig_ksp_type cg # (source: file)
-pc_gamg_mis_k_minimum_degree_ordering true # (source: file)
-pc_gamg_process_eq_limit 200 # (source: file)
-pc_gamg_reuse_interpolation true # (source: file)
-pc_gamg_threshold 0.04 # (source: file)
-pc_gamg_threshold_scale .25 # (source: file)
-pc_type gamg # (source: file)
-petscpartitioner_simple_node_grid 4,4,4 # (source: command line)
-petscpartitioner_simple_process_grid 4,4,4 # (source: file)
-petscpartitioner_type simple # (source: file)
-potential_petscspace_degree 2 # (source: command line)
-snes_lag_jacobian -2 # (source: file)
-snes_type ksponly # (source: file)
-snes_view # (source: file)
-use_gpu_aware_mpi 0 # (source: command line)
#End of PETSc Option Table entries
There are no unused options.
