DM Object: box 512 MPI processes
  type: plex
box in 3 dimensions:
  Min/Max of 0-cells per rank: 729/729
  Min/Max of 1-cells per rank: 1944/1944
  Min/Max of 2-cells per rank: 1728/1728
  Min/Max of 3-cells per rank: 512/512
Labels:
  celltype: 4 strata with value/size (0 (729), 1 (1944), 4 (1728), 7 (512))
  depth: 4 strata with value/size (0 (729), 1 (1944), 2 (1728), 3 (512))
  marker: 1 strata with value/size (1 (817))
  Face Sets: 3 strata with value/size (1 (225), 3 (225), 6 (225))
Number equations N = 2048383
[0] <pc:gamg> PCSetUp_GAMG(): (null): level 0) N=2048383, n data rows=1, n data cols=1, nnz/row (ave)=62, block size 1, np=512
[0] <pc:gamg> PCGAMGCreateGraph_AGG(): HEM and aggressive coarsening ignored: HEM using 5 iterations
[0] <pc:gamg> PCGAMGCreateGraph_AGG(): Filtering left 33.8523 % edges in graph (1.851930e+05 6.269200e+04)
[0] <is> MatCoarsenApply_HEM_private(): Start 5 iterations of HEM.
[0] <is> MatCoarsenApply_HEM_private(): [0] HEM iteration 0 with 31663 edges
[0] <is> MatCoarsenApply_HEM_private(): [0] 0.0) nactive edges=2504466, ncomm_procs=5, nEdges=31663, 131012 deleted ghosts, N=2048383
[0] <is> MatCoarsenApply_HEM_private(): [0] 0.1) nactive edges=224703, ncomm_procs=5, nEdges=31663, 31612 deleted ghosts, N=2048383
[0] <is> MatCoarsenApply_HEM_private(): [0] 0.2) nactive edges=3136, ncomm_procs=5, nEdges=31663, 0 deleted ghosts, N=2048383
[0] <is> MatCoarsenApply_HEM_private(): [0] 0.3) nactive edges=0, ncomm_procs=5, nEdges=31663, 0 deleted ghosts, N=2048383
[0] <is> MatCoarsenApply_HEM_private(): [0] HEM iteration 1 with 8121 edges
[0] <is> MatCoarsenApply_HEM_private(): [0] 1.0) nactive edges=1484271, ncomm_procs=5, nEdges=8121, 76912 deleted ghosts, N=2048383
[0] <is> MatCoarsenApply_HEM_private(): [0] 1.1) nactive edges=261417, ncomm_procs=5, nEdges=8121, 50956 deleted ghosts, N=2048383
[0] <is> MatCoarsenApply_HEM_private(): [0] 1.2) nactive edges=29036, ncomm_procs=5, nEdges=8121, 5480 deleted ghosts, N=2048383
[0] <is> MatCoarsenApply_HEM_private(): [0] 1.3) nactive edges=575, ncomm_procs=5, nEdges=8121, 0 deleted ghosts, N=2048383
[0] <is> MatCoarsenApply_HEM_private(): [0] 1.4) nactive edges=0, ncomm_procs=5, nEdges=8121, 0 deleted ghosts, N=2048383
[0] <is> MatCoarsenApply_HEM_private(): [0] HEM iteration 2 with 4112 edges
[0] <is> MatCoarsenApply_HEM_private(): [0] 2.0) nactive edges=833120, ncomm_procs=6, nEdges=4112, 35234 deleted ghosts, N=2048383
[0] <is> MatCoarsenApply_HEM_private(): [0] 2.1) nactive edges=172493, ncomm_procs=6, nEdges=4112, 15100 deleted ghosts, N=2048383
[0] <is> MatCoarsenApply_HEM_private(): [0] 2.2) nactive edges=44753, ncomm_procs=6, nEdges=4112, 4682 deleted ghosts, N=2048383
[0] <is> MatCoarsenApply_HEM_private(): [0] 2.3) nactive edges=11294, ncomm_procs=6, nEdges=4112, 3400 deleted ghosts, N=2048383
[0] <is> MatCoarsenApply_HEM_private(): [0] 2.4) nactive edges=1310, ncomm_procs=6, nEdges=4112, 712 deleted ghosts, N=2048383
[0] <is> MatCoarsenApply_HEM_private(): [0] 2.5) nactive edges=295, ncomm_procs=6, nEdges=4112, 0 deleted ghosts, N=2048383
[0] <is> MatCoarsenApply_HEM_private(): [0] 2.6) nactive edges=0, ncomm_procs=6, nEdges=4112, 0 deleted ghosts, N=2048383
[0] <is> MatCoarsenApply_HEM_private(): [0] HEM iteration 3 with 1666 edges
[0] <is> MatCoarsenApply_HEM_private(): [0] 3.0) nactive edges=464386, ncomm_procs=6, nEdges=1666, 21540 deleted ghosts, N=2048383
[0] <is> MatCoarsenApply_HEM_private(): [0] 3.1) nactive edges=120057, ncomm_procs=6, nEdges=1666, 14864 deleted ghosts, N=2048383
[0] <is> MatCoarsenApply_HEM_private(): [0] 3.2) nactive edges=27035, ncomm_procs=6, nEdges=1666, 6304 deleted ghosts, N=2048383
[0] <is> MatCoarsenApply_HEM_private(): [0] 3.3) nactive edges=3702, ncomm_procs=6, nEdges=1666, 714 deleted ghosts, N=2048383
[0] <is> MatCoarsenApply_HEM_private(): [0] 3.4) nactive edges=186, ncomm_procs=6, nEdges=1666, 46 deleted ghosts, N=2048383
[0] <is> MatCoarsenApply_HEM_private(): [0] 3.5) nactive edges=0, ncomm_procs=6, nEdges=1666, 0 deleted ghosts, N=2048383
[0] <is> MatCoarsenApply_HEM_private(): [0] HEM iteration 4 with 653 edges
[0] <is> MatCoarsenApply_HEM_private(): [0] 4.0) nactive edges=243081, ncomm_procs=6, nEdges=653, 15746 deleted ghosts, N=2048383
[0] <is> MatCoarsenApply_HEM_private(): [0] 4.1) nactive edges=52989, ncomm_procs=6, nEdges=653, 5694 deleted ghosts, N=2048383
[0] <is> MatCoarsenApply_HEM_private(): [0] 4.2) nactive edges=14275, ncomm_procs=6, nEdges=653, 3360 deleted ghosts, N=2048383
[0] <is> MatCoarsenApply_HEM_private(): [0] 4.3) nactive edges=2015, ncomm_procs=6, nEdges=653, 374 deleted ghosts, N=2048383
[0] <is> MatCoarsenApply_HEM_private(): [0] 4.4) nactive edges=297, ncomm_procs=6, nEdges=653, 112 deleted ghosts, N=2048383
[0] <is> MatCoarsenApply_HEM_private(): [0] 4.5) nactive edges=0, ncomm_procs=6, nEdges=653, 0 deleted ghosts, N=2048383
[0] <pc:gamg> PCGAMGProlongator_AGG(): (null): New grid 80919 nodes
[0] <pc:gamg> PCGAMGOptProlongator_AGG(): (null): Smooth P0: max eigen=2.539211e+00 min=6.573673e-02 PC=jacobi
[0] <pc:gamg> PCGAMGOptProlongator_AGG(): (null): Smooth P0: level 0, cache spectra 0.0657367 2.53921
[0] <pc:gamg> PCGAMGCreateLevel_GAMG(): (null): Coarse grid reduction from 512 to 405 active processes
[0] <pc:gamg> PCGAMGCreateLevel_GAMG(): (null): Finding factorable processor set stopped reduction: new_size=512, neq(loc)=85
[0] <pc:gamg> PCSetUp_GAMG(): (null): 1) N=80919, n data cols=1, nnz/row (ave)=190, 512 active pes
[0] <pc:gamg> PCGAMGCreateGraph_AGG(): Filtering left 12.0868 % edges in graph (1.055700e+04 1.276000e+03)
[0] <is> MatCoarsenApply_HEM_private(): Start 5 iterations of HEM.
[0] <is> MatCoarsenApply_HEM_private(): [0] HEM iteration 0 with 778 edges
[0] <is> MatCoarsenApply_HEM_private(): [0] 0.0) nactive edges=352361, ncomm_procs=6, nEdges=778, 5758 deleted ghosts, N=80919
[0] <is> MatCoarsenApply_HEM_private(): [0] 0.1) nactive edges=89130, ncomm_procs=6, nEdges=778, 7944 deleted ghosts, N=80919
[0] <is> MatCoarsenApply_HEM_private(): [0] 0.2) nactive edges=14827, ncomm_procs=6, nEdges=778, 2598 deleted ghosts, N=80919
[0] <is> MatCoarsenApply_HEM_private(): [0] 0.3) nactive edges=2546, ncomm_procs=6, nEdges=778, 930 deleted ghosts, N=80919
[0] <is> MatCoarsenApply_HEM_private(): [0] 0.4) nactive edges=216, ncomm_procs=6, nEdges=778, 26 deleted ghosts, N=80919
[0] <is> MatCoarsenApply_HEM_private(): [0] 0.5) nactive edges=15, ncomm_procs=6, nEdges=778, 14 deleted ghosts, N=80919
[0] <is> MatCoarsenApply_HEM_private(): [0] 0.6) nactive edges=0, ncomm_procs=6, nEdges=778, 0 deleted ghosts, N=80919
[0] <is> MatCoarsenApply_HEM_private(): [0] HEM iteration 1 with 286 edges
[0] <is> MatCoarsenApply_HEM_private(): [0] 1.0) nactive edges=155475, ncomm_procs=6, nEdges=286, 3200 deleted ghosts, N=80919
[0] <is> MatCoarsenApply_HEM_private(): [0] 1.1) nactive edges=42883, ncomm_procs=6, nEdges=286, 3754 deleted ghosts, N=80919
[0] <is> MatCoarsenApply_HEM_private(): [0] 1.2) nactive edges=10321, ncomm_procs=6, nEdges=286, 1778 deleted ghosts, N=80919
[0] <is> MatCoarsenApply_HEM_private(): [0] 1.3) nactive edges=2591, ncomm_procs=6, nEdges=286, 762 deleted ghosts, N=80919
[0] <is> MatCoarsenApply_HEM_private(): [0] 1.4) nactive edges=647, ncomm_procs=6, nEdges=286, 164 deleted ghosts, N=80919
[0] <is> MatCoarsenApply_HEM_private(): [0] 1.5) nactive edges=206, ncomm_procs=6, nEdges=286, 58 deleted ghosts, N=80919
[0] <is> MatCoarsenApply_HEM_private(): [0] 1.6) nactive edges=63, ncomm_procs=6, nEdges=286, 42 deleted ghosts, N=80919
[0] <is> MatCoarsenApply_HEM_private(): [0] 1.7) nactive edges=0, ncomm_procs=6, nEdges=286, 0 deleted ghosts, N=80919
[0] <is> MatCoarsenApply_HEM_private(): [0] HEM iteration 2 with 112 edges
[0] <is> MatCoarsenApply_HEM_private(): [0] 2.0) nactive edges=93590, ncomm_procs=6, nEdges=112, 3172 deleted ghosts, N=80919
[0] <is> MatCoarsenApply_HEM_private(): [0] 2.1) nactive edges=31840, ncomm_procs=6, nEdges=112, 3666 deleted ghosts, N=80919
[0] <is> MatCoarsenApply_HEM_private(): [0] 2.2) nactive edges=6991, ncomm_procs=6, nEdges=112, 856 deleted ghosts, N=80919
[0] <is> MatCoarsenApply_HEM_private(): [0] 2.3) nactive edges=1836, ncomm_procs=6, nEdges=112, 570 deleted ghosts, N=80919
[0] <is> MatCoarsenApply_HEM_private(): [0] 2.4) nactive edges=257, ncomm_procs=6, nEdges=112, 76 deleted ghosts, N=80919
[0] <is> MatCoarsenApply_HEM_private(): [0] 2.5) nactive edges=56, ncomm_procs=6, nEdges=112, 14 deleted ghosts, N=80919
[0] <is> MatCoarsenApply_HEM_private(): [0] 2.6) nactive edges=12, ncomm_procs=6, nEdges=112, 12 deleted ghosts, N=80919
[0] <is> MatCoarsenApply_HEM_private(): [0] 2.7) nactive edges=0, ncomm_procs=6, nEdges=112, 0 deleted ghosts, N=80919
[0] <is> MatCoarsenApply_HEM_private(): [0] HEM iteration 3 with 40 edges
[0] <is> MatCoarsenApply_HEM_private(): [0] 3.0) nactive edges=49554, ncomm_procs=6, nEdges=40, 1246 deleted ghosts, N=80919
[0] <is> MatCoarsenApply_HEM_private(): [0] 3.1) nactive edges=15121, ncomm_procs=6, nEdges=40, 1762 deleted ghosts, N=80919
[0] <is> MatCoarsenApply_HEM_private(): [0] 3.2) nactive edges=2817, ncomm_procs=6, nEdges=40, 608 deleted ghosts, N=80919
[0] <is> MatCoarsenApply_HEM_private(): [0] 3.3) nactive edges=501, ncomm_procs=6, nEdges=40, 238 deleted ghosts, N=80919
[0] <is> MatCoarsenApply_HEM_private(): [0] 3.4) nactive edges=40, ncomm_procs=6, nEdges=40, 28 deleted ghosts, N=80919
[0] <is> MatCoarsenApply_HEM_private(): [0] 3.5) nactive edges=0, ncomm_procs=6, nEdges=40, 0 deleted ghosts, N=80919
[0] <is> MatCoarsenApply_HEM_private(): [0] HEM iteration 4 with 13 edges
[0] <is> MatCoarsenApply_HEM_private(): [0] 4.0) nactive edges=32581, ncomm_procs=4, nEdges=13, 726 deleted ghosts, N=80919
[0] <is> MatCoarsenApply_HEM_private(): [0] 4.1) nactive edges=14782, ncomm_procs=4, nEdges=13, 1530 deleted ghosts, N=80919
[0] <is> MatCoarsenApply_HEM_private(): [0] 4.2) nactive edges=4070, ncomm_procs=4, nEdges=13, 480 deleted ghosts, N=80919
[0] <is> MatCoarsenApply_HEM_private(): [0] 4.3) nactive edges=1029, ncomm_procs=4, nEdges=13, 294 deleted ghosts, N=80919
[0] <is> MatCoarsenApply_HEM_private(): [0] 4.4) nactive edges=179, ncomm_procs=4, nEdges=13, 86 deleted ghosts, N=80919
[0] <is> MatCoarsenApply_HEM_private(): [0] 4.5) nactive edges=7, ncomm_procs=4, nEdges=13, 4 deleted ghosts, N=80919
[0] <is> MatCoarsenApply_HEM_private(): [0] 4.6) nactive edges=0, ncomm_procs=4, nEdges=13, 0 deleted ghosts, N=80919
[0] <pc:gamg> PCGAMGProlongator_AGG(): (null): New grid 3319 nodes
[0] <pc:gamg> PCGAMGOptProlongator_AGG(): (null): Smooth P0: max eigen=1.335988e+00 min=4.342048e-02 PC=jacobi
[0] <pc:gamg> PCGAMGOptProlongator_AGG(): (null): Smooth P0: level 1, cache spectra 0.0434205 1.33599
[0] <pc:gamg> PCGAMGCreateLevel_GAMG(): (null): Coarse grid reduction from 512 to 17 active processes
[0] <pc:gamg> PCGAMGCreateLevel_GAMG(): (null): Number of equations (loc) 0 with simple aggregation
[0] <pc:gamg> PCSetUp_GAMG(): (null): 2) N=3319, n data cols=1, nnz/row (ave)=360, 16 active pes
[0] <pc:gamg> PCGAMGCreateGraph_AGG(): Filtering left 10.2375 % edges in graph (2.660800e+04 2.724000e+03)
[0] <is> MatCoarsenApply_HEM_private(): Start 5 iterations of HEM.
[0] <is> MatCoarsenApply_HEM_private(): [0] HEM iteration 0 with 1990 edges
[0] <is> MatCoarsenApply_HEM_private(): [0] 0.0) nactive edges=37893, ncomm_procs=7, nEdges=1990, 312 deleted ghosts, N=3319
[0] <is> MatCoarsenApply_HEM_private(): [0] 0.1) nactive edges=13940, ncomm_procs=7, nEdges=1990, 332 deleted ghosts, N=3319
[0] <is> MatCoarsenApply_HEM_private(): [0] 0.2) nactive edges=4472, ncomm_procs=7, nEdges=1990, 138 deleted ghosts, N=3319
[0] <is> MatCoarsenApply_HEM_private(): [0] 0.3) nactive edges=1462, ncomm_procs=7, nEdges=1990, 58 deleted ghosts, N=3319
[0] <is> MatCoarsenApply_HEM_private(): [0] 0.4) nactive edges=469, ncomm_procs=7, nEdges=1990, 56 deleted ghosts, N=3319
[0] <is> MatCoarsenApply_HEM_private(): [0] 0.5) nactive edges=127, ncomm_procs=7, nEdges=1990, 26 deleted ghosts, N=3319
[0] <is> MatCoarsenApply_HEM_private(): [0] 0.6) nactive edges=26, ncomm_procs=7, nEdges=1990, 10 deleted ghosts, N=3319
[0] <is> MatCoarsenApply_HEM_private(): [0] 0.7) nactive edges=2, ncomm_procs=7, nEdges=1990, 0 deleted ghosts, N=3319
[0] <is> MatCoarsenApply_HEM_private(): [0] 0.8) nactive edges=0, ncomm_procs=7, nEdges=1990, 0 deleted ghosts, N=3319
[0] <is> MatCoarsenApply_HEM_private(): [0] HEM iteration 1 with 629 edges
[0] <is> MatCoarsenApply_HEM_private(): [0] 1.0) nactive edges=17073, ncomm_procs=9, nEdges=629, 174 deleted ghosts, N=3319
[0] <is> MatCoarsenApply_HEM_private(): [0] 1.1) nactive edges=5414, ncomm_procs=9, nEdges=629, 172 deleted ghosts, N=3319
[0] <is> MatCoarsenApply_HEM_private(): [0] 1.2) nactive edges=1411, ncomm_procs=9, nEdges=629, 70 deleted ghosts, N=3319
[0] <is> MatCoarsenApply_HEM_private(): [0] 1.3) nactive edges=339, ncomm_procs=9, nEdges=629, 46 deleted ghosts, N=3319
[0] <is> MatCoarsenApply_HEM_private(): [0] 1.4) nactive edges=63, ncomm_procs=9, nEdges=629, 12 deleted ghosts, N=3319
[0] <is> MatCoarsenApply_HEM_private(): [0] 1.5) nactive edges=10, ncomm_procs=9, nEdges=629, 4 deleted ghosts, N=3319
[0] <is> MatCoarsenApply_HEM_private(): [0] 1.6) nactive edges=0, ncomm_procs=9, nEdges=629, 0 deleted ghosts, N=3319
[0] <is> MatCoarsenApply_HEM_private(): [0] HEM iteration 2 with 139 edges
[0] <is> MatCoarsenApply_HEM_private(): [0] 2.0) nactive edges=7881, ncomm_procs=9, nEdges=139, 66 deleted ghosts, N=3319
[0] <is> MatCoarsenApply_HEM_private(): [0] 2.1) nactive edges=3227, ncomm_procs=9, nEdges=139, 128 deleted ghosts, N=3319
[0] <is> MatCoarsenApply_HEM_private(): [0] 2.2) nactive edges=911, ncomm_procs=9, nEdges=139, 52 deleted ghosts, N=3319
[0] <is> MatCoarsenApply_HEM_private(): [0] 2.3) nactive edges=281, ncomm_procs=9, nEdges=139, 30 deleted ghosts, N=3319
[0] <is> MatCoarsenApply_HEM_private(): [0] 2.4) nactive edges=76, ncomm_procs=9, nEdges=139, 16 deleted ghosts, N=3319
[0] <is> MatCoarsenApply_HEM_private(): [0] 2.5) nactive edges=14, ncomm_procs=9, nEdges=139, 6 deleted ghosts, N=3319
[0] <is> MatCoarsenApply_HEM_private(): [0] 2.6) nactive edges=3, ncomm_procs=9, nEdges=139, 2 deleted ghosts, N=3319
[0] <is> MatCoarsenApply_HEM_private(): [0] 2.7) nactive edges=0, ncomm_procs=9, nEdges=139, 0 deleted ghosts, N=3319
[0] <is> MatCoarsenApply_HEM_private(): [0] HEM iteration 3 with 23 edges
[0] <is> MatCoarsenApply_HEM_private(): [0] 3.0) nactive edges=3035, ncomm_procs=5, nEdges=23, 30 deleted ghosts, N=3319
[0] <is> MatCoarsenApply_HEM_private(): [0] 3.1) nactive edges=1205, ncomm_procs=5, nEdges=23, 80 deleted ghosts, N=3319
[0] <is> MatCoarsenApply_HEM_private(): [0] 3.2) nactive edges=221, ncomm_procs=5, nEdges=23, 40 deleted ghosts, N=3319
[0] <is> MatCoarsenApply_HEM_private(): [0] 3.3) nactive edges=37, ncomm_procs=5, nEdges=23, 4 deleted ghosts, N=3319
[0] <is> MatCoarsenApply_HEM_private(): [0] 3.4) nactive edges=12, ncomm_procs=5, nEdges=23, 2 deleted ghosts, N=3319
[0] <is> MatCoarsenApply_HEM_private(): [0] 3.5) nactive edges=2, ncomm_procs=5, nEdges=23, 2 deleted ghosts, N=3319
[0] <is> MatCoarsenApply_HEM_private(): [0] 3.6) nactive edges=0, ncomm_procs=5, nEdges=23, 0 deleted ghosts, N=3319
[0] <is> MatCoarsenApply_HEM_private(): [0] HEM iteration 4 with 0 edges
[0] <is> MatCoarsenApply_HEM_private(): [0] 4.0) nactive edges=1222, ncomm_procs=0, nEdges=0, 18 deleted ghosts, N=3319
[0] <is> MatCoarsenApply_HEM_private(): [0] 4.1) nactive edges=437, ncomm_procs=0, nEdges=0, 40 deleted ghosts, N=3319
[0] <is> MatCoarsenApply_HEM_private(): [0] 4.2) nactive edges=92, ncomm_procs=0, nEdges=0, 12 deleted ghosts, N=3319
[0] <is> MatCoarsenApply_HEM_private(): [0] 4.3) nactive edges=36, ncomm_procs=0, nEdges=0, 8 deleted ghosts, N=3319
[0] <is> MatCoarsenApply_HEM_private(): [0] 4.4) nactive edges=13, ncomm_procs=0, nEdges=0, 2 deleted ghosts, N=3319
[0] <is> MatCoarsenApply_HEM_private(): [0] 4.5) nactive edges=2, ncomm_procs=0, nEdges=0, 0 deleted ghosts, N=3319
[0] <is> MatCoarsenApply_HEM_private(): [0] 4.6) nactive edges=0, ncomm_procs=0, nEdges=0, 0 deleted ghosts, N=3319
[0] <pc:gamg> PCGAMGProlongator_AGG(): (null): New grid 121 nodes
[0] <pc:gamg> PCGAMGOptProlongator_AGG(): (null): Smooth P0: max eigen=1.245480e+00 min=9.483758e-02 PC=jacobi
[0] <pc:gamg> PCGAMGOptProlongator_AGG(): (null): Smooth P0: level 2, cache spectra 0.0948376 1.24548
[0] <pc:gamg> PCGAMGCreateLevel_GAMG(): (null): Force coarsest grid reduction to 1 active processes
[0] <pc:gamg> PCGAMGCreateLevel_GAMG(): (null): Number of equations (loc) 0 with simple aggregation
[0] <pc:gamg> PCSetUp_GAMG(): (null): 3) N=121, n data cols=1, nnz/row (ave)=117, 1 active pes
[0] <pc:gamg> PCSetUp_GAMG(): (null): 4 levels, operator complexity = 1.13093
[0] <pc:gamg> PCSetUp_GAMG(): (null): PCSetUp_GAMG: call KSPChebyshevSetEigenvalues on level 2 (N=3319) with emax = 1.24548 emin = 0.0948376
[0] <pc:gamg> PCSetUp_GAMG(): (null): PCSetUp_GAMG: call KSPChebyshevSetEigenvalues on level 1 (N=80919) with emax = 1.33599 emin = 0.0434205
[0] <pc:gamg> PCSetUp_GAMG(): (null): PCSetUp_GAMG: call KSPChebyshevSetEigenvalues on level 0 (N=2048383) with emax = 2.53921 emin = 0.0657367
[0] <pc:gamg> PCSetUp_MG(): Using outer operators to define finest grid operator 
  because PCMGGetSmoother(pc,nlevels-1,&ksp);KSPSetOperators(ksp,...); was not called.
    0 KSP Residual norm 1.745973035597e+01 
    1 KSP Residual norm 2.148543950814e+00 
    2 KSP Residual norm 1.189341146940e+00 
    3 KSP Residual norm 8.769490686807e-01 
    4 KSP Residual norm 6.156507031331e-01 
    5 KSP Residual norm 3.546306743044e-01 
    6 KSP Residual norm 1.834871440538e-01 
    7 KSP Residual norm 1.081318265072e-01 
    8 KSP Residual norm 6.612573950713e-02 
    9 KSP Residual norm 3.511857705738e-02 
   10 KSP Residual norm 1.932657207449e-02 
   11 KSP Residual norm 1.149186031083e-02 
   12 KSP Residual norm 7.009021504824e-03 
   13 KSP Residual norm 4.218153400784e-03 
   14 KSP Residual norm 2.391879157023e-03 
   15 KSP Residual norm 1.295410980151e-03 
   16 KSP Residual norm 7.355979472457e-04 
   17 KSP Residual norm 4.464390182905e-04 
   18 KSP Residual norm 2.937752378760e-04 
   19 KSP Residual norm 1.800852552362e-04 
   20 KSP Residual norm 1.002656096375e-04 
   21 KSP Residual norm 5.690156355632e-05 
   22 KSP Residual norm 3.279585433341e-05 
   23 KSP Residual norm 1.969955184387e-05 
   24 KSP Residual norm 1.160725216130e-05 
   25 KSP Residual norm 6.746993063574e-06 
   26 KSP Residual norm 3.785752113910e-06 
   27 KSP Residual norm 2.118228153553e-06 
   28 KSP Residual norm 1.208676161980e-06 
   29 KSP Residual norm 6.911757831195e-07 
   30 KSP Residual norm 4.062199687699e-07 
   31 KSP Residual norm 2.482922038618e-07 
   32 KSP Residual norm 1.525467456627e-07 
   33 KSP Residual norm 8.756450211099e-08 
   34 KSP Residual norm 4.685991338150e-08 
   35 KSP Residual norm 2.518529484382e-08 
   36 KSP Residual norm 1.418205375930e-08 
   37 KSP Residual norm 8.248427879882e-09 
   38 KSP Residual norm 4.797360720124e-09 
   39 KSP Residual norm 2.787096501368e-09 
   40 KSP Residual norm 1.620746099704e-09 
   41 KSP Residual norm 9.650411438443e-10 
   42 KSP Residual norm 5.689032471940e-10 
   43 KSP Residual norm 3.233693720182e-10 
   44 KSP Residual norm 1.779280164736e-10 
   45 KSP Residual norm 9.799569115886e-11 
   46 KSP Residual norm 5.350283080108e-11 
   47 KSP Residual norm 2.905388179590e-11 
   48 KSP Residual norm 1.598206134580e-11 
  Linear solve converged due to CONVERGED_RTOL iterations 48
SNES Object: 512 MPI processes
  type: ksponly
  maximum iterations=50, maximum function evaluations=10000
  tolerances: relative=1e-08, absolute=1e-50, solution=1e-08
  total number of linear solver iterations=48
  total number of function evaluations=1
  norm schedule ALWAYS
  Jacobian is never rebuilt
  KSP Object: 512 MPI processes
    type: cg
    maximum iterations=10000, initial guess is zero
    tolerances:  relative=1e-12, absolute=1e-50, divergence=10000.
    left preconditioning
    using UNPRECONDITIONED norm type for convergence test
  PC Object: 512 MPI processes
    type: gamg
      type is MULTIPLICATIVE, levels=4 cycles=v
        Cycles per PCApply=1
        Using externally compute Galerkin coarse grid matrices
        GAMG specific options
          Threshold for dropping small values in graph on each level =     0.04     0.01     0.0025     0.000625    
          Threshold scaling factor for each level not specified = 0.25
          AGG specific options
            Number of levels of aggressive coarsening 0
            Number smoothing steps 1
          Complexity:    grid = 1.04118    operator = 1.13093
    Coarse grid solver -- level 0 -------------------------------
      KSP Object: (mg_coarse_) 512 MPI processes
        type: preonly
        maximum iterations=10000, initial guess is zero
        tolerances:  relative=1e-05, absolute=1e-50, divergence=10000.
        left preconditioning
        using NONE norm type for convergence test
      PC Object: (mg_coarse_) 512 MPI processes
        type: bjacobi
          number of blocks = 512
          Local solver information for first block is in the following KSP and PC objects on rank 0:
          Use -mg_coarse_ksp_view ::ascii_info_detail to display information for all blocks
          KSP Object: (mg_coarse_sub_) 1 MPI process
            type: preonly
            maximum iterations=1, initial guess is zero
            tolerances:  relative=1e-05, absolute=1e-50, divergence=10000.
            left preconditioning
            using NONE norm type for convergence test
          PC Object: (mg_coarse_sub_) 1 MPI process
            type: lu
              out-of-place factorization
              tolerance for zero pivot 2.22045e-14
              using diagonal shift on blocks to prevent zero pivot [INBLOCKS]
              matrix ordering: nd
              factor fill ratio given 5., needed 1.02648
                Factored matrix follows:
                  Mat Object: (mg_coarse_sub_) 1 MPI process
                    type: seqaijkokkos
                    rows=121, cols=121
                    package used to perform factorization: kokkos
                    total: nonzeros=14575, allocated nonzeros=14575
                      using I-node routines: found 30 nodes, limit used is 5
            linear system matrix = precond matrix:
            Mat Object: (mg_coarse_sub_) 1 MPI process
              type: seqaijkokkos
              rows=121, cols=121
              total: nonzeros=14199, allocated nonzeros=14199
              total number of mallocs used during MatSetValues calls=0
                using I-node routines: found 72 nodes, limit used is 5
        linear system matrix = precond matrix:
        Mat Object: 512 MPI processes
          type: mpiaijkokkos
          rows=121, cols=121
          total: nonzeros=14199, allocated nonzeros=14199
          total number of mallocs used during MatSetValues calls=0
            using I-node (on process 0) routines: found 72 nodes, limit used is 5
    Down solver (pre-smoother) on level 1 -------------------------------
      KSP Object: (mg_levels_1_) 512 MPI processes
        type: chebyshev
          Chebyshev polynomial of first kind
          eigenvalue targets used: min 0.249096, max 1.30775
          eigenvalues provided (min 0.0948376, max 1.24548) with transform: [0. 0.2; 0. 1.05]
        maximum iterations=2, nonzero initial guess
        tolerances:  relative=1e-05, absolute=1e-50, divergence=10000.
        left preconditioning
        using NONE norm type for convergence test
      PC Object: (mg_levels_1_) 512 MPI processes
        type: jacobi
          type DIAGONAL
        linear system matrix = precond matrix:
        Mat Object: 512 MPI processes
          type: mpiaijkokkos
          rows=3319, cols=3319
          total: nonzeros=1195975, allocated nonzeros=1195975
          total number of mallocs used during MatSetValues calls=0
            not using I-node (on process 0) routines
    Up solver (post-smoother) same as down solver (pre-smoother)
    Down solver (pre-smoother) on level 2 -------------------------------
      KSP Object: (mg_levels_2_) 512 MPI processes
        type: chebyshev
          Chebyshev polynomial of first kind
          eigenvalue targets used: min 0.267198, max 1.40279
          eigenvalues provided (min 0.0434205, max 1.33599) with transform: [0. 0.2; 0. 1.05]
        maximum iterations=2, nonzero initial guess
        tolerances:  relative=1e-05, absolute=1e-50, divergence=10000.
        left preconditioning
        using NONE norm type for convergence test
      PC Object: (mg_levels_2_) 512 MPI processes
        type: jacobi
          type DIAGONAL
        linear system matrix = precond matrix:
        Mat Object: 512 MPI processes
          type: mpiaijkokkos
          rows=80919, cols=80919
          total: nonzeros=15452087, allocated nonzeros=15452087
          total number of mallocs used during MatSetValues calls=0
            not using I-node (on process 0) routines
    Up solver (post-smoother) same as down solver (pre-smoother)
    Down solver (pre-smoother) on level 3 -------------------------------
      KSP Object: (mg_levels_3_) 512 MPI processes
        type: chebyshev
          Chebyshev polynomial of first kind
          eigenvalue targets used: min 0.507842, max 2.66617
          eigenvalues provided (min 0.0657367, max 2.53921) with transform: [0. 0.2; 0. 1.05]
        maximum iterations=2, nonzero initial guess
        tolerances:  relative=1e-05, absolute=1e-50, divergence=10000.
        left preconditioning
        using NONE norm type for convergence test
      PC Object: (mg_levels_3_) 512 MPI processes
        type: jacobi
          type DIAGONAL
        linear system matrix = precond matrix:
        Mat Object: 512 MPI processes
          type: mpiaijkokkos
          rows=2048383, cols=2048383
          total: nonzeros=127263527, allocated nonzeros=127263527
          total number of mallocs used during MatSetValues calls=0
            not using I-node (on process 0) routines
    Up solver (post-smoother) same as down solver (pre-smoother)
    linear system matrix = precond matrix:
    Mat Object: 512 MPI processes
      type: mpiaijkokkos
      rows=2048383, cols=2048383
      total: nonzeros=127263527, allocated nonzeros=127263527
      total number of mallocs used during MatSetValues calls=0
        not using I-node (on process 0) routines
    0 KSP Residual norm 1.745973035597e+01 
    1 KSP Residual norm 2.148555379891e+00 
    2 KSP Residual norm 1.189310858072e+00 
    3 KSP Residual norm 8.769785319292e-01 
    4 KSP Residual norm 6.156577077453e-01 
    5 KSP Residual norm 3.546207897242e-01 
    6 KSP Residual norm 1.834926331259e-01 
    7 KSP Residual norm 1.081316150329e-01 
    8 KSP Residual norm 6.612366494954e-02 
    9 KSP Residual norm 3.512066846400e-02 
   10 KSP Residual norm 1.932768822753e-02 
   11 KSP Residual norm 1.149301410346e-02 
   12 KSP Residual norm 7.010050087640e-03 
   13 KSP Residual norm 4.218562430061e-03 
   14 KSP Residual norm 2.392148220379e-03 
   15 KSP Residual norm 1.295629097899e-03 
   16 KSP Residual norm 7.357078991184e-04 
   17 KSP Residual norm 4.465112170095e-04 
   18 KSP Residual norm 2.938372977534e-04 
   19 KSP Residual norm 1.801092053777e-04 
   20 KSP Residual norm 1.002825031498e-04 
   21 KSP Residual norm 5.691432081866e-05 
   22 KSP Residual norm 3.280337914615e-05 
   23 KSP Residual norm 1.970435117742e-05 
   24 KSP Residual norm 1.161023735351e-05 
   25 KSP Residual norm 6.749037926384e-06 
   26 KSP Residual norm 3.786908548898e-06 
   27 KSP Residual norm 2.118965986969e-06 
   28 KSP Residual norm 1.209195189188e-06 
   29 KSP Residual norm 6.914854757776e-07 
   30 KSP Residual norm 4.064605450962e-07 
   31 KSP Residual norm 2.484378254495e-07 
   32 KSP Residual norm 1.526358816307e-07 
   33 KSP Residual norm 8.761439089942e-08 
   34 KSP Residual norm 4.688969955947e-08 
   35 KSP Residual norm 2.520239159033e-08 
   36 KSP Residual norm 1.419279691951e-08 
   37 KSP Residual norm 8.255830605262e-09 
   38 KSP Residual norm 4.801692787024e-09 
   39 KSP Residual norm 2.789565058537e-09 
   40 KSP Residual norm 1.622310603497e-09 
   41 KSP Residual norm 9.660771117883e-10 
   42 KSP Residual norm 5.695078150417e-10 
   43 KSP Residual norm 3.237271835275e-10 
   44 KSP Residual norm 1.781135991946e-10 
   45 KSP Residual norm 9.809841466397e-11 
   46 KSP Residual norm 5.355588002434e-11 
   47 KSP Residual norm 2.907926397904e-11 
   48 KSP Residual norm 1.599217451106e-11 
  Linear solve converged due to CONVERGED_RTOL iterations 48
SNES Object: 512 MPI processes
  type: ksponly
  maximum iterations=50, maximum function evaluations=10000
  tolerances: relative=1e-08, absolute=1e-50, solution=1e-08
  total number of linear solver iterations=48
  total number of function evaluations=1
  norm schedule ALWAYS
  Jacobian is never rebuilt
  KSP Object: 512 MPI processes
    type: cg
    maximum iterations=10000, initial guess is zero
    tolerances:  relative=1e-12, absolute=1e-50, divergence=10000.
    left preconditioning
    using UNPRECONDITIONED norm type for convergence test
  PC Object: 512 MPI processes
    type: gamg
      type is MULTIPLICATIVE, levels=4 cycles=v
        Cycles per PCApply=1
        Using externally compute Galerkin coarse grid matrices
        GAMG specific options
          Threshold for dropping small values in graph on each level =     0.04     0.01     0.0025     0.000625    
          Threshold scaling factor for each level not specified = 0.25
          AGG specific options
            Number of levels of aggressive coarsening 0
            Number smoothing steps 1
          Complexity:    grid = 1.04118    operator = 1.13093
    Coarse grid solver -- level 0 -------------------------------
      KSP Object: (mg_coarse_) 512 MPI processes
        type: preonly
        maximum iterations=10000, initial guess is zero
        tolerances:  relative=1e-05, absolute=1e-50, divergence=10000.
        left preconditioning
        using NONE norm type for convergence test
      PC Object: (mg_coarse_) 512 MPI processes
        type: bjacobi
          number of blocks = 512
          Local solver information for first block is in the following KSP and PC objects on rank 0:
          Use -mg_coarse_ksp_view ::ascii_info_detail to display information for all blocks
          KSP Object: (mg_coarse_sub_) 1 MPI process
            type: preonly
            maximum iterations=1, initial guess is zero
            tolerances:  relative=1e-05, absolute=1e-50, divergence=10000.
            left preconditioning
            using NONE norm type for convergence test
          PC Object: (mg_coarse_sub_) 1 MPI process
            type: lu
              out-of-place factorization
              tolerance for zero pivot 2.22045e-14
              using diagonal shift on blocks to prevent zero pivot [INBLOCKS]
              matrix ordering: nd
              factor fill ratio given 5., needed 1.02648
                Factored matrix follows:
                  Mat Object: (mg_coarse_sub_) 1 MPI process
                    type: seqaijkokkos
                    rows=121, cols=121
                    package used to perform factorization: kokkos
                    total: nonzeros=14575, allocated nonzeros=14575
                      using I-node routines: found 30 nodes, limit used is 5
            linear system matrix = precond matrix:
            Mat Object: (mg_coarse_sub_) 1 MPI process
              type: seqaijkokkos
              rows=121, cols=121
              total: nonzeros=14199, allocated nonzeros=14199
              total number of mallocs used during MatSetValues calls=0
                using I-node routines: found 72 nodes, limit used is 5
        linear system matrix = precond matrix:
        Mat Object: 512 MPI processes
          type: mpiaijkokkos
          rows=121, cols=121
          total: nonzeros=14199, allocated nonzeros=14199
          total number of mallocs used during MatSetValues calls=0
            using I-node (on process 0) routines: found 72 nodes, limit used is 5
    Down solver (pre-smoother) on level 1 -------------------------------
      KSP Object: (mg_levels_1_) 512 MPI processes
        type: chebyshev
          Chebyshev polynomial of first kind
          eigenvalue targets used: min 0.249096, max 1.30775
          eigenvalues provided (min 0.0948376, max 1.24548) with transform: [0. 0.2; 0. 1.05]
        maximum iterations=2, nonzero initial guess
        tolerances:  relative=1e-05, absolute=1e-50, divergence=10000.
        left preconditioning
        using NONE norm type for convergence test
      PC Object: (mg_levels_1_) 512 MPI processes
        type: jacobi
          type DIAGONAL
        linear system matrix = precond matrix:
        Mat Object: 512 MPI processes
          type: mpiaijkokkos
          rows=3319, cols=3319
          total: nonzeros=1195975, allocated nonzeros=1195975
          total number of mallocs used during MatSetValues calls=0
            not using I-node (on process 0) routines
    Up solver (post-smoother) same as down solver (pre-smoother)
    Down solver (pre-smoother) on level 2 -------------------------------
      KSP Object: (mg_levels_2_) 512 MPI processes
        type: chebyshev
          Chebyshev polynomial of first kind
          eigenvalue targets used: min 0.267198, max 1.40279
          eigenvalues provided (min 0.0434205, max 1.33599) with transform: [0. 0.2; 0. 1.05]
        maximum iterations=2, nonzero initial guess
        tolerances:  relative=1e-05, absolute=1e-50, divergence=10000.
        left preconditioning
        using NONE norm type for convergence test
      PC Object: (mg_levels_2_) 512 MPI processes
        type: jacobi
          type DIAGONAL
        linear system matrix = precond matrix:
        Mat Object: 512 MPI processes
          type: mpiaijkokkos
          rows=80919, cols=80919
          total: nonzeros=15452087, allocated nonzeros=15452087
          total number of mallocs used during MatSetValues calls=0
            not using I-node (on process 0) routines
    Up solver (post-smoother) same as down solver (pre-smoother)
    Down solver (pre-smoother) on level 3 -------------------------------
      KSP Object: (mg_levels_3_) 512 MPI processes
        type: chebyshev
          Chebyshev polynomial of first kind
          eigenvalue targets used: min 0.507842, max 2.66617
          eigenvalues provided (min 0.0657367, max 2.53921) with transform: [0. 0.2; 0. 1.05]
        maximum iterations=2, nonzero initial guess
        tolerances:  relative=1e-05, absolute=1e-50, divergence=10000.
        left preconditioning
        using NONE norm type for convergence test
      PC Object: (mg_levels_3_) 512 MPI processes
        type: jacobi
          type DIAGONAL
        linear system matrix = precond matrix:
        Mat Object: 512 MPI processes
          type: mpiaijkokkos
          rows=2048383, cols=2048383
          total: nonzeros=127263527, allocated nonzeros=127263527
          total number of mallocs used during MatSetValues calls=0
            not using I-node (on process 0) routines
    Up solver (post-smoother) same as down solver (pre-smoother)
    linear system matrix = precond matrix:
    Mat Object: 512 MPI processes
      type: mpiaijkokkos
      rows=2048383, cols=2048383
      total: nonzeros=127263527, allocated nonzeros=127263527
      total number of mallocs used during MatSetValues calls=0
        not using I-node (on process 0) routines
****************************************************************************************************************************************************************
***                                WIDEN YOUR WINDOW TO 160 CHARACTERS.  Use 'enscript -r -fCourier9' to print this document                                 ***
****************************************************************************************************************************************************************

------------------------------------------------------------------ PETSc Performance Summary: ------------------------------------------------------------------

/lustre/orion/csc314/scratch/adams/petsc/src/snes/tests/data/../ex13 on a arch-olcf-crusher-kok named frontier00488 with 512 processors, by adams Thu Feb  8 18:23:15 2024
Using Petsc Development GIT revision: v3.20.4-590-g26f22146603  GIT Date: 2024-02-07 12:58:08 -0500

                         Max       Max/Min     Avg       Total
Time (sec):           1.012e+01     1.000   1.012e+01
Objects:              0.000e+00     0.000   0.000e+00
Flops:                4.426e+08     1.702   3.280e+08  1.679e+11
Flops/sec:            4.374e+07     1.702   3.241e+07  1.660e+10
MPI Msg Count:        1.089e+05     4.488   5.566e+04  2.850e+07
MPI Msg Len (bytes):  5.789e+07     2.687   7.332e+02  2.090e+10
MPI Reductions:       6.917e+03     1.000

Flop counting convention: 1 flop = 1 real number operation of type (multiply/divide/add/subtract)
                            e.g., VecAXPY() for real vectors of length N --> 2N flops
                            and VecAXPY() for complex vectors of length N --> 8N flops

Summary of Stages:   ----- Time ------  ----- Flop ------  --- Messages ---  -- Message Lengths --  -- Reductions --
                        Avg     %Total     Avg     %Total    Count   %Total     Avg         %Total    Count   %Total
 0:      Main Stage: 9.8112e+00  97.0%  8.9217e+10  53.1%  2.318e+07  81.3%  7.648e+02       84.8%  6.693e+03  96.8%
 1:      Solve only: 3.0716e-01   3.0%  7.8713e+10  46.9%  5.322e+06  18.7%  5.953e+02       15.2%  2.040e+02   2.9%

------------------------------------------------------------------------------------------------------------------------
See the 'Profiling' chapter of the users' manual for details on interpreting output.
Phase summary info:
   Count: number of times phase was executed
   Time and Flop: Max - maximum over all processors
                  Ratio - ratio of maximum to minimum over all processors
   Mess: number of messages sent
   AvgLen: average message length (bytes)
   Reduct: number of global reductions
   Global: entire computation
   Stage: stages of a computation. Set stages with PetscLogStagePush() and PetscLogStagePop().
      %T - percent time in this phase         %F - percent flop in this phase
      %M - percent messages in this phase     %L - percent message lengths in this phase
      %R - percent reductions in this phase
   Total Mflop/s: 10e-6 * (sum of flop over all processors)/(max time over all processors)
   GPU Mflop/s: 10e-6 * (sum of flop on GPU over all processors)/(max GPU time over all processors)
   CpuToGpu Count: total number of CPU to GPU copies per processor
   CpuToGpu Size (Mbytes): 10e-6 * (total size of CPU to GPU copies per processor)
   GpuToCpu Count: total number of GPU to CPU copies per processor
   GpuToCpu Size (Mbytes): 10e-6 * (total size of GPU to CPU copies per processor)
   GPU %F: percent flops on GPU in this event
------------------------------------------------------------------------------------------------------------------------
Event                Count      Time (sec)     Flop                              --- Global ---  --- Stage ----  Total   GPU    - CpuToGpu -   - GpuToCpu - GPU
                   Max Ratio  Max     Ratio   Max  Ratio  Mess   AvgLen  Reduct  %T %F %M %L %R  %T %F %M %L %R Mflop/s Mflop/s Count   Size   Count   Size  %F
---------------------------------------------------------------------------------------------------------------------------------------------------------------

--- Event Stage 0: Main Stage

BuildTwoSided       2072 1.0 1.8493e+00 4.2 0.00e+00 0.0 2.8e+06 8.0e+00 2.1e+03  9  0 10  0 30  10  0 12  0 31     0       0      0 0.00e+00    0 0.00e+00  0
BuildTwoSidedF       438 1.0 2.0705e-01 2.8 0.00e+00 0.0 7.3e+04 6.6e+03 4.4e+02  2  0  0  2  6   2  0  0  3  7     0       0      0 0.00e+00    0 0.00e+00  0
MatMult              992 1.5 3.8943e-01 4.4 1.93e+08 1.8 4.6e+06 6.9e+02 0.0e+00  2 42 16 15  0   2 79 20 18  0 180670       0      2 2.64e-02    0 0.00e+00  100
MatMultAdd           144 1.0 4.1757e-02 2.1 5.47e+06 1.7 4.5e+05 1.2e+02 0.0e+00  0  1  2  0  0   0  2  2  0  0 52234       0      0 0.00e+00    0 0.00e+00  100
MatMultTranspose     144 1.0 2.2105e-01 20.4 5.67e+06 1.8 4.5e+05 1.2e+02 0.0e+00  1  1  2  0  0   1  2  2  0  0  9897       0      1 2.14e-03    0 0.00e+00  100
MatSolve              48 0.0 1.4646e-03 0.0 1.39e+06 0.0 0.0e+00 0.0e+00 0.0e+00  0  0  0  0  0   0  0  0  0  0   951       0      0 0.00e+00    0 0.00e+00  0
MatLUFactorSym         1 1.0 4.3737e-04 33.8 0.00e+00 0.0 0.0e+00 0.0e+00 0.0e+00  0  0  0  0  0   0  0  0  0  0     0       0      0 0.00e+00    0 0.00e+00  0
MatLUFactorNum         1 1.0 7.8806e-04 152.4 1.16e+06 0.0 0.0e+00 0.0e+00 0.0e+00  0  0  0  0  0   0  0  0  0  0  1471       0      0 0.00e+00    0 0.00e+00  0
MatConvert            12 1.0 1.3542e+00 16.9 0.00e+00 0.0 1.5e+05 3.3e+02 3.9e+01  3  0  1  0  1   3  0  1  0  1     0       0      0 0.00e+00    0 0.00e+00  0
MatScale              24 1.0 2.3152e+00 2.8 1.15e+06 1.9 9.9e+04 3.0e+02 0.0e+00 20  0  0  0  0  21  0  0  0  0   181       0      2 2.64e-02    0 0.00e+00  80
MatResidual          144 1.0 2.3187e-01 11.7 4.03e+07 1.9 9.8e+05 6.6e+02 0.0e+00  1  8  3  3  0   1 16  4  4  0 60466       0      0 0.00e+00    0 0.00e+00  100
MatAssemblyBegin    4896 1.0 1.2619e-01 4.5 0.00e+00 0.0 7.3e+04 6.6e+03 4.8e+01  1  0  0  2  1   1  0  0  3  1     0       0      0 0.00e+00    0 0.00e+00  0
MatAssemblyEnd      4896 1.0 3.6234e-01 3.0 4.28e+04 0.0 5.0e+05 1.1e+02 2.7e+02  3  0  2  0  4   3  0  2  0  4    49       0      0 0.00e+00    0 0.00e+00  0
MatGetRowIJ            1 0.0 3.6649e-05 0.0 0.00e+00 0.0 0.0e+00 0.0e+00 0.0e+00  0  0  0  0  0   0  0  0  0  0     0       0      0 0.00e+00    0 0.00e+00  0
MatCreateSubMat        4 1.0 3.1106e-02 1.0 0.00e+00 0.0 6.6e+03 3.0e+03 6.0e+01  0  0  0  0  1   0  0  0  0  1     0       0      0 0.00e+00    0 0.00e+00  0
MatGetOrdering         1 0.0 1.0059e-04 0.0 0.00e+00 0.0 0.0e+00 0.0e+00 0.0e+00  0  0  0  0  0   0  0  0  0  0     0       0      0 0.00e+00    0 0.00e+00  0
MatCoarsen             3 1.0 7.6052e-01 1.0 8.93e+05 1.7 3.7e+06 2.1e+02 9.0e+02  7  0 13  4 13   8  0 16  4 13   495       0      0 0.00e+00    0 0.00e+00  0
MatZeroEntries        16 1.0 4.1495e-04 2.7 0.00e+00 0.0 0.0e+00 0.0e+00 0.0e+00  0  0  0  0  0   0  0  0  0  0     0       0      0 0.00e+00    0 0.00e+00  0
MatView                7 1.4 1.5541e-02 15.9 0.00e+00 0.0 0.0e+00 0.0e+00 5.0e+00  0  0  0  0  0   0  0  0  0  0     0       0      0 0.00e+00    0 0.00e+00  0
MatAXPY                3 1.0 1.0188e-01 13.1 4.61e+03 1.3 0.0e+00 0.0e+00 3.0e+00  1  0  0  0  0   1  0  0  0  0    21       0      0 0.00e+00    0 0.00e+00  0
MatTranspose          30 1.0 1.2136e-03 1.4 0.00e+00 0.0 0.0e+00 0.0e+00 0.0e+00  0  0  0  0  0   0  0  0  0  0     0       0      0 0.00e+00    0 0.00e+00  0
MatMatMultSym         33 1.0 5.9470e-01 1.0 0.00e+00 0.0 1.6e+05 3.4e+02 2.4e+01  6  0  1  0  0   6  0  1  0  0     0       0      0 0.00e+00    0 0.00e+00  0
MatMatMultNum         23 1.0 5.2585e-03 1.5 5.72e+04 11.9 0.0e+00 0.0e+00 0.0e+00  0  0  0  0  0   0  0  0  0  0  1139       0      0 0.00e+00    0 0.00e+00  0
MatPtAPSymbolic       18 1.0 2.8278e-01 1.0 0.00e+00 0.0 7.2e+05 1.7e+03 1.5e+02  3  0  3  6  2   3  0  3  7  2     0       0      0 0.00e+00    0 0.00e+00  0
MatPtAPNumeric        18 1.0 3.6960e-02 1.1 6.91e+05 1.6 1.9e+05 5.3e+02 9.0e+01  0  0  1  0  1   0  0  1  1  1  7875       0      0 0.00e+00    0 0.00e+00  0
MatGetLocalMat        15 1.0 1.0597e-03 1.6 0.00e+00 0.0 0.0e+00 0.0e+00 0.0e+00  0  0  0  0  0   0  0  0  0  0     0       0      0 0.00e+00    0 0.00e+00  0
MatGetBrAoCol         15 1.0 7.0326e-03 2.9 0.00e+00 0.0 2.3e+05 3.1e+02 0.0e+00  0  0  1  0  0   0  0  1  0  0     0       0      0 0.00e+00    0 0.00e+00  0
MatSetPreallCOO       20 1.0 2.0260e-04 3.6 0.00e+00 0.0 0.0e+00 0.0e+00 0.0e+00  0  0  0  0  0   0  0  0  0  0     0       0      0 0.00e+00    0 0.00e+00  0
MatSetValuesCOO       20 1.0 2.9483e-05 1.2 0.00e+00 0.0 0.0e+00 0.0e+00 0.0e+00  0  0  0  0  0   0  0  0  0  0     0       0      0 0.00e+00    0 0.00e+00  0
KSPSetUp               9 1.0 9.9271e-04 2.9 0.00e+00 0.0 0.0e+00 0.0e+00 0.0e+00  0  0  0  0  0   0  0  0  0  0     0       0      0 0.00e+00    0 0.00e+00  0
KSPSolve               1 1.0 1.1871e+00 1.0 2.04e+08 1.8 5.3e+06 6.0e+02 2.0e+02 12 45 19 15  3  12 85 23 18  3 63770       0      1 2.14e-03    0 0.00e+00  100
SNESSolve              1 1.0 7.1871e+00 1.0 2.33e+08 1.7 1.0e+07 5.7e+02 1.4e+03 71 53 35 27 20  73 100 43 32 21 12377       0      8 9.82e-02    0 0.00e+00  89
SNESSetUp              1 1.0 1.3785e-01 1.0 0.00e+00 0.0 7.5e+04 1.6e+04 2.2e+01  1  0  0  6  0   1  0  0  7  0     0       0      0 0.00e+00    0 0.00e+00  0
SNESFunctionEval       1 1.0 6.0038e-01 1.6 6.74e+06 1.0 1.1e+04 7.5e+02 3.0e+00  5  2  0  0  0   5  4  0  0  0  5602       0      3 4.32e-02    0 0.00e+00  0
SNESJacobianEval       1 1.0 4.7794e-01 2.0 1.20e+07 1.0 8.6e+03 4.5e+04 2.0e+00  4  4  0  2  0   4  7  0  2  0 12665       0      0 0.00e+00    0 0.00e+00  0
DMRefine               3 1.0 1.3027e-02 1.1 0.00e+00 0.0 7.2e+04 1.6e+02 3.8e+01  0  0  0  0  1   0  0  0  0  1     0       0      0 0.00e+00    0 0.00e+00  0
DMCreateMat            1 1.0 1.3472e-01 1.0 0.00e+00 0.0 7.5e+04 1.6e+04 1.9e+01  1  0  0  6  0   1  0  0  7  0     0       0      0 0.00e+00    0 0.00e+00  0
DMPlexCrFromOpts       1 1.0 9.4205e-03 2.4 0.00e+00 0.0 0.0e+00 0.0e+00 1.0e+00  0  0  0  0  0   0  0  0  0  0     0       0      0 0.00e+00    0 0.00e+00  0
Mesh Partition         1 1.0 1.6001e-02 1.3 0.00e+00 0.0 2.6e+03 2.2e+02 8.0e+00  0  0  0  0  0   0  0  0  0  0     0       0      0 0.00e+00    0 0.00e+00  0
Mesh Migration         1 1.0 1.8027e+00 1.0 0.00e+00 0.0 1.4e+04 1.7e+02 3.2e+01 18  0  0  0  0  18  0  0  0  0     0       0      0 0.00e+00    0 0.00e+00  0
DMPlexPartSelf         1 1.0 4.3138e-03 466.0 0.00e+00 0.0 0.0e+00 0.0e+00 0.0e+00  0  0  0  0  0   0  0  0  0  0     0       0      0 0.00e+00    0 0.00e+00  0
DMPlexPartLblInv       1 1.0 6.6577e-03 2.8 0.00e+00 0.0 0.0e+00 0.0e+00 3.0e+00  0  0  0  0  0   0  0  0  0  0     0       0      0 0.00e+00    0 0.00e+00  0
DMPlexPartLblSF        1 1.0 2.2834e-03 6.8 0.00e+00 0.0 1.0e+03 1.1e+02 1.0e+00  0  0  0  0  0   0  0  0  0  0     0       0      0 0.00e+00    0 0.00e+00  0
DMPlexPartStrtSF       1 1.0 1.9820e-03 2.7 0.00e+00 0.0 5.1e+02 4.3e+02 0.0e+00  0  0  0  0  0   0  0  0  0  0     0       0      0 0.00e+00    0 0.00e+00  0
DMPlexPointSF          1 1.0 1.4260e-02 1.1 0.00e+00 0.0 1.0e+03 5.4e+02 0.0e+00  0  0  0  0  0   0  0  0  0  0     0       0      0 0.00e+00    0 0.00e+00  0
DMPlexInterp          30 1.0 2.3113e-03 2.3 0.00e+00 0.0 0.0e+00 0.0e+00 0.0e+00  0  0  0  0  0   0  0  0  0  0     0       0      0 0.00e+00    0 0.00e+00  0
DMPlexDistribute       1 1.0 1.8345e+00 1.0 0.00e+00 0.0 1.7e+04 2.0e+02 4.3e+01 18  0  0  0  1  19  0  0  0  1     0       0      0 0.00e+00    0 0.00e+00  0
DMPlexDistCones        1 1.0 5.4884e-03 1.1 0.00e+00 0.0 3.1e+03 2.9e+02 2.0e+00  0  0  0  0  0   0  0  0  0  0     0       0      0 0.00e+00    0 0.00e+00  0
DMPlexDistLabels       1 1.0 9.7493e-03 1.0 0.00e+00 0.0 6.4e+03 1.5e+02 2.4e+01  0  0  0  0  0   0  0  0  0  0     0       0      0 0.00e+00    0 0.00e+00  0
DMPlexDistField        1 1.0 1.7851e+00 1.0 0.00e+00 0.0 3.6e+03 8.7e+01 2.0e+00 18  0  0  0  0  18  0  0  0  0     0       0      0 0.00e+00    0 0.00e+00  0
DMPlexStratify        48 1.0 8.8442e-03 2.9 0.00e+00 0.0 0.0e+00 0.0e+00 5.0e+00  0  0  0  0  0   0  0  0  0  0     0       0      0 0.00e+00    0 0.00e+00  0
DMPlexSymmetrize      48 1.0 4.7072e-04 2.0 0.00e+00 0.0 0.0e+00 0.0e+00 0.0e+00  0  0  0  0  0   0  0  0  0  0     0       0      0 0.00e+00    0 0.00e+00  0
DMPlexPrealloc         1 1.0 1.3331e-01 1.0 0.00e+00 0.0 7.5e+04 1.6e+04 1.7e+01  1  0  0  6  0   1  0  0  7  0     0       0      0 0.00e+00    0 0.00e+00  0
DMPlexResidualFE       1 1.0 2.6133e-02 1.7 6.50e+06 1.0 0.0e+00 0.0e+00 0.0e+00  0  2  0  0  0   0  4  0  0  0 127293       0      0 0.00e+00    0 0.00e+00  0
DMPlexJacobianFE       1 1.0 4.7158e-01 2.0 1.18e+07 1.0 5.7e+03 6.7e+04 2.0e+00  3  4  0  2  0   3  7  0  2  0 12759       0      0 0.00e+00    0 0.00e+00  0
DMPlexGenerate         1 1.0 9.3692e-03 2.7 0.00e+00 0.0 0.0e+00 0.0e+00 1.0e+00  0  0  0  0  0   0  0  0  0  0     0       0      0 0.00e+00    0 0.00e+00  0
DMPlexTransform        3 1.0 1.0955e-02 1.2 0.00e+00 0.0 7.2e+04 1.6e+02 2.0e+01  0  0  0  0  0   0  0  0  0  0     0       0      0 0.00e+00    0 0.00e+00  0
SFSetGraph          1641 1.0 1.7896e-03 1.8 0.00e+00 0.0 0.0e+00 0.0e+00 0.0e+00  0  0  0  0  0   0  0  0  0  0     0       0      0 0.00e+00    0 0.00e+00  0
SFSetUp             1634 1.0 1.7319e+00 4.0 0.00e+00 0.0 5.6e+06 4.5e+02 1.6e+03  8  0 20 12 24   9  0 24 14 24     0       0      0 0.00e+00    0 0.00e+00  0
SFBcastBegin        3141 1.0 6.1177e-01 1.8 0.00e+00 0.0 7.0e+06 9.7e+02 0.0e+00  4  0 24 32  0   4  0 30 38  0     0       0      2 3.76e-02    0 0.00e+00  0
SFBcastEnd          3141 1.0 4.9313e-01 10.6 0.00e+00 0.0 0.0e+00 0.0e+00 0.0e+00  2  0  0  0  0   2  0  0  0  0     0       0      1 5.59e-03    0 0.00e+00  0
SFReduceBegin        530 1.0 2.9657e-02 7.5 0.00e+00 0.0 1.5e+06 2.4e+03 0.0e+00  0  0  5 18  0   0  0  7 21  0     0       0      0 0.00e+00    0 0.00e+00  0
SFReduceEnd          530 1.0 2.4144e-01 41.0 8.17e+02 0.0 0.0e+00 0.0e+00 0.0e+00  1  0  0  0  0   1  0  0  0  0     1       0      0 0.00e+00    0 0.00e+00  100
SFFetchOpBegin         2 1.0 4.7268e-04 103.5 0.00e+00 0.0 5.7e+03 2.3e+04 0.0e+00  0  0  0  1  0   0  0  0  1  0     0       0      0 0.00e+00    0 0.00e+00  0
SFFetchOpEnd           2 1.0 3.8429e-03 4.0 0.00e+00 0.0 5.7e+03 2.3e+04 0.0e+00  0  0  0  1  0   0  0  0  1  0     0       0      0 0.00e+00    0 0.00e+00  0
SFCreateEmbed          6 1.0 6.6161e-03 7.9 0.00e+00 0.0 1.5e+04 6.0e+01 0.0e+00  0  0  0  0  0   0  0  0  0  0     0       0      0 0.00e+00    0 0.00e+00  0
SFDistSection       1031 1.0 2.2879e-01 1.4 0.00e+00 0.0 8.8e+06 8.6e+02 1.5e+03  2  0 31 36 22   2  0 38 43 23     0       0      0 0.00e+00    0 0.00e+00  0
SFSectionSF         1036 1.0 5.9388e-01 4.5 0.00e+00 0.0 1.8e+06 1.3e+02 1.0e+03  5  0  6  1 15   5  0  8  1 15     0       0      0 0.00e+00    0 0.00e+00  0
SFRemoteOff            5 1.0 6.7299e-03 5.1 0.00e+00 0.0 4.0e+04 2.2e+02 2.0e+00  0  0  0  0  0   0  0  0  0  0     0       0      0 0.00e+00    0 0.00e+00  0
SFPack              5022 1.0 5.8278e-01 66.5 0.00e+00 0.0 0.0e+00 0.0e+00 0.0e+00  3  0  0  0  0   4  0  0  0  0     0       0      5 5.85e-02    0 0.00e+00  0
SFUnpack            5024 1.0 1.3796e-02 9.3 1.98e+05 84.7 0.0e+00 0.0e+00 0.0e+00  0  0  0  0  0   0  0  0  0  0   503       0      2 7.73e-03    0 0.00e+00  100
VecTDot              167 1.0 2.4512e-01 5.4 1.01e+06 1.2 0.0e+00 0.0e+00 1.7e+02  2  0  0  0  2   2  1  0  0  2  2038       0      0 0.00e+00    0 0.00e+00  100
VecNorm               49 1.0 4.4186e-01 2.6 4.01e+05 1.2 0.0e+00 0.0e+00 4.9e+01  4  0  0  0  1   4  0  0  0  1   454       0      0 0.00e+00    0 0.00e+00  100
VecCopy              441 1.0 3.1959e-01 11.6 0.00e+00 0.0 0.0e+00 0.0e+00 0.0e+00  0  0  0  0  0   0  0  0  0  0     0       0      0 0.00e+00    0 0.00e+00  0
VecSet               194 1.0 1.2481e-02 2.8 0.00e+00 0.0 0.0e+00 0.0e+00 0.0e+00  0  0  0  0  0   0  0  0  0  0     0       0      0 0.00e+00    0 0.00e+00  0
VecAXPY              157 1.0 4.7368e-01 1.7 9.79e+05 1.2 0.0e+00 0.0e+00 0.0e+00  3  0  0  0  0   3  1  0  0  0  1019       0      0 0.00e+00    0 0.00e+00  100
VecAYPX              938 1.0 5.4334e-03 2.2 3.12e+06 1.3 0.0e+00 0.0e+00 0.0e+00  0  1  0  0  0   0  2  0  0  0 268585       0      0 0.00e+00    0 0.00e+00  100
VecAXPBYCZ           288 1.0 4.8718e-01 4.3 2.21e+06 1.3 0.0e+00 0.0e+00 0.0e+00  3  1  0  0  0   3  1  0  0  0  2101       0      0 0.00e+00    0 0.00e+00  100
VecAssemblyBegin     389 1.0 8.8007e-02 1.8 0.00e+00 0.0 0.0e+00 0.0e+00 3.9e+02  1  0  0  0  6   1  0  0  0  6     0       0      0 0.00e+00    0 0.00e+00  0
VecAssemblyEnd       389 1.0 3.0902e-04 1.5 0.00e+00 0.0 0.0e+00 0.0e+00 0.0e+00  0  0  0  0  0   0  0  0  0  0     0       0      0 0.00e+00    0 0.00e+00  0
VecPointwiseMult     609 1.0 3.5283e-03 2.3 9.35e+05 1.3 0.0e+00 0.0e+00 0.0e+00  0  0  0  0  0   0  0  0  0  0 122702       0      0 0.00e+00    0 0.00e+00  100
VecScatterBegin     1349 1.0 1.9791e+00 44.5 0.00e+00 0.0 7.5e+06 5.1e+02 0.0e+00  9  0 26 18  0  10  0 32 22  0     0       0      4 5.29e-02    0 0.00e+00  0
VecScatterEnd       1349 1.0 2.1202e+00 14.6 1.97e+05 93.3 0.0e+00 0.0e+00 0.0e+00 11  0  0  0  0  11  0  0  0  0     3       0      1 2.14e-03    0 0.00e+00  100
DualSpaceSetUp         5 1.0 1.0442e-02 1.2 3.13e+03 1.0 0.0e+00 0.0e+00 0.0e+00  0  0  0  0  0   0  0  0  0  0   154       0      0 0.00e+00    0 0.00e+00  0
FESetUp                5 1.0 6.0896e-04 1.9 0.00e+00 0.0 0.0e+00 0.0e+00 0.0e+00  0  0  0  0  0   0  0  0  0  0     0       0      0 0.00e+00    0 0.00e+00  0
PCSetUp_GAMG+          1 1.0 5.1773e+00 1.0 1.07e+07 1.9 4.6e+06 4.7e+02 1.2e+03 51  2 16 10 17  53  4 20 12 18   741       0      4 5.29e-02    0 0.00e+00  90
 PCGAMGCreateG         3 1.0 2.6026e+00 1.0 8.29e+05 1.9 1.0e+05 4.0e+02 6.0e+00 26  0  0  0  0  26  0  0  0  0   111       0      2 2.64e-02    0 0.00e+00  100
 GAMG Coarsen          6 1.0 7.6359e-01 1.0 8.93e+05 1.7 3.7e+06 2.1e+02 9.0e+02  8  0 13  4 13   8  0 16  4 13   493       0      0 0.00e+00    0 0.00e+00  0
  GAMG MIS/Agg         3 1.0 7.6054e-01 1.0 8.93e+05 1.7 3.7e+06 2.1e+02 9.0e+02  7  0 13  4 13   8  0 16  4 13   495       0      0 0.00e+00    0 0.00e+00  0
 PCGAMGProl            3 1.0 1.0782e-02 1.1 0.00e+00 0.0 3.5e+04 7.4e+02 3.6e+01  0  0  0  0  1   0  0  0  0  1     0       0      0 0.00e+00    0 0.00e+00  0
  GAMG Prol-col        3 1.0 2.1749e-03 1.1 0.00e+00 0.0 1.2e+04 8.6e+02 6.0e+00  0  0  0  0  0   0  0  0  0  0     0       0      0 0.00e+00    0 0.00e+00  0
  GAMG Prol-lift       3 1.0 6.3672e-03 1.0 0.00e+00 0.0 2.3e+04 6.7e+02 1.8e+01  0  0  0  0  0   0  0  0  0  0     0       0      0 0.00e+00    0 0.00e+00  0
 PCGAMGOptProl         3 1.0 1.5232e+00 1.0 8.94e+06 1.9 3.7e+05 5.2e+02 9.6e+01 15  2  1  1  1  16  4  2  1  1  2082       0      2 2.64e-02    0 0.00e+00  100
  GAMG smooth          3 1.0 1.0246e+00 1.0 1.19e+05 1.7 1.6e+05 3.4e+02 2.7e+01 10  0  1  0  0  10  0  1  0  0    46       0      0 0.00e+00    0 0.00e+00  96
 PCGAMGCreateL         3 1.0 2.6369e-01 1.0 0.00e+00 0.0 4.5e+05 2.5e+03 1.6e+02  3  0  2  5  2   3  0  2  6  2     0       0      0 0.00e+00    0 0.00e+00  0
  GAMG PtAP            3 1.0 2.1988e-01 1.0 0.00e+00 0.0 4.4e+05 2.5e+03 4.8e+01  2  0  2  5  1   2  0  2  6  1     0       0      0 0.00e+00    0 0.00e+00  0
  GAMG Reduce          3 1.0 4.3892e-02 1.0 0.00e+00 0.0 9.5e+03 2.1e+03 1.1e+02  0  0  0  0  2   0  0  0  0  2     0       0      0 0.00e+00    0 0.00e+00  0
PCGAMG Gal l00         1 1.0 1.0283e-01 1.0 0.00e+00 0.0 1.5e+05 4.3e+03 1.6e+01  1  0  1  3  0   1  0  1  4  0     0       0      0 0.00e+00    0 0.00e+00  0
PCGAMG Opt l00         1 1.0 5.3545e-01 1.0 0.00e+00 0.0 7.6e+04 5.2e+02 8.0e+00  5  0  0  0  0   5  0  0  0  0     0       0      0 0.00e+00    0 0.00e+00  0
PCGAMG Gal l01         1 1.0 7.4244e-02 1.0 0.00e+00 0.0 2.9e+05 1.6e+03 1.6e+01  1  0  1  2  0   1  0  1  3  0     0       0      0 0.00e+00    0 0.00e+00  0
PCGAMG Opt l01         1 1.0 2.6174e-02 1.0 0.00e+00 0.0 8.5e+04 1.9e+02 8.0e+00  0  0  0  0  0   0  0  0  0  0     0       0      0 0.00e+00    0 0.00e+00  0
PCGAMG Gal l02         1 1.0 4.2871e-02 1.0 0.00e+00 0.0 3.4e+03 5.3e+03 1.6e+01  0  0  0  0  0   0  0  0  0  0     0       0      0 0.00e+00    0 0.00e+00  0
PCGAMG Opt l02         1 1.0 2.0610e-02 1.0 0.00e+00 0.0 1.7e+03 3.7e+02 8.0e+00  0  0  0  0  0   0  0  0  0  0     0       0      0 0.00e+00    0 0.00e+00  0
PCSetUp                2 1.0 5.1787e+00 1.0 1.07e+07 1.9 4.6e+06 4.7e+02 1.2e+03 51  2 16 10 17  53  4 20 12 18   741       0      4 5.29e-02    0 0.00e+00  90
PCSetUpOnBlocks       48 1.0 1.4070e-03 15.3 1.16e+06 0.0 0.0e+00 0.0e+00 0.0e+00  0  0  0  0  0   0  0  0  0  0   824       0      0 0.00e+00    0 0.00e+00  0
PCApply               48 1.0 7.1536e-01 1.0 1.76e+08 1.9 4.8e+06 5.6e+02 4.8e+01  7 37 17 13  1   7 70 21 15  1 87082       0      1 2.14e-03    0 0.00e+00  100

--- Event Stage 1: Solve only

MatMult              793 1.3 1.1719e-01 1.6 1.84e+08 1.8 4.4e+06 6.9e+02 0.0e+00  1 40 16 15  0  28 86 83 96  0 575823       0      0 0.00e+00    0 0.00e+00  100
MatMultAdd           144 1.0 4.2418e-02 2.1 5.47e+06 1.7 4.5e+05 1.2e+02 0.0e+00  0  1  2  0  0  11  3  8  2  0 51420       0      0 0.00e+00    0 0.00e+00  100
MatMultTranspose     144 1.0 3.0889e-02 2.9 5.67e+06 1.8 4.5e+05 1.2e+02 0.0e+00  0  1  2  0  0   4  3  8  2  0 70825       0      0 0.00e+00    0 0.00e+00  100
MatSolve              48 0.0 1.4610e-03 0.0 1.39e+06 0.0 0.0e+00 0.0e+00 0.0e+00  0  0  0  0  0   0  0  0  0  0   954       0      0 0.00e+00    0 0.00e+00  0
MatResidual          144 1.0 3.2747e-02 1.9 4.03e+07 1.9 9.8e+05 6.6e+02 0.0e+00  0  8  3  3  0   7 18 18 21  0 428138       0      0 0.00e+00    0 0.00e+00  100
MatView                7 1.4 6.7860e-03 8.3 0.00e+00 0.0 0.0e+00 0.0e+00 5.0e+00  0  0  0  0  0   1  0  0  0  2     0       0      0 0.00e+00    0 0.00e+00  0
KSPSetUp               1 1.0 7.6100e-07 5.1 0.00e+00 0.0 0.0e+00 0.0e+00 0.0e+00  0  0  0  0  0   0  0  0  0  0     0       0      0 0.00e+00    0 0.00e+00  0
KSPSolve               1 1.0 2.8288e-01 1.0 2.04e+08 1.8 5.3e+06 6.0e+02 2.0e+02  3 45 19 15  3  91 96 100 100 96 267601       0      0 0.00e+00    0 0.00e+00  100
SNESSolve              1 1.0 2.9944e-01 1.0 2.10e+08 1.7 5.3e+06 6.0e+02 2.0e+02  3 47 19 15  3  97 100 100 100 96 262867       0      0 0.00e+00    0 0.00e+00  96
SNESFunctionEval       1 1.0 2.0838e-02 1.3 6.05e+06 1.0 5.7e+03 1.0e+03 0.0e+00  0  2  0  0  0   6  4  0  0  0 144413       0      0 0.00e+00    0 0.00e+00  0
DMPlexResidualFE       1 1.0 1.7053e-02 1.3 5.81e+06 1.0 0.0e+00 0.0e+00 0.0e+00  0  2  0  0  0   4  4  0  0  0 174324       0      0 0.00e+00    0 0.00e+00  0
SFBcastBegin           1 1.0 1.4512e-04 7.4 0.00e+00 0.0 2.9e+03 1.0e+03 0.0e+00  0  0  0  0  0   0  0  0  0  0     0       0      0 0.00e+00    0 0.00e+00  0
SFBcastEnd             1 1.0 3.5472e-03 891.7 0.00e+00 0.0 0.0e+00 0.0e+00 0.0e+00  0  0  0  0  0   0  0  0  0  0     0       0      0 0.00e+00    0 0.00e+00  0
SFReduceBegin          1 1.0 1.9405e-04 20.9 0.00e+00 0.0 2.9e+03 1.0e+03 0.0e+00  0  0  0  0  0   0  0  0  0  0     0       0      0 0.00e+00    0 0.00e+00  0
SFReduceEnd            1 1.0 5.4506e-03 1230.9 8.17e+02 0.0 0.0e+00 0.0e+00 0.0e+00  0  0  0  0  0   0  0  0  0  0    66       0      0 0.00e+00    0 0.00e+00  100
SFPack               914 1.0 4.0610e-03 2.6 0.00e+00 0.0 0.0e+00 0.0e+00 0.0e+00  0  0  0  0  0   1  0  0  0  0     0       0      0 0.00e+00    0 0.00e+00  0
SFUnpack             914 1.0 8.7824e-04 3.2 1.98e+05 84.7 0.0e+00 0.0e+00 0.0e+00  0  0  0  0  0   0  0  0  0  0  7899       0      0 0.00e+00    0 0.00e+00  100
VecTDot               98 1.0 5.4742e-02 1.6 8.03e+05 1.2 0.0e+00 0.0e+00 9.8e+01  0  0  0  0  1  14  1  0  0 48  7334       0      0 0.00e+00    0 0.00e+00  100
VecNorm               49 1.0 1.1297e-02 1.7 4.01e+05 1.2 0.0e+00 0.0e+00 4.9e+01  0  0  0  0  1   3  0  0  0 24 17767       0      0 0.00e+00    0 0.00e+00  100
VecCopy              434 1.0 4.7960e-02 1.8 0.00e+00 0.0 0.0e+00 0.0e+00 0.0e+00  0  0  0  0  0  11  0  0  0  0     0       0      0 0.00e+00    0 0.00e+00  0
VecSet               197 1.0 1.3176e-02 2.8 0.00e+00 0.0 0.0e+00 0.0e+00 0.0e+00  0  0  0  0  0   3  0  0  0  0     0       0      0 0.00e+00    0 0.00e+00  0
VecAXPY               97 1.0 6.5330e-04 1.8 7.95e+05 1.2 0.0e+00 0.0e+00 0.0e+00  0  0  0  0  0   0  1  0  0  0 608279       0      0 0.00e+00    0 0.00e+00  100
VecAYPX              911 1.0 5.0098e-03 2.1 3.04e+06 1.3 0.0e+00 0.0e+00 0.0e+00  0  1  0  0  0   1  2  0  0  0 283632       0      0 0.00e+00    0 0.00e+00  100
VecAXPBYCZ           288 1.0 1.7781e-03 2.0 2.21e+06 1.3 0.0e+00 0.0e+00 0.0e+00  0  1  0  0  0   0  1  0  0  0 575696       0      0 0.00e+00    0 0.00e+00  100
VecPointwiseMult     576 1.0 3.2763e-03 2.3 8.85e+05 1.3 0.0e+00 0.0e+00 0.0e+00  0  0  0  0  0   1  1  0  0  0 124976       0      0 0.00e+00    0 0.00e+00  100
VecScatterBegin      912 1.0 1.0372e-01 2.8 0.00e+00 0.0 5.3e+06 6.0e+02 0.0e+00  1  0 19 15  0  18  0 100 100  0     0       0      0 0.00e+00    0 0.00e+00  0
VecScatterEnd        912 1.0 8.8497e-02 2.5 1.97e+05 93.3 0.0e+00 0.0e+00 0.0e+00  1  0  0  0  0  22  0  0  0  0    74       0      0 0.00e+00    0 0.00e+00  100
PCSetUpOnBlocks       48 1.0 4.0921e-05 2.6 0.00e+00 0.0 0.0e+00 0.0e+00 0.0e+00  0  0  0  0  0   0  0  0  0  0     0       0      0 0.00e+00    0 0.00e+00  0
PCApply               48 1.0 2.2785e-01 1.1 1.76e+08 1.9 4.8e+06 5.6e+02 4.8e+01  2 37 17 13  1  71 79 91 85 24 273403       0      0 0.00e+00    0 0.00e+00  100
---------------------------------------------------------------------------------------------------------------------------------------------------------------

Object Type          Creations   Destructions. Reports information only for process 0.

--- Event Stage 0: Main Stage

           Container   119            119
                SNES     1              1
              DMSNES     1              1
       Krylov Solver     9              9
     DMKSP interface     1              1
              Matrix   456            456
      Matrix Coarsen     3              3
    Distributed Mesh   106            106
            DM Label  1280           1280
          Quadrature   286            286
      Mesh Transform     3              3
           Index Set  5858           5858
   IS L to G Mapping   199            199
             Section  2422           2422
   Star Forest Graph  1845           1845
     Discrete System   162            162
           Weak Form   163            163
    GraphPartitioner    48             48
              Vector   338            338
        Linear Space    10             10
          Dual Space    49             49
            FE Space     5              5
              Viewer     2              2
      Preconditioner     9              9
       Field over DM     1              1
         PetscRandom     3              3

--- Event Stage 1: Solve only

          Quadrature     1              1
           Index Set    31             31
              Viewer     1              1
========================================================================================================================
Average time to get PetscTime(): 5.21e-08
Average time for MPI_Barrier(): 1.39164e-05
Average time for zero size MPI_Send(): 8.26796e-06
#PETSc Option Table entries:
-benchmark_it 1 # (source: file)
-build_twosided allreduce # (source: file)
-dm_mat_type aijkokkos # (source: file)
-dm_plex_box_faces 8,8,8 # (source: command line)
-dm_plex_box_lower 0,0,0 # (source: file)
-dm_plex_box_upper 4,2,1 # (source: file)
-dm_plex_dim 3 # (source: file)
-dm_plex_simplex 0 # (source: file)
-dm_refine 3 # (source: command line)
-dm_vec_type kokkos # (source: file)
-dm_view # (source: file)
-info :pc,is # (source: file)
-ksp_converged_reason # (source: file)
-ksp_monitor # (source: file)
-ksp_norm_type unpreconditioned # (source: file)
-ksp_rtol 1e-12 # (source: file)
-ksp_type cg # (source: file)
-log_view # (source: file)
-mat_coarsen_max_it 5 # (source: command line)
-mat_coarsen_type hem # (source: command line)
-mg_levels_ksp_chebyshev_esteig 0,0.2,0,1.05 # (source: file)
-options_left # (source: file)
-pc_gamg_aggressive_coarsening 2 # (source: file)
-pc_gamg_aggressive_square_graph true # (source: file)
-pc_gamg_coarse_eq_limit 1000 # (source: file)
-pc_gamg_esteig_ksp_type cg # (source: file)
-pc_gamg_mis_k_minimum_degree_ordering true # (source: file)
-pc_gamg_process_eq_limit 200 # (source: file)
-pc_gamg_reuse_interpolation true # (source: file)
-pc_gamg_threshold 0.04 # (source: file)
-pc_gamg_threshold_scale .25 # (source: file)
-pc_type gamg # (source: file)
-petscpartitioner_simple_node_grid 2,2,2 # (source: command line)
-petscpartitioner_simple_process_grid 4,4,4 # (source: file)
-petscpartitioner_type simple # (source: file)
-potential_petscspace_degree 2 # (source: command line)
-snes_lag_jacobian -2 # (source: file)
-snes_type ksponly # (source: file)
-snes_view # (source: file)
#End of PETSc Option Table entries
Compiled without FORTRAN kernels
Compiled with 64-bit PetscInt
Compiled with full precision matrices (default)
sizeof(short) 2 sizeof(int) 4 sizeof(long) 8 sizeof(void*) 8 sizeof(PetscScalar) 8 sizeof(PetscInt) 8
Configure options: --with-cc=cc --with-cxx=CC --with-fc=ftn --with-strict-petscerrorcode --with-make-np=8 LIBS="-L/opt/cray/pe/mpich/8.1.27/gtl/lib -lmpi_gtl_hsa" --with-debugging=0 --COPTFLAGS="-g -Ofast -march=native -Wno-deprecated" --CXXOPTFLAGS="-g -Ofast -march=native -Wno-deprecated" --FOPTFLAGS="-g -Ofast -march=native" --with-64-bit-indices=1 --with-mpiexec=srun --with-hip --with-hipc=hipcc --download-hdf5=1 --download-metis --download-parmetis --download-hypre --download-hypre-configure-arguments="--enable-bigint=no --enable-mixedint=yes" --with-hypre-gpuarch=gfx90a --with-hip-arch=gfx90a --download-kokkos --download-kokkos-kernels --with-kokkos-kernels-tpl=0 PETSC_ARCH=arch-olcf-crusher-kok
-----------------------------------------
Libraries compiled on 2024-02-08 13:00:33 on login08 
Machine characteristics: Linux-5.14.21-150400.24.46_12.0.83-cray_shasta_c-x86_64-with-glibc2.3.4
Using PETSc directory: /lustre/orion/csc314/scratch/adams/petsc
Using PETSc arch: arch-olcf-crusher-kok
-----------------------------------------

Using C compiler: cc  -fPIC -Wall -Wwrite-strings -Wno-unknown-pragmas -Wno-lto-type-mismatch -Wno-stringop-overflow -fstack-protector -fvisibility=hidden -g -Ofast -march=native -Wno-deprecated  
Using Fortran compiler: ftn  -fPIC -Wall -ffree-line-length-none -ffree-line-length-0 -Wno-lto-type-mismatch -Wno-unused-dummy-argument -g -Ofast -march=native    
-----------------------------------------

Using include paths: -I/lustre/orion/csc314/scratch/adams/petsc/include -I/lustre/orion/csc314/scratch/adams/petsc/arch-olcf-crusher-kok/include -I/opt/rocm-5.4.3/include
-----------------------------------------

Using C linker: cc
Using Fortran linker: ftn
Using libraries: -Wl,-rpath,/lustre/orion/csc314/scratch/adams/petsc/arch-olcf-crusher-kok/lib -L/lustre/orion/csc314/scratch/adams/petsc/arch-olcf-crusher-kok/lib -lpetsc -Wl,-rpath,/lustre/orion/csc314/scratch/adams/petsc/arch-olcf-crusher-kok/lib -L/lustre/orion/csc314/scratch/adams/petsc/arch-olcf-crusher-kok/lib -Wl,-rpath,/opt/rocm-5.4.3/lib -L/opt/rocm-5.4.3/lib -Wl,-rpath,/opt/cray/pe/mpich/8.1.27/gtl/lib -L/opt/cray/pe/mpich/8.1.27/gtl/lib -Wl,-rpath,/opt/cray/pe/mpich/8.1.27/ofi/gnu/9.1/lib -L/opt/cray/pe/mpich/8.1.27/ofi/gnu/9.1/lib -Wl,-rpath,/opt/cray/pe/libsci/22.12.1.1/GNU/9.1/x86_64/lib -L/opt/cray/pe/libsci/22.12.1.1/GNU/9.1/x86_64/lib -Wl,-rpath,/sw/frontier/spack-envs/base/opt/cray-sles15-zen3/gcc-12.2.0/darshan-runtime-3.4.0-ftq5gccg3qjtyh5xeo2bz4wqkjayjhw3/lib -L/sw/frontier/spack-envs/base/opt/cray-sles15-zen3/gcc-12.2.0/darshan-runtime-3.4.0-ftq5gccg3qjtyh5xeo2bz4wqkjayjhw3/lib -Wl,-rpath,/opt/cray/pe/dsmml/0.2.2/dsmml/lib -L/opt/cray/pe/dsmml/0.2.2/dsmml/lib -Wl,-rpath,/opt/cray/pe/pmi/6.1.8/lib -L/opt/cray/pe/pmi/6.1.8/lib -Wl,-rpath,/opt/cray/xpmem/2.6.2-2.5_2.22__gd067c3f.shasta/lib64 -L/opt/cray/xpmem/2.6.2-2.5_2.22__gd067c3f.shasta/lib64 -Wl,-rpath,/opt/cray/pe/gcc/12.2.0/snos/lib/gcc/x86_64-suse-linux/12.2.0 -L/opt/cray/pe/gcc/12.2.0/snos/lib/gcc/x86_64-suse-linux/12.2.0 -Wl,-rpath,/opt/cray/pe/gcc/12.2.0/snos/lib64 -L/opt/cray/pe/gcc/12.2.0/snos/lib64 -Wl,-rpath,/opt/rocm-5.4.3/llvm/lib -L/opt/rocm-5.4.3/llvm/lib -Wl,-rpath,/opt/cray/pe/gcc/12.2.0/snos/lib -L/opt/cray/pe/gcc/12.2.0/snos/lib -lHYPRE -lkokkoskernels -lkokkoscontainers -lkokkoscore -lkokkossimd -lparmetis -lmetis -lhdf5_hl -lhdf5 -lhipsparse -lhipblas -lhipsolver -lrocsparse -lrocsolver -lrocblas -lrocrand -lamdhip64 -lmpi_gtl_hsa -ldarshan -lz -ldl -lxpmem -lgfortran -lm -lmpifort_gnu_91 -lmpi_gnu_91 -lsci_gnu_82_mpi -lsci_gnu_82 -ldsmml -lpmi -lpmi2 -lgfortran -lquadmath -lpthread -lm -lgcc_s -lstdc++ -lquadmath -lmpi_gtl_hsa
-----------------------------------------

#PETSc Option Table entries:
-benchmark_it 1 # (source: file)
-build_twosided allreduce # (source: file)
-dm_mat_type aijkokkos # (source: file)
-dm_plex_box_faces 8,8,8 # (source: command line)
-dm_plex_box_lower 0,0,0 # (source: file)
-dm_plex_box_upper 4,2,1 # (source: file)
-dm_plex_dim 3 # (source: file)
-dm_plex_simplex 0 # (source: file)
-dm_refine 3 # (source: command line)
-dm_vec_type kokkos # (source: file)
-dm_view # (source: file)
-info :pc,is # (source: file)
-ksp_converged_reason # (source: file)
-ksp_monitor # (source: file)
-ksp_norm_type unpreconditioned # (source: file)
-ksp_rtol 1e-12 # (source: file)
-ksp_type cg # (source: file)
-log_view # (source: file)
-mat_coarsen_max_it 5 # (source: command line)
-mat_coarsen_type hem # (source: command line)
-mg_levels_ksp_chebyshev_esteig 0,0.2,0,1.05 # (source: file)
-options_left # (source: file)
-pc_gamg_aggressive_coarsening 2 # (source: file)
-pc_gamg_aggressive_square_graph true # (source: file)
-pc_gamg_coarse_eq_limit 1000 # (source: file)
-pc_gamg_esteig_ksp_type cg # (source: file)
-pc_gamg_mis_k_minimum_degree_ordering true # (source: file)
-pc_gamg_process_eq_limit 200 # (source: file)
-pc_gamg_reuse_interpolation true # (source: file)
-pc_gamg_threshold 0.04 # (source: file)
-pc_gamg_threshold_scale .25 # (source: file)
-pc_type gamg # (source: file)
-petscpartitioner_simple_node_grid 2,2,2 # (source: command line)
-petscpartitioner_simple_process_grid 4,4,4 # (source: file)
-petscpartitioner_type simple # (source: file)
-potential_petscspace_degree 2 # (source: command line)
-snes_lag_jacobian -2 # (source: file)
-snes_type ksponly # (source: file)
-snes_view # (source: file)
#End of PETSc Option Table entries
There are no unused options.
