DM Object: box 4096 MPI processes
  type: plex
box in 3 dimensions:
  Min/Max of 0-cells per rank: 729/729
  Min/Max of 1-cells per rank: 1944/1944
  Min/Max of 2-cells per rank: 1728/1728
  Min/Max of 3-cells per rank: 512/512
Labels:
  celltype: 4 strata with value/size (0 (729), 1 (1944), 4 (1728), 7 (512))
  depth: 4 strata with value/size (0 (729), 1 (1944), 2 (1728), 3 (512))
  marker: 1 strata with value/size (1 (817))
  Face Sets: 3 strata with value/size (1 (225), 3 (225), 6 (225))
Number equations N = 16581375
[0] <pc:gamg> PCSetUp_GAMG(): (null): level 0) N=16581375, n data rows=1, n data cols=1, nnz/row (ave)=63, block size 1, np=4096
[0] <pc:gamg> PCGAMGCreateGraph_AGG(): HEM and aggressive coarsening ignored: HEM using 5 iterations
[0] <pc:gamg> PCGAMGCreateGraph_AGG(): Filtering left 33.8523 % edges in graph (1.851930e+05 6.269200e+04)
[0] <is> MatCoarsenApply_HEM_private(): Start 5 iterations of HEM.
[0] <is> MatCoarsenApply_HEM_private(): [0] HEM iteration 0 with 31663 edges
[0] <is> MatCoarsenApply_HEM_private(): [0] 0.0) nactive edges=21288562, ncomm_procs=5, nEdges=31663, 1114500 deleted ghosts, N=16581375
[0] <is> MatCoarsenApply_HEM_private(): [0] 0.1) nactive edges=2028215, ncomm_procs=5, nEdges=31663, 289020 deleted ghosts, N=16581375
[0] <is> MatCoarsenApply_HEM_private(): [0] 0.2) nactive edges=28800, ncomm_procs=5, nEdges=31663, 0 deleted ghosts, N=16581375
[0] <is> MatCoarsenApply_HEM_private(): [0] 0.3) nactive edges=0, ncomm_procs=5, nEdges=31663, 0 deleted ghosts, N=16581375
[0] <is> MatCoarsenApply_HEM_private(): [0] HEM iteration 1 with 8121 edges
[0] <is> MatCoarsenApply_HEM_private(): [0] 1.0) nactive edges=12459161, ncomm_procs=5, nEdges=8121, 650460 deleted ghosts, N=16581375
[0] <is> MatCoarsenApply_HEM_private(): [0] 1.1) nactive edges=2251529, ncomm_procs=5, nEdges=8121, 445000 deleted ghosts, N=16581375
[0] <is> MatCoarsenApply_HEM_private(): [0] 1.2) nactive edges=258066, ncomm_procs=5, nEdges=8121, 52788 deleted ghosts, N=16581375
[0] <is> MatCoarsenApply_HEM_private(): [0] 1.3) nactive edges=4351, ncomm_procs=5, nEdges=8121, 0 deleted ghosts, N=16581375
[0] <is> MatCoarsenApply_HEM_private(): [0] 1.4) nactive edges=0, ncomm_procs=5, nEdges=8121, 0 deleted ghosts, N=16581375
[0] <is> MatCoarsenApply_HEM_private(): [0] HEM iteration 2 with 4112 edges
[0] <is> MatCoarsenApply_HEM_private(): [0] 2.0) nactive edges=6995214, ncomm_procs=6, nEdges=4112, 294714 deleted ghosts, N=16581375
[0] <is> MatCoarsenApply_HEM_private(): [0] 2.1) nactive edges=1486155, ncomm_procs=6, nEdges=4112, 137504 deleted ghosts, N=16581375
[0] <is> MatCoarsenApply_HEM_private(): [0] 2.2) nactive edges=387193, ncomm_procs=6, nEdges=4112, 36186 deleted ghosts, N=16581375
[0] <is> MatCoarsenApply_HEM_private(): [0] 2.3) nactive edges=103296, ncomm_procs=6, nEdges=4112, 31392 deleted ghosts, N=16581375
[0] <is> MatCoarsenApply_HEM_private(): [0] 2.4) nactive edges=11766, ncomm_procs=6, nEdges=4112, 6192 deleted ghosts, N=16581375
[0] <is> MatCoarsenApply_HEM_private(): [0] 2.5) nactive edges=2727, ncomm_procs=6, nEdges=4112, 0 deleted ghosts, N=16581375
[0] <is> MatCoarsenApply_HEM_private(): [0] 2.6) nactive edges=0, ncomm_procs=6, nEdges=4112, 0 deleted ghosts, N=16581375
[0] <is> MatCoarsenApply_HEM_private(): [0] HEM iteration 3 with 1666 edges
[0] <is> MatCoarsenApply_HEM_private(): [0] 3.0) nactive edges=3863922, ncomm_procs=6, nEdges=1666, 183636 deleted ghosts, N=16581375
[0] <is> MatCoarsenApply_HEM_private(): [0] 3.1) nactive edges=1016439, ncomm_procs=6, nEdges=1666, 131440 deleted ghosts, N=16581375
[0] <is> MatCoarsenApply_HEM_private(): [0] 3.2) nactive edges=229365, ncomm_procs=6, nEdges=1666, 58228 deleted ghosts, N=16581375
[0] <is> MatCoarsenApply_HEM_private(): [0] 3.3) nactive edges=29140, ncomm_procs=6, nEdges=1666, 4710 deleted ghosts, N=16581375
[0] <is> MatCoarsenApply_HEM_private(): [0] 3.4) nactive edges=604, ncomm_procs=6, nEdges=1666, 94 deleted ghosts, N=16581375
[0] <is> MatCoarsenApply_HEM_private(): [0] 3.5) nactive edges=0, ncomm_procs=6, nEdges=1666, 0 deleted ghosts, N=16581375
[0] <is> MatCoarsenApply_HEM_private(): [0] HEM iteration 4 with 653 edges
[0] <is> MatCoarsenApply_HEM_private(): [0] 4.0) nactive edges=2021841, ncomm_procs=6, nEdges=653, 140726 deleted ghosts, N=16581375
[0] <is> MatCoarsenApply_HEM_private(): [0] 4.1) nactive edges=415535, ncomm_procs=6, nEdges=653, 48862 deleted ghosts, N=16581375
[0] <is> MatCoarsenApply_HEM_private(): [0] 4.2) nactive edges=112627, ncomm_procs=6, nEdges=653, 31500 deleted ghosts, N=16581375
[0] <is> MatCoarsenApply_HEM_private(): [0] 4.3) nactive edges=13541, ncomm_procs=6, nEdges=653, 1646 deleted ghosts, N=16581375
[0] <is> MatCoarsenApply_HEM_private(): [0] 4.4) nactive edges=1515, ncomm_procs=6, nEdges=653, 480 deleted ghosts, N=16581375
[0] <is> MatCoarsenApply_HEM_private(): [0] 4.5) nactive edges=0, ncomm_procs=6, nEdges=653, 0 deleted ghosts, N=16581375
[0] <pc:gamg> PCGAMGProlongator_AGG(): (null): New grid 655529 nodes
[0] <pc:gamg> PCGAMGOptProlongator_AGG(): (null): Smooth P0: max eigen=2.539787e+00 min=6.471611e-02 PC=jacobi
[0] <pc:gamg> PCGAMGOptProlongator_AGG(): (null): Smooth P0: level 0, cache spectra 0.0647161 2.53979
[0] <pc:gamg> PCGAMGCreateLevel_GAMG(): (null): Coarse grid reduction from 4096 to 3278 active processes
[0] <pc:gamg> PCGAMGCreateLevel_GAMG(): (null): Finding factorable processor set stopped reduction: new_size=4096, neq(loc)=85
[0] <pc:gamg> PCSetUp_GAMG(): (null): 1) N=655529, n data cols=1, nnz/row (ave)=201, 4096 active pes
[0] <pc:gamg> PCGAMGCreateGraph_AGG(): Filtering left 12.0868 % edges in graph (1.055700e+04 1.276000e+03)
[0] <is> MatCoarsenApply_HEM_private(): Start 5 iterations of HEM.
[0] <is> MatCoarsenApply_HEM_private(): [0] HEM iteration 0 with 778 edges
[0] <is> MatCoarsenApply_HEM_private(): [0] 0.0) nactive edges=3023711, ncomm_procs=6, nEdges=778, 43642 deleted ghosts, N=655529
[0] <is> MatCoarsenApply_HEM_private(): [0] 0.1) nactive edges=790126, ncomm_procs=6, nEdges=778, 71688 deleted ghosts, N=655529
[0] <is> MatCoarsenApply_HEM_private(): [0] 0.2) nactive edges=123555, ncomm_procs=6, nEdges=778, 23134 deleted ghosts, N=655529
[0] <is> MatCoarsenApply_HEM_private(): [0] 0.3) nactive edges=19934, ncomm_procs=6, nEdges=778, 8770 deleted ghosts, N=655529
[0] <is> MatCoarsenApply_HEM_private(): [0] 0.4) nactive edges=1196, ncomm_procs=6, nEdges=778, 306 deleted ghosts, N=655529
[0] <is> MatCoarsenApply_HEM_private(): [0] 0.5) nactive edges=33, ncomm_procs=6, nEdges=778, 30 deleted ghosts, N=655529
[0] <is> MatCoarsenApply_HEM_private(): [0] 0.6) nactive edges=0, ncomm_procs=6, nEdges=778, 0 deleted ghosts, N=655529
[0] <is> MatCoarsenApply_HEM_private(): [0] HEM iteration 1 with 286 edges
[0] <is> MatCoarsenApply_HEM_private(): [0] 1.0) nactive edges=1282803, ncomm_procs=6, nEdges=286, 27812 deleted ghosts, N=655529
[0] <is> MatCoarsenApply_HEM_private(): [0] 1.1) nactive edges=340109, ncomm_procs=6, nEdges=286, 31566 deleted ghosts, N=655529
[0] <is> MatCoarsenApply_HEM_private(): [0] 1.2) nactive edges=84303, ncomm_procs=6, nEdges=286, 15006 deleted ghosts, N=655529
[0] <is> MatCoarsenApply_HEM_private(): [0] 1.3) nactive edges=20147, ncomm_procs=6, nEdges=286, 7066 deleted ghosts, N=655529
[0] <is> MatCoarsenApply_HEM_private(): [0] 1.4) nactive edges=4695, ncomm_procs=6, nEdges=286, 1328 deleted ghosts, N=655529
[0] <is> MatCoarsenApply_HEM_private(): [0] 1.5) nactive edges=1398, ncomm_procs=6, nEdges=286, 362 deleted ghosts, N=655529
[0] <is> MatCoarsenApply_HEM_private(): [0] 1.6) nactive edges=495, ncomm_procs=6, nEdges=286, 330 deleted ghosts, N=655529
[0] <is> MatCoarsenApply_HEM_private(): [0] 1.7) nactive edges=0, ncomm_procs=6, nEdges=286, 0 deleted ghosts, N=655529
[0] <is> MatCoarsenApply_HEM_private(): [0] HEM iteration 2 with 112 edges
[0] <is> MatCoarsenApply_HEM_private(): [0] 2.0) nactive edges=815620, ncomm_procs=6, nEdges=112, 28036 deleted ghosts, N=655529
[0] <is> MatCoarsenApply_HEM_private(): [0] 2.1) nactive edges=286634, ncomm_procs=6, nEdges=112, 32826 deleted ghosts, N=655529
[0] <is> MatCoarsenApply_HEM_private(): [0] 2.2) nactive edges=63817, ncomm_procs=6, nEdges=112, 6032 deleted ghosts, N=655529
[0] <is> MatCoarsenApply_HEM_private(): [0] 2.3) nactive edges=17558, ncomm_procs=6, nEdges=112, 5118 deleted ghosts, N=655529
[0] <is> MatCoarsenApply_HEM_private(): [0] 2.4) nactive edges=2189, ncomm_procs=6, nEdges=112, 1296 deleted ghosts, N=655529
[0] <is> MatCoarsenApply_HEM_private(): [0] 2.5) nactive edges=168, ncomm_procs=6, nEdges=112, 42 deleted ghosts, N=655529
[0] <is> MatCoarsenApply_HEM_private(): [0] 2.6) nactive edges=28, ncomm_procs=6, nEdges=112, 28 deleted ghosts, N=655529
[0] <is> MatCoarsenApply_HEM_private(): [0] 2.7) nactive edges=0, ncomm_procs=6, nEdges=112, 0 deleted ghosts, N=655529
[0] <is> MatCoarsenApply_HEM_private(): [0] HEM iteration 3 with 40 edges
[0] <is> MatCoarsenApply_HEM_private(): [0] 3.0) nactive edges=426530, ncomm_procs=6, nEdges=40, 7886 deleted ghosts, N=655529
[0] <is> MatCoarsenApply_HEM_private(): [0] 3.1) nactive edges=132746, ncomm_procs=6, nEdges=40, 14972 deleted ghosts, N=655529
[0] <is> MatCoarsenApply_HEM_private(): [0] 3.2) nactive edges=23757, ncomm_procs=6, nEdges=40, 3660 deleted ghosts, N=655529
[0] <is> MatCoarsenApply_HEM_private(): [0] 3.3) nactive edges=5621, ncomm_procs=6, nEdges=40, 1670 deleted ghosts, N=655529
[0] <is> MatCoarsenApply_HEM_private(): [0] 3.4) nactive edges=1960, ncomm_procs=6, nEdges=40, 454 deleted ghosts, N=655529
[0] <is> MatCoarsenApply_HEM_private(): [0] 3.5) nactive edges=1172, ncomm_procs=6, nEdges=40, 270 deleted ghosts, N=655529
[0] <is> MatCoarsenApply_HEM_private(): [0] 3.6) nactive edges=632, ncomm_procs=6, nEdges=40, 270 deleted ghosts, N=655529
[0] <is> MatCoarsenApply_HEM_private(): [0] 3.7) nactive edges=92, ncomm_procs=6, nEdges=40, 60 deleted ghosts, N=655529
[0] <is> MatCoarsenApply_HEM_private(): [0] 3.8) nactive edges=0, ncomm_procs=6, nEdges=40, 0 deleted ghosts, N=655529
[0] <is> MatCoarsenApply_HEM_private(): [0] HEM iteration 4 with 13 edges
[0] <is> MatCoarsenApply_HEM_private(): [0] 4.0) nactive edges=286021, ncomm_procs=4, nEdges=13, 4642 deleted ghosts, N=655529
[0] <is> MatCoarsenApply_HEM_private(): [0] 4.1) nactive edges=144968, ncomm_procs=4, nEdges=13, 12986 deleted ghosts, N=655529
[0] <is> MatCoarsenApply_HEM_private(): [0] 4.2) nactive edges=40397, ncomm_procs=4, nEdges=13, 3348 deleted ghosts, N=655529
[0] <is> MatCoarsenApply_HEM_private(): [0] 4.3) nactive edges=10860, ncomm_procs=4, nEdges=13, 2294 deleted ghosts, N=655529
[0] <is> MatCoarsenApply_HEM_private(): [0] 4.4) nactive edges=3847, ncomm_procs=4, nEdges=13, 612 deleted ghosts, N=655529
[0] <is> MatCoarsenApply_HEM_private(): [0] 4.5) nactive edges=2369, ncomm_procs=4, nEdges=13, 316 deleted ghosts, N=655529
[0] <is> MatCoarsenApply_HEM_private(): [0] 4.6) nactive edges=1541, ncomm_procs=4, nEdges=13, 298 deleted ghosts, N=655529
[0] <is> MatCoarsenApply_HEM_private(): [0] 4.7) nactive edges=832, ncomm_procs=4, nEdges=13, 252 deleted ghosts, N=655529
[0] <is> MatCoarsenApply_HEM_private(): [0] 4.8) nactive edges=194, ncomm_procs=4, nEdges=13, 100 deleted ghosts, N=655529
[0] <is> MatCoarsenApply_HEM_private(): [0] 4.9) nactive edges=2, ncomm_procs=4, nEdges=13, 2 deleted ghosts, N=655529
[0] <is> MatCoarsenApply_HEM_private(): [0] 4.10) nactive edges=0, ncomm_procs=4, nEdges=13, 0 deleted ghosts, N=655529
[0] <pc:gamg> PCGAMGProlongator_AGG(): (null): New grid 26562 nodes
[0] <pc:gamg> PCGAMGOptProlongator_AGG(): (null): Smooth P0: max eigen=1.337167e+00 min=3.942210e-02 PC=jacobi
[0] <pc:gamg> PCGAMGOptProlongator_AGG(): (null): Smooth P0: level 1, cache spectra 0.0394221 1.33717
[0] <pc:gamg> PCGAMGCreateLevel_GAMG(): (null): Coarse grid reduction from 4096 to 133 active processes
[0] <pc:gamg> PCGAMGCreateLevel_GAMG(): (null): Number of equations (loc) 0 with simple aggregation
[0] <pc:gamg> PCSetUp_GAMG(): (null): 2) N=26562, n data cols=1, nnz/row (ave)=453, 128 active pes
[0] <pc:gamg> PCGAMGCreateGraph_AGG(): Filtering left 10.245 % edges in graph (2.656900e+04 2.722000e+03)
[0] <is> MatCoarsenApply_HEM_private(): Start 5 iterations of HEM.
[0] <is> MatCoarsenApply_HEM_private(): [0] HEM iteration 0 with 1989 edges
[0] <is> MatCoarsenApply_HEM_private(): [0] 0.0) nactive edges=385984, ncomm_procs=7, nEdges=1989, 3260 deleted ghosts, N=26562
[0] <is> MatCoarsenApply_HEM_private(): [0] 0.1) nactive edges=150150, ncomm_procs=7, nEdges=1989, 4780 deleted ghosts, N=26562
[0] <is> MatCoarsenApply_HEM_private(): [0] 0.2) nactive edges=41730, ncomm_procs=7, nEdges=1989, 1688 deleted ghosts, N=26562
[0] <is> MatCoarsenApply_HEM_private(): [0] 0.3) nactive edges=12209, ncomm_procs=7, nEdges=1989, 718 deleted ghosts, N=26562
[0] <is> MatCoarsenApply_HEM_private(): [0] 0.4) nactive edges=4018, ncomm_procs=7, nEdges=1989, 540 deleted ghosts, N=26562
[0] <is> MatCoarsenApply_HEM_private(): [0] 0.5) nactive edges=1054, ncomm_procs=7, nEdges=1989, 210 deleted ghosts, N=26562
[0] <is> MatCoarsenApply_HEM_private(): [0] 0.6) nactive edges=264, ncomm_procs=7, nEdges=1989, 74 deleted ghosts, N=26562
[0] <is> MatCoarsenApply_HEM_private(): [0] 0.7) nactive edges=36, ncomm_procs=7, nEdges=1989, 12 deleted ghosts, N=26562
[0] <is> MatCoarsenApply_HEM_private(): [0] 0.8) nactive edges=1, ncomm_procs=7, nEdges=1989, 0 deleted ghosts, N=26562
[0] <is> MatCoarsenApply_HEM_private(): [0] 0.9) nactive edges=0, ncomm_procs=7, nEdges=1989, 0 deleted ghosts, N=26562
[0] <is> MatCoarsenApply_HEM_private(): [0] HEM iteration 1 with 625 edges
[0] <is> MatCoarsenApply_HEM_private(): [0] 1.0) nactive edges=186686, ncomm_procs=9, nEdges=625, 1294 deleted ghosts, N=26562
[0] <is> MatCoarsenApply_HEM_private(): [0] 1.1) nactive edges=72872, ncomm_procs=9, nEdges=625, 2332 deleted ghosts, N=26562
[0] <is> MatCoarsenApply_HEM_private(): [0] 1.2) nactive edges=17789, ncomm_procs=9, nEdges=625, 838 deleted ghosts, N=26562
[0] <is> MatCoarsenApply_HEM_private(): [0] 1.3) nactive edges=4835, ncomm_procs=9, nEdges=625, 574 deleted ghosts, N=26562
[0] <is> MatCoarsenApply_HEM_private(): [0] 1.4) nactive edges=1206, ncomm_procs=9, nEdges=625, 214 deleted ghosts, N=26562
[0] <is> MatCoarsenApply_HEM_private(): [0] 1.5) nactive edges=319, ncomm_procs=9, nEdges=625, 90 deleted ghosts, N=26562
[0] <is> MatCoarsenApply_HEM_private(): [0] 1.6) nactive edges=78, ncomm_procs=9, nEdges=625, 40 deleted ghosts, N=26562
[0] <is> MatCoarsenApply_HEM_private(): [0] 1.7) nactive edges=11, ncomm_procs=9, nEdges=625, 6 deleted ghosts, N=26562
[0] <is> MatCoarsenApply_HEM_private(): [0] 1.8) nactive edges=0, ncomm_procs=9, nEdges=625, 0 deleted ghosts, N=26562
[0] <is> MatCoarsenApply_HEM_private(): [0] HEM iteration 2 with 146 edges
[0] <is> MatCoarsenApply_HEM_private(): [0] 2.0) nactive edges=80971, ncomm_procs=10, nEdges=146, 338 deleted ghosts, N=26562
[0] <is> MatCoarsenApply_HEM_private(): [0] 2.1) nactive edges=33608, ncomm_procs=10, nEdges=146, 1236 deleted ghosts, N=26562
[0] <is> MatCoarsenApply_HEM_private(): [0] 2.2) nactive edges=8034, ncomm_procs=10, nEdges=146, 438 deleted ghosts, N=26562
[0] <is> MatCoarsenApply_HEM_private(): [0] 2.3) nactive edges=2310, ncomm_procs=10, nEdges=146, 288 deleted ghosts, N=26562
[0] <is> MatCoarsenApply_HEM_private(): [0] 2.4) nactive edges=689, ncomm_procs=10, nEdges=146, 130 deleted ghosts, N=26562
[0] <is> MatCoarsenApply_HEM_private(): [0] 2.5) nactive edges=130, ncomm_procs=10, nEdges=146, 40 deleted ghosts, N=26562
[0] <is> MatCoarsenApply_HEM_private(): [0] 2.6) nactive edges=27, ncomm_procs=10, nEdges=146, 20 deleted ghosts, N=26562
[0] <is> MatCoarsenApply_HEM_private(): [0] 2.7) nactive edges=0, ncomm_procs=10, nEdges=146, 0 deleted ghosts, N=26562
[0] <is> MatCoarsenApply_HEM_private(): [0] HEM iteration 3 with 6 edges
[0] <is> MatCoarsenApply_HEM_private(): [0] 3.0) nactive edges=32973, ncomm_procs=4, nEdges=6, 276 deleted ghosts, N=26562
[0] <is> MatCoarsenApply_HEM_private(): [0] 3.1) nactive edges=13618, ncomm_procs=4, nEdges=6, 748 deleted ghosts, N=26562
[0] <is> MatCoarsenApply_HEM_private(): [0] 3.2) nactive edges=3173, ncomm_procs=4, nEdges=6, 320 deleted ghosts, N=26562
[0] <is> MatCoarsenApply_HEM_private(): [0] 3.3) nactive edges=904, ncomm_procs=4, nEdges=6, 184 deleted ghosts, N=26562
[0] <is> MatCoarsenApply_HEM_private(): [0] 3.4) nactive edges=172, ncomm_procs=4, nEdges=6, 54 deleted ghosts, N=26562
[0] <is> MatCoarsenApply_HEM_private(): [0] 3.5) nactive edges=14, ncomm_procs=4, nEdges=6, 10 deleted ghosts, N=26562
[0] <is> MatCoarsenApply_HEM_private(): [0] 3.6) nactive edges=0, ncomm_procs=4, nEdges=6, 0 deleted ghosts, N=26562
[0] <is> MatCoarsenApply_HEM_private(): [0] HEM iteration 4 with 0 edges
[0] <is> MatCoarsenApply_HEM_private(): [0] 4.0) nactive edges=16422, ncomm_procs=0, nEdges=0, 240 deleted ghosts, N=26562
[0] <is> MatCoarsenApply_HEM_private(): [0] 4.1) nactive edges=6468, ncomm_procs=0, nEdges=0, 498 deleted ghosts, N=26562
[0] <is> MatCoarsenApply_HEM_private(): [0] 4.2) nactive edges=1225, ncomm_procs=0, nEdges=0, 180 deleted ghosts, N=26562
[0] <is> MatCoarsenApply_HEM_private(): [0] 4.3) nactive edges=231, ncomm_procs=0, nEdges=0, 74 deleted ghosts, N=26562
[0] <is> MatCoarsenApply_HEM_private(): [0] 4.4) nactive edges=42, ncomm_procs=0, nEdges=0, 20 deleted ghosts, N=26562
[0] <is> MatCoarsenApply_HEM_private(): [0] 4.5) nactive edges=1, ncomm_procs=0, nEdges=0, 0 deleted ghosts, N=26562
[0] <is> MatCoarsenApply_HEM_private(): [0] 4.6) nactive edges=0, ncomm_procs=0, nEdges=0, 0 deleted ghosts, N=26562
[0] <pc:gamg> PCGAMGProlongator_AGG(): (null): New grid 983 nodes
[0] <pc:gamg> PCGAMGOptProlongator_AGG(): (null): Smooth P0: max eigen=1.238750e+00 min=5.327437e-02 PC=jacobi
[0] <pc:gamg> PCGAMGOptProlongator_AGG(): (null): Smooth P0: level 2, cache spectra 0.0532744 1.23875
[0] <pc:gamg> PCGAMGCreateLevel_GAMG(): (null): Force coarsest grid reduction to 1 active processes
[0] <pc:gamg> PCGAMGCreateLevel_GAMG(): (null): Number of equations (loc) 0 with simple aggregation
[0] <pc:gamg> PCSetUp_GAMG(): (null): 3) N=983, n data cols=1, nnz/row (ave)=438, 1 active pes
[0] <pc:gamg> PCSetUp_GAMG(): (null): 4 levels, operator complexity = 1.13806
[0] <pc:gamg> PCSetUp_GAMG(): (null): PCSetUp_GAMG: call KSPChebyshevSetEigenvalues on level 2 (N=26562) with emax = 1.23875 emin = 0.0532744
[0] <pc:gamg> PCSetUp_GAMG(): (null): PCSetUp_GAMG: call KSPChebyshevSetEigenvalues on level 1 (N=655529) with emax = 1.33717 emin = 0.0394221
[0] <pc:gamg> PCSetUp_GAMG(): (null): PCSetUp_GAMG: call KSPChebyshevSetEigenvalues on level 0 (N=16581375) with emax = 2.53979 emin = 0.0647161
[0] <pc:gamg> PCSetUp_MG(): Using outer operators to define finest grid operator 
  because PCMGGetSmoother(pc,nlevels-1,&ksp);KSPSetOperators(ksp,...); was not called.
    0 KSP Residual norm 1.744425883244e+01 
    1 KSP Residual norm 1.696664131834e+00 
    2 KSP Residual norm 9.410331258568e-01 
    3 KSP Residual norm 6.391129930941e-01 
    4 KSP Residual norm 4.637419229481e-01 
    5 KSP Residual norm 2.876569223242e-01 
    6 KSP Residual norm 1.571052830756e-01 
    7 KSP Residual norm 8.996122232881e-02 
    8 KSP Residual norm 5.499483511211e-02 
    9 KSP Residual norm 3.168750603897e-02 
   10 KSP Residual norm 1.680400024972e-02 
   11 KSP Residual norm 1.008673054320e-02 
   12 KSP Residual norm 6.861741273886e-03 
   13 KSP Residual norm 4.282525434713e-03 
   14 KSP Residual norm 2.666296904933e-03 
   15 KSP Residual norm 1.586795133989e-03 
   16 KSP Residual norm 9.608400337850e-04 
   17 KSP Residual norm 5.805713870053e-04 
   18 KSP Residual norm 3.954130162783e-04 
   19 KSP Residual norm 2.416741310988e-04 
   20 KSP Residual norm 1.317347515894e-04 
   21 KSP Residual norm 7.264585443166e-05 
   22 KSP Residual norm 4.164619056466e-05 
   23 KSP Residual norm 2.578617142160e-05 
   24 KSP Residual norm 1.623241644515e-05 
   25 KSP Residual norm 1.071482740167e-05 
   26 KSP Residual norm 6.478539607463e-06 
   27 KSP Residual norm 3.665637652126e-06 
   28 KSP Residual norm 2.135736889859e-06 
   29 KSP Residual norm 1.279839968077e-06 
   30 KSP Residual norm 7.383609523678e-07 
   31 KSP Residual norm 4.395823645109e-07 
   32 KSP Residual norm 2.582328338359e-07 
   33 KSP Residual norm 1.487819319157e-07 
   34 KSP Residual norm 8.261296310764e-08 
   35 KSP Residual norm 4.601050913759e-08 
   36 KSP Residual norm 2.623950471310e-08 
   37 KSP Residual norm 1.551873503657e-08 
   38 KSP Residual norm 9.676891805870e-09 
   39 KSP Residual norm 6.154992642824e-09 
   40 KSP Residual norm 3.790875821132e-09 
   41 KSP Residual norm 2.293159733877e-09 
   42 KSP Residual norm 1.338570347103e-09 
   43 KSP Residual norm 7.577421520838e-10 
   44 KSP Residual norm 4.152840912516e-10 
   45 KSP Residual norm 2.373923147277e-10 
   46 KSP Residual norm 1.441248036251e-10 
   47 KSP Residual norm 9.022507079971e-11 
   48 KSP Residual norm 5.723155888208e-11 
   49 KSP Residual norm 3.536999770765e-11 
   50 KSP Residual norm 2.004329048717e-11 
   51 KSP Residual norm 1.087513672102e-11 
  Linear solve converged due to CONVERGED_RTOL iterations 51
SNES Object: 4096 MPI processes
  type: ksponly
  maximum iterations=50, maximum function evaluations=10000
  tolerances: relative=1e-08, absolute=1e-50, solution=1e-08
  total number of linear solver iterations=51
  total number of function evaluations=1
  norm schedule ALWAYS
  Jacobian is never rebuilt
  KSP Object: 4096 MPI processes
    type: cg
    maximum iterations=10000, initial guess is zero
    tolerances:  relative=1e-12, absolute=1e-50, divergence=10000.
    left preconditioning
    using UNPRECONDITIONED norm type for convergence test
  PC Object: 4096 MPI processes
    type: gamg
      type is MULTIPLICATIVE, levels=4 cycles=v
        Cycles per PCApply=1
        Using externally compute Galerkin coarse grid matrices
        GAMG specific options
          Threshold for dropping small values in graph on each level =     0.04     0.01     0.0025     0.000625    
          Threshold scaling factor for each level not specified = 0.25
          AGG specific options
            Number of levels of aggressive coarsening 0
            Number smoothing steps 1
          Complexity:    grid = 1.0412    operator = 1.13806
    Coarse grid solver -- level 0 -------------------------------
      KSP Object: (mg_coarse_) 4096 MPI processes
        type: preonly
        maximum iterations=10000, initial guess is zero
        tolerances:  relative=1e-05, absolute=1e-50, divergence=10000.
        left preconditioning
        using NONE norm type for convergence test
      PC Object: (mg_coarse_) 4096 MPI processes
        type: bjacobi
          number of blocks = 4096
          Local solver information for first block is in the following KSP and PC objects on rank 0:
          Use -mg_coarse_ksp_view ::ascii_info_detail to display information for all blocks
          KSP Object: (mg_coarse_sub_) 1 MPI process
            type: preonly
            maximum iterations=1, initial guess is zero
            tolerances:  relative=1e-05, absolute=1e-50, divergence=10000.
            left preconditioning
            using NONE norm type for convergence test
          PC Object: (mg_coarse_sub_) 1 MPI process
            type: lu
              out-of-place factorization
              tolerance for zero pivot 2.22045e-14
              using diagonal shift on blocks to prevent zero pivot [INBLOCKS]
              matrix ordering: nd
              factor fill ratio given 5., needed 1.86094
                Factored matrix follows:
                  Mat Object: (mg_coarse_sub_) 1 MPI process
                    type: seqaijkokkos
                    rows=983, cols=983
                    package used to perform factorization: kokkos
                    total: nonzeros=801397, allocated nonzeros=801397
                      using I-node routines: found 625 nodes, limit used is 5
            linear system matrix = precond matrix:
            Mat Object: (mg_coarse_sub_) 1 MPI process
              type: seqaijkokkos
              rows=983, cols=983
              total: nonzeros=430641, allocated nonzeros=430641
              total number of mallocs used during MatSetValues calls=0
                not using I-node routines
        linear system matrix = precond matrix:
        Mat Object: 4096 MPI processes
          type: mpiaijkokkos
          rows=983, cols=983
          total: nonzeros=430641, allocated nonzeros=430641
          total number of mallocs used during MatSetValues calls=0
            not using I-node (on process 0) routines
    Down solver (pre-smoother) on level 1 -------------------------------
      KSP Object: (mg_levels_1_) 4096 MPI processes
        type: chebyshev
          Chebyshev polynomial of first kind
          eigenvalue targets used: min 0.24775, max 1.30069
          eigenvalues provided (min 0.0532744, max 1.23875) with transform: [0. 0.2; 0. 1.05]
        maximum iterations=2, nonzero initial guess
        tolerances:  relative=1e-05, absolute=1e-50, divergence=10000.
        left preconditioning
        using NONE norm type for convergence test
      PC Object: (mg_levels_1_) 4096 MPI processes
        type: jacobi
          type DIAGONAL
        linear system matrix = precond matrix:
        Mat Object: 4096 MPI processes
          type: mpiaijkokkos
          rows=26562, cols=26562
          total: nonzeros=12055448, allocated nonzeros=12055448
          total number of mallocs used during MatSetValues calls=0
            not using I-node (on process 0) routines
    Up solver (post-smoother) same as down solver (pre-smoother)
    Down solver (pre-smoother) on level 2 -------------------------------
      KSP Object: (mg_levels_2_) 4096 MPI processes
        type: chebyshev
          Chebyshev polynomial of first kind
          eigenvalue targets used: min 0.267433, max 1.40402
          eigenvalues provided (min 0.0394221, max 1.33717) with transform: [0. 0.2; 0. 1.05]
        maximum iterations=2, nonzero initial guess
        tolerances:  relative=1e-05, absolute=1e-50, divergence=10000.
        left preconditioning
        using NONE norm type for convergence test
      PC Object: (mg_levels_2_) 4096 MPI processes
        type: jacobi
          type DIAGONAL
        linear system matrix = precond matrix:
        Mat Object: 4096 MPI processes
          type: mpiaijkokkos
          rows=655529, cols=655529
          total: nonzeros=131878565, allocated nonzeros=131878565
          total number of mallocs used during MatSetValues calls=0
            not using I-node (on process 0) routines
    Up solver (post-smoother) same as down solver (pre-smoother)
    Down solver (pre-smoother) on level 3 -------------------------------
      KSP Object: (mg_levels_3_) 4096 MPI processes
        type: chebyshev
          Chebyshev polynomial of first kind
          eigenvalue targets used: min 0.507957, max 2.66678
          eigenvalues provided (min 0.0647161, max 2.53979) with transform: [0. 0.2; 0. 1.05]
        maximum iterations=2, nonzero initial guess
        tolerances:  relative=1e-05, absolute=1e-50, divergence=10000.
        left preconditioning
        using NONE norm type for convergence test
      PC Object: (mg_levels_3_) 4096 MPI processes
        type: jacobi
          type DIAGONAL
        linear system matrix = precond matrix:
        Mat Object: 4096 MPI processes
          type: mpiaijkokkos
          rows=16581375, cols=16581375
          total: nonzeros=1045678375, allocated nonzeros=1045678375
          total number of mallocs used during MatSetValues calls=0
            not using I-node (on process 0) routines
    Up solver (post-smoother) same as down solver (pre-smoother)
    linear system matrix = precond matrix:
    Mat Object: 4096 MPI processes
      type: mpiaijkokkos
      rows=16581375, cols=16581375
      total: nonzeros=1045678375, allocated nonzeros=1045678375
      total number of mallocs used during MatSetValues calls=0
        not using I-node (on process 0) routines
    0 KSP Residual norm 1.744425883244e+01 
    1 KSP Residual norm 1.696617838111e+00 
    2 KSP Residual norm 9.410534508062e-01 
    3 KSP Residual norm 6.391182717393e-01 
    4 KSP Residual norm 4.637382104797e-01 
    5 KSP Residual norm 2.876420683944e-01 
    6 KSP Residual norm 1.570912014994e-01 
    7 KSP Residual norm 8.995057373626e-02 
    8 KSP Residual norm 5.498979851515e-02 
    9 KSP Residual norm 3.168485128158e-02 
   10 KSP Residual norm 1.680146464169e-02 
   11 KSP Residual norm 1.008476829816e-02 
   12 KSP Residual norm 6.860688812165e-03 
   13 KSP Residual norm 4.281850851573e-03 
   14 KSP Residual norm 2.665638947574e-03 
   15 KSP Residual norm 1.586339242650e-03 
   16 KSP Residual norm 9.605631239719e-04 
   17 KSP Residual norm 5.804345920813e-04 
   18 KSP Residual norm 3.953608121689e-04 
   19 KSP Residual norm 2.416615597462e-04 
   20 KSP Residual norm 1.317313056946e-04 
   21 KSP Residual norm 7.264238452116e-05 
   22 KSP Residual norm 4.164515137558e-05 
   23 KSP Residual norm 2.578489672470e-05 
   24 KSP Residual norm 1.623060947538e-05 
   25 KSP Residual norm 1.071295896080e-05 
   26 KSP Residual norm 6.477521308412e-06 
   27 KSP Residual norm 3.664893321353e-06 
   28 KSP Residual norm 2.135174348805e-06 
   29 KSP Residual norm 1.279575043002e-06 
   30 KSP Residual norm 7.381930743691e-07 
   31 KSP Residual norm 4.394829212804e-07 
   32 KSP Residual norm 2.581907581293e-07 
   33 KSP Residual norm 1.487455038751e-07 
   34 KSP Residual norm 8.258920013707e-08 
   35 KSP Residual norm 4.598923294185e-08 
   36 KSP Residual norm 2.622407795908e-08 
   37 KSP Residual norm 1.550878966235e-08 
   38 KSP Residual norm 9.670927413589e-09 
   39 KSP Residual norm 6.151394537439e-09 
   40 KSP Residual norm 3.788439920810e-09 
   41 KSP Residual norm 2.291905141932e-09 
   42 KSP Residual norm 1.337686561195e-09 
   43 KSP Residual norm 7.572291234952e-10 
   44 KSP Residual norm 4.149539048707e-10 
   45 KSP Residual norm 2.372039978854e-10 
   46 KSP Residual norm 1.440021540782e-10 
   47 KSP Residual norm 9.014426954153e-11 
   48 KSP Residual norm 5.718594146830e-11 
   49 KSP Residual norm 3.534078914103e-11 
   50 KSP Residual norm 2.002619276882e-11 
   51 KSP Residual norm 1.086552653307e-11 
  Linear solve converged due to CONVERGED_RTOL iterations 51
SNES Object: 4096 MPI processes
  type: ksponly
  maximum iterations=50, maximum function evaluations=10000
  tolerances: relative=1e-08, absolute=1e-50, solution=1e-08
  total number of linear solver iterations=51
  total number of function evaluations=1
  norm schedule ALWAYS
  Jacobian is never rebuilt
  KSP Object: 4096 MPI processes
    type: cg
    maximum iterations=10000, initial guess is zero
    tolerances:  relative=1e-12, absolute=1e-50, divergence=10000.
    left preconditioning
    using UNPRECONDITIONED norm type for convergence test
  PC Object: 4096 MPI processes
    type: gamg
      type is MULTIPLICATIVE, levels=4 cycles=v
        Cycles per PCApply=1
        Using externally compute Galerkin coarse grid matrices
        GAMG specific options
          Threshold for dropping small values in graph on each level =     0.04     0.01     0.0025     0.000625    
          Threshold scaling factor for each level not specified = 0.25
          AGG specific options
            Number of levels of aggressive coarsening 0
            Number smoothing steps 1
          Complexity:    grid = 1.0412    operator = 1.13806
    Coarse grid solver -- level 0 -------------------------------
      KSP Object: (mg_coarse_) 4096 MPI processes
        type: preonly
        maximum iterations=10000, initial guess is zero
        tolerances:  relative=1e-05, absolute=1e-50, divergence=10000.
        left preconditioning
        using NONE norm type for convergence test
      PC Object: (mg_coarse_) 4096 MPI processes
        type: bjacobi
          number of blocks = 4096
          Local solver information for first block is in the following KSP and PC objects on rank 0:
          Use -mg_coarse_ksp_view ::ascii_info_detail to display information for all blocks
          KSP Object: (mg_coarse_sub_) 1 MPI process
            type: preonly
            maximum iterations=1, initial guess is zero
            tolerances:  relative=1e-05, absolute=1e-50, divergence=10000.
            left preconditioning
            using NONE norm type for convergence test
          PC Object: (mg_coarse_sub_) 1 MPI process
            type: lu
              out-of-place factorization
              tolerance for zero pivot 2.22045e-14
              using diagonal shift on blocks to prevent zero pivot [INBLOCKS]
              matrix ordering: nd
              factor fill ratio given 5., needed 1.86094
                Factored matrix follows:
                  Mat Object: (mg_coarse_sub_) 1 MPI process
                    type: seqaijkokkos
                    rows=983, cols=983
                    package used to perform factorization: kokkos
                    total: nonzeros=801397, allocated nonzeros=801397
                      using I-node routines: found 625 nodes, limit used is 5
            linear system matrix = precond matrix:
            Mat Object: (mg_coarse_sub_) 1 MPI process
              type: seqaijkokkos
              rows=983, cols=983
              total: nonzeros=430641, allocated nonzeros=430641
              total number of mallocs used during MatSetValues calls=0
                not using I-node routines
        linear system matrix = precond matrix:
        Mat Object: 4096 MPI processes
          type: mpiaijkokkos
          rows=983, cols=983
          total: nonzeros=430641, allocated nonzeros=430641
          total number of mallocs used during MatSetValues calls=0
            not using I-node (on process 0) routines
    Down solver (pre-smoother) on level 1 -------------------------------
      KSP Object: (mg_levels_1_) 4096 MPI processes
        type: chebyshev
          Chebyshev polynomial of first kind
          eigenvalue targets used: min 0.24775, max 1.30069
          eigenvalues provided (min 0.0532744, max 1.23875) with transform: [0. 0.2; 0. 1.05]
        maximum iterations=2, nonzero initial guess
        tolerances:  relative=1e-05, absolute=1e-50, divergence=10000.
        left preconditioning
        using NONE norm type for convergence test
      PC Object: (mg_levels_1_) 4096 MPI processes
        type: jacobi
          type DIAGONAL
        linear system matrix = precond matrix:
        Mat Object: 4096 MPI processes
          type: mpiaijkokkos
          rows=26562, cols=26562
          total: nonzeros=12055448, allocated nonzeros=12055448
          total number of mallocs used during MatSetValues calls=0
            not using I-node (on process 0) routines
    Up solver (post-smoother) same as down solver (pre-smoother)
    Down solver (pre-smoother) on level 2 -------------------------------
      KSP Object: (mg_levels_2_) 4096 MPI processes
        type: chebyshev
          Chebyshev polynomial of first kind
          eigenvalue targets used: min 0.267433, max 1.40402
          eigenvalues provided (min 0.0394221, max 1.33717) with transform: [0. 0.2; 0. 1.05]
        maximum iterations=2, nonzero initial guess
        tolerances:  relative=1e-05, absolute=1e-50, divergence=10000.
        left preconditioning
        using NONE norm type for convergence test
      PC Object: (mg_levels_2_) 4096 MPI processes
        type: jacobi
          type DIAGONAL
        linear system matrix = precond matrix:
        Mat Object: 4096 MPI processes
          type: mpiaijkokkos
          rows=655529, cols=655529
          total: nonzeros=131878565, allocated nonzeros=131878565
          total number of mallocs used during MatSetValues calls=0
            not using I-node (on process 0) routines
    Up solver (post-smoother) same as down solver (pre-smoother)
    Down solver (pre-smoother) on level 3 -------------------------------
      KSP Object: (mg_levels_3_) 4096 MPI processes
        type: chebyshev
          Chebyshev polynomial of first kind
          eigenvalue targets used: min 0.507957, max 2.66678
          eigenvalues provided (min 0.0647161, max 2.53979) with transform: [0. 0.2; 0. 1.05]
        maximum iterations=2, nonzero initial guess
        tolerances:  relative=1e-05, absolute=1e-50, divergence=10000.
        left preconditioning
        using NONE norm type for convergence test
      PC Object: (mg_levels_3_) 4096 MPI processes
        type: jacobi
          type DIAGONAL
        linear system matrix = precond matrix:
        Mat Object: 4096 MPI processes
          type: mpiaijkokkos
          rows=16581375, cols=16581375
          total: nonzeros=1045678375, allocated nonzeros=1045678375
          total number of mallocs used during MatSetValues calls=0
            not using I-node (on process 0) routines
    Up solver (post-smoother) same as down solver (pre-smoother)
    linear system matrix = precond matrix:
    Mat Object: 4096 MPI processes
      type: mpiaijkokkos
      rows=16581375, cols=16581375
      total: nonzeros=1045678375, allocated nonzeros=1045678375
      total number of mallocs used during MatSetValues calls=0
        not using I-node (on process 0) routines
****************************************************************************************************************************************************************
***                                WIDEN YOUR WINDOW TO 160 CHARACTERS.  Use 'enscript -r -fCourier9' to print this document                                 ***
****************************************************************************************************************************************************************

------------------------------------------------------------------ PETSc Performance Summary: ------------------------------------------------------------------

/lustre/orion/csc314/scratch/adams/petsc/src/snes/tests/data/../ex13 on a arch-olcf-crusher-kok named frontier00055 with 4096 processors, by adams Fri Feb  9 08:14:56 2024
Using Petsc Development GIT revision: v3.20.4-590-g26f22146603  GIT Date: 2024-02-07 12:58:08 -0500

                         Max       Max/Min     Avg       Total
Time (sec):           4.587e+01     1.000   4.587e+01
Objects:              0.000e+00     0.000   0.000e+00
Flops:                8.454e+08     3.081   3.566e+08  1.461e+12
Flops/sec:            1.843e+07     3.081   7.774e+06  3.184e+10
MPI Msg Count:        7.329e+05     7.062   2.240e+05  9.173e+08
MPI Msg Len (bytes):  2.334e+08     2.131   8.963e+02  8.222e+11
MPI Reductions:       2.997e+04     1.000

Flop counting convention: 1 flop = 1 real number operation of type (multiply/divide/add/subtract)
                            e.g., VecAXPY() for real vectors of length N --> 2N flops
                            and VecAXPY() for complex vectors of length N --> 8N flops

Summary of Stages:   ----- Time ------  ----- Flop ------  --- Messages ---  -- Message Lengths --  -- Reductions --
                        Avg     %Total     Avg     %Total    Count   %Total     Avg         %Total    Count   %Total
 0:      Main Stage: 4.5275e+01  98.7%  7.7293e+11  52.9%  8.649e+08  94.3%  9.163e+02       96.4%  2.974e+04  99.2%
 1:      Solve only: 5.9389e-01   1.3%  6.8767e+11  47.1%  5.245e+07   5.7%  5.661e+02        3.6%  2.160e+02   0.7%

------------------------------------------------------------------------------------------------------------------------
See the 'Profiling' chapter of the users' manual for details on interpreting output.
Phase summary info:
   Count: number of times phase was executed
   Time and Flop: Max - maximum over all processors
                  Ratio - ratio of maximum to minimum over all processors
   Mess: number of messages sent
   AvgLen: average message length (bytes)
   Reduct: number of global reductions
   Global: entire computation
   Stage: stages of a computation. Set stages with PetscLogStagePush() and PetscLogStagePop().
      %T - percent time in this phase         %F - percent flop in this phase
      %M - percent messages in this phase     %L - percent message lengths in this phase
      %R - percent reductions in this phase
   Total Mflop/s: 10e-6 * (sum of flop over all processors)/(max time over all processors)
   GPU Mflop/s: 10e-6 * (sum of flop on GPU over all processors)/(max GPU time over all processors)
   CpuToGpu Count: total number of CPU to GPU copies per processor
   CpuToGpu Size (Mbytes): 10e-6 * (total size of CPU to GPU copies per processor)
   GpuToCpu Count: total number of GPU to CPU copies per processor
   GpuToCpu Size (Mbytes): 10e-6 * (total size of GPU to CPU copies per processor)
   GPU %F: percent flops on GPU in this event
------------------------------------------------------------------------------------------------------------------------
Event                Count      Time (sec)     Flop                              --- Global ---  --- Stage ----  Total   GPU    - CpuToGpu -   - GpuToCpu - GPU
                   Max Ratio  Max     Ratio   Max  Ratio  Mess   AvgLen  Reduct  %T %F %M %L %R  %T %F %M %L %R Mflop/s Mflop/s Count   Size   Count   Size  %F
---------------------------------------------------------------------------------------------------------------------------------------------------------------

--- Event Stage 0: Main Stage

BuildTwoSided      12386 1.0 8.7313e+00 3.1 0.00e+00 0.0 7.1e+07 8.0e+00 0.0e+00 16  0  8  0  0  16  0  8  0  0     0       0      0 0.00e+00    0 0.00e+00  0
BuildTwoSidedF       468 1.0 1.5342e+00 11.2 0.00e+00 0.0 4.7e+05 8.8e+03 0.0e+00  3  0  0  1  0   3  0  0  1  0     0       0      0 0.00e+00    0 0.00e+00  0
MatMult             1031 1.5 8.9149e-01 9.8 2.09e+08 1.9 4.5e+07 6.6e+02 0.0e+00  1 42  5  4  0   1 80  5  4  0 690771       0      2 2.92e-02    0 0.00e+00  100
MatMultAdd           153 1.0 6.0932e-02 2.8 6.02e+06 1.8 4.4e+06 1.1e+02 0.0e+00  0  1  0  0  0   0  2  1  0  0 315366       0      0 0.00e+00    0 0.00e+00  100
MatMultTranspose     153 1.0 6.9156e-01 58.0 6.20e+06 1.8 4.4e+06 1.1e+02 0.0e+00  0  1  0  0  0   0  2  1  0  0 27876       0      1 2.36e-03    0 0.00e+00  100
MatSolve              51 0.0 3.0302e-02 0.0 8.17e+07 0.0 0.0e+00 0.0e+00 0.0e+00  0  0  0  0  0   0  0  0  0  0  2696       0      0 0.00e+00    0 0.00e+00  0
MatLUFactorSym         1 1.0 8.3511e-02 6831.8 0.00e+00 0.0 0.0e+00 0.0e+00 0.0e+00  0  0  0  0  0   0  0  0  0  0     0       0      0 0.00e+00    0 0.00e+00  0
MatLUFactorNum         1 1.0 1.9588e-01 42693.9 4.03e+08 0.0 0.0e+00 0.0e+00 0.0e+00  0  0  0  0  0   0  0  0  0  0  2056       0      0 0.00e+00    0 0.00e+00  0
MatConvert            12 1.0 1.9550e+00 21.8 0.00e+00 0.0 1.0e+06 4.2e+02 2.1e+01  2  0  0  0  0   2  0  0  0  0     0       0      0 0.00e+00    0 0.00e+00  0
MatScale              24 1.0 3.8774e+00 4.3 1.17e+06 1.9 9.1e+05 2.8e+02 0.0e+00  4  0  0  0  0   5  0  0  0  0   892       0      2 2.92e-02    0 0.00e+00  80
MatResidual          153 1.0 7.5993e-01 38.0 4.38e+07 2.0 9.7e+06 6.3e+02 0.0e+00  1  8  1  1  0   1 16  1  1  0 161990       0      0 0.00e+00    0 0.00e+00  100
MatAssemblyBegin    4896 1.0 1.3738e+00 29.1 0.00e+00 0.0 4.7e+05 8.8e+03 0.0e+00  3  0  0  1  0   3  0  0  1  0     0       0      0 0.00e+00    0 0.00e+00  0
MatAssemblyEnd      4896 1.0 1.1304e+00 5.0 4.31e+04 0.0 3.7e+06 1.3e+02 2.2e+02  2  0  0  0  1   2  0  0  0  1   136       0      0 0.00e+00    0 0.00e+00  0
MatGetRowIJ            1 0.0 1.4749e-03 0.0 0.00e+00 0.0 0.0e+00 0.0e+00 0.0e+00  0  0  0  0  0   0  0  0  0  0     0       0      0 0.00e+00    0 0.00e+00  0
MatCreateSubMat        4 1.0 8.4288e-02 1.0 0.00e+00 0.0 5.5e+04 3.6e+03 5.2e+01  0  0  0  0  0   0  0  0  0  0     0       0      0 0.00e+00    0 0.00e+00  0
MatGetOrdering         1 0.0 4.3805e-03 0.0 0.00e+00 0.0 0.0e+00 0.0e+00 0.0e+00  0  0  0  0  0   0  0  0  0  0     0       0      0 0.00e+00    0 0.00e+00  0
MatCoarsen             3 1.0 6.0871e+00 1.0 8.90e+05 1.7 3.5e+07 1.9e+02 4.6e+02 13  0  4  1  2  13  0  4  1  2   505       0      0 0.00e+00    0 0.00e+00  0
MatZeroEntries        16 1.0 1.7307e-03 12.9 0.00e+00 0.0 0.0e+00 0.0e+00 0.0e+00  0  0  0  0  0   0  0  0  0  0     0       0      0 0.00e+00    0 0.00e+00  0
MatView                7 1.4 1.4374e-01 83.6 0.00e+00 0.0 0.0e+00 0.0e+00 5.0e+00  0  0  0  0  0   0  0  0  0  0     0       0      0 0.00e+00    0 0.00e+00  0
MatAXPY                3 1.0 1.3311e+00 108.7 4.61e+03 1.3 0.0e+00 0.0e+00 0.0e+00  3  0  0  0  0   3  0  0  0  0    13       0      0 0.00e+00    0 0.00e+00  0
MatTranspose          30 1.0 2.7423e-03 3.2 0.00e+00 0.0 0.0e+00 0.0e+00 0.0e+00  0  0  0  0  0   0  0  0  0  0     0       0      0 0.00e+00    0 0.00e+00  0
MatMatMultSym         33 1.0 1.2869e+00 1.0 0.00e+00 0.0 1.3e+06 3.7e+02 1.8e+01  3  0  0  0  0   3  0  0  0  0     0       0      0 0.00e+00    0 0.00e+00  0
MatMatMultNum         13 1.0 1.3749e-03 3.0 4.45e+04 0.0 0.0e+00 0.0e+00 0.0e+00  0  0  0  0  0   0  0  0  0  0  2620       0      0 0.00e+00    0 0.00e+00  0
MatPtAPSymbolic       18 1.0 4.1463e-01 1.0 0.00e+00 0.0 6.2e+06 1.8e+03 1.4e+02  1  0  1  1  0   1  0  1  1  0     0       0      0 0.00e+00    0 0.00e+00  0
MatPtAPNumeric        18 1.0 4.7470e-02 1.1 6.88e+05 1.6 1.3e+06 6.7e+02 6.0e+01  0  0  0  0  0   0  0  0  0  0 49978       0      0 0.00e+00    0 0.00e+00  0
MatGetLocalMat        15 1.0 1.4495e-03 2.2 0.00e+00 0.0 0.0e+00 0.0e+00 0.0e+00  0  0  0  0  0   0  0  0  0  0     0       0      0 0.00e+00    0 0.00e+00  0
MatGetBrAoCol         15 1.0 9.3877e-03 4.1 0.00e+00 0.0 2.1e+06 3.0e+02 0.0e+00  0  0  0  0  0   0  0  0  0  0     0       0      0 0.00e+00    0 0.00e+00  0
MatSetPreallCOO       20 1.0 1.0371e-03 16.8 0.00e+00 0.0 0.0e+00 0.0e+00 0.0e+00  0  0  0  0  0   0  0  0  0  0     0       0      0 0.00e+00    0 0.00e+00  0
MatSetValuesCOO       20 1.0 5.0148e-05 1.9 0.00e+00 0.0 0.0e+00 0.0e+00 0.0e+00  0  0  0  0  0   0  0  0  0  0     0       0      0 0.00e+00    0 0.00e+00  0
KSPSetUp               9 1.0 1.8182e-03 5.5 0.00e+00 0.0 0.0e+00 0.0e+00 0.0e+00  0  0  0  0  0   0  0  0  0  0     0       0      0 0.00e+00    0 0.00e+00  0
KSPSolve               1 1.0 3.3066e+00 1.0 6.08e+08 5.0 5.2e+07 5.7e+02 2.1e+02  7 45  6  4  1   7 86  6  4  1 200840       0      1 2.36e-03    0 0.00e+00  100
SNESSolve              1 1.0 1.8965e+01 1.0 6.33e+08 4.3 9.6e+07 5.5e+02 9.2e+02 41 53 10  6  3  42 100 11  7  3 40645       0      8 1.05e-01    0 0.00e+00  90
SNESSetUp              1 1.0 1.7396e-01 1.0 0.00e+00 0.0 5.8e+05 1.8e+04 1.6e+01  0  0  0  1  0   0  0  0  1  0     0       0      0 0.00e+00    0 0.00e+00  0
SNESFunctionEval       1 1.0 6.4660e-01 1.5 6.74e+06 1.0 9.0e+04 8.3e+02 2.0e+00  1  2  0  0  0   1  3  0  0  0 41394       0      3 4.45e-02    0 0.00e+00  0
SNESJacobianEval       1 1.0 5.7704e-01 1.8 1.20e+07 1.0 6.4e+04 5.2e+04 1.0e+00  1  3  0  0  0   1  6  0  0  0 83738       0      0 0.00e+00    0 0.00e+00  0
DMRefine               3 1.0 2.4939e-02 1.1 0.00e+00 0.0 5.7e+05 1.7e+02 3.2e+01  0  0  0  0  0   0  0  0  0  0     0       0      0 0.00e+00    0 0.00e+00  0
DMCreateMat            1 1.0 1.6679e-01 1.0 0.00e+00 0.0 5.8e+05 1.8e+04 1.3e+01  0  0  0  1  0   0  0  0  1  0     0       0      0 0.00e+00    0 0.00e+00  0
DMPlexCrFromOpts       1 1.0 2.8877e-02 1.4 0.00e+00 0.0 0.0e+00 0.0e+00 1.0e+00  0  0  0  0  0   0  0  0  0  0     0       0      0 0.00e+00    0 0.00e+00  0
Mesh Partition         1 1.0 2.5638e-01 1.1 0.00e+00 0.0 1.6e+04 2.7e+02 6.0e+00  1  0  0  0  0   1  0  0  0  0     0       0      0 0.00e+00    0 0.00e+00  0
Mesh Migration         1 1.0 1.6982e+01 1.0 0.00e+00 0.0 9.5e+04 1.9e+02 2.7e+01 37  0  0  0  0  37  0  0  0  0     0       0      0 0.00e+00    0 0.00e+00  0
DMPlexPartSelf         1 1.0 3.9506e-02 1452.8 0.00e+00 0.0 0.0e+00 0.0e+00 0.0e+00  0  0  0  0  0   0  0  0  0  0     0       0      0 0.00e+00    0 0.00e+00  0
DMPlexPartLblInv       1 1.0 6.9631e-02 2.3 0.00e+00 0.0 0.0e+00 0.0e+00 3.0e+00  0  0  0  0  0   0  0  0  0  0     0       0      0 0.00e+00    0 0.00e+00  0
DMPlexPartLblSF        1 1.0 8.2845e-02 1.4 0.00e+00 0.0 6.1e+03 1.5e+02 0.0e+00  0  0  0  0  0   0  0  0  0  0     0       0      0 0.00e+00    0 0.00e+00  0
DMPlexPartStrtSF       1 1.0 4.8322e-02 2.1 0.00e+00 0.0 4.1e+03 4.3e+02 0.0e+00  0  0  0  0  0   0  0  0  0  0     0       0      0 0.00e+00    0 0.00e+00  0
DMPlexPointSF          1 1.0 1.1417e-01 1.0 0.00e+00 0.0 8.2e+03 5.4e+02 0.0e+00  0  0  0  0  0   0  0  0  0  0     0       0      0 0.00e+00    0 0.00e+00  0
DMPlexInterp          30 1.0 1.2175e-02 12.4 0.00e+00 0.0 0.0e+00 0.0e+00 0.0e+00  0  0  0  0  0   0  0  0  0  0     0       0      0 0.00e+00    0 0.00e+00  0
DMPlexDistribute       1 1.0 1.7357e+01 1.0 0.00e+00 0.0 1.2e+05 2.2e+02 3.6e+01 38  0  0  0  0  38  0  0  0  0     0       0      0 0.00e+00    0 0.00e+00  0
DMPlexDistCones        1 1.0 6.5026e-02 1.0 0.00e+00 0.0 2.3e+04 3.1e+02 1.0e+00  0  0  0  0  0   0  0  0  0  0     0       0      0 0.00e+00    0 0.00e+00  0
DMPlexDistLabels       1 1.0 9.9856e-02 1.0 0.00e+00 0.0 4.2e+04 1.8e+02 2.1e+01  0  0  0  0  0   0  0  0  0  0     0       0      0 0.00e+00    0 0.00e+00  0
DMPlexDistField        1 1.0 1.6808e+01 1.0 0.00e+00 0.0 2.7e+04 9.3e+01 1.0e+00 37  0  0  0  0  37  0  0  0  0     0       0      0 0.00e+00    0 0.00e+00  0
DMPlexStratify        48 1.0 2.1063e-02 4.6 0.00e+00 0.0 0.0e+00 0.0e+00 5.0e+00  0  0  0  0  0   0  0  0  0  0     0       0      0 0.00e+00    0 0.00e+00  0
DMPlexSymmetrize      48 1.0 1.9800e-03 9.1 0.00e+00 0.0 0.0e+00 0.0e+00 0.0e+00  0  0  0  0  0   0  0  0  0  0     0       0      0 0.00e+00    0 0.00e+00  0
DMPlexPrealloc         1 1.0 1.6202e-01 1.0 0.00e+00 0.0 5.8e+05 1.8e+04 1.1e+01  0  0  0  1  0   0  0  0  1  0     0       0      0 0.00e+00    0 0.00e+00  0
DMPlexResidualFE       1 1.0 2.7316e-02 1.8 6.50e+06 1.0 0.0e+00 0.0e+00 0.0e+00  0  2  0  0  0   0  3  0  0  0 974251       0      0 0.00e+00    0 0.00e+00  0
DMPlexJacobianFE       1 1.0 5.1576e-01 1.6 1.18e+07 1.0 3.9e+04 8.6e+04 1.0e+00  1  3  0  0  0   1  6  0  0  0 93399       0      0 0.00e+00    0 0.00e+00  0
DMPlexGenerate         1 1.0 2.7846e-02 1.4 0.00e+00 0.0 0.0e+00 0.0e+00 1.0e+00  0  0  0  0  0   0  0  0  0  0     0       0      0 0.00e+00    0 0.00e+00  0
DMPlexTransform        3 1.0 1.9974e-02 1.3 0.00e+00 0.0 5.7e+05 1.7e+02 1.4e+01  0  0  0  0  0   0  0  0  0  0     0       0      0 0.00e+00    0 0.00e+00  0
SFSetGraph         12393 1.0 7.8633e-03 3.8 0.00e+00 0.0 0.0e+00 0.0e+00 0.0e+00  0  0  0  0  0   0  0  0  0  0     0       0      0 0.00e+00    0 0.00e+00  0
SFSetUp            12386 1.0 9.1447e+00 2.9 0.00e+00 0.0 2.1e+08 5.4e+02 0.0e+00 17  0 23 14  0  17  0 25 14  0     0       0      0 0.00e+00    0 0.00e+00  0
SFBcastBegin       24645 1.0 1.0227e+00 1.9 0.00e+00 0.0 4.6e+08 9.2e+02 0.0e+00  2  0 50 51  0   2  0 53 53  0     0       0      2 3.84e-02    0 0.00e+00  0
SFBcastEnd         24645 1.0 1.6027e+00 7.2 0.00e+00 0.0 0.0e+00 0.0e+00 0.0e+00  2  0  0  0  0   2  0  0  0  0     0       0      1 6.06e-03    0 0.00e+00  0
SFReduceBegin       4114 1.0 1.6901e-01 9.2 0.00e+00 0.0 1.1e+08 2.0e+03 0.0e+00  0  0 12 26  0   0  0 12 27  0     0       0      0 0.00e+00    0 0.00e+00  0
SFReduceEnd         4114 1.0 3.5586e-01 33.1 8.17e+02 0.0 0.0e+00 0.0e+00 0.0e+00  0  0  0  0  0   0  0  0  0  0     9       0      0 0.00e+00    0 0.00e+00  100
SFFetchOpBegin         2 1.0 6.7562e-04 99.0 0.00e+00 0.0 5.1e+04 2.2e+04 0.0e+00  0  0  0  0  0   0  0  0  0  0     0       0      0 0.00e+00    0 0.00e+00  0
SFFetchOpEnd           2 1.0 5.8550e-03 6.8 0.00e+00 0.0 5.1e+04 2.2e+04 0.0e+00  0  0  0  0  0   0  0  0  0  0     0       0      0 0.00e+00    0 0.00e+00  0
SFCreateEmbed          6 1.0 9.6279e-03 8.9 0.00e+00 0.0 1.3e+05 5.7e+01 0.0e+00  0  0  0  0  0   0  0  0  0  0     0       0      0 0.00e+00    0 0.00e+00  0
SFDistSection       8199 1.0 2.9057e+00 1.3 0.00e+00 0.0 5.8e+08 8.9e+02 8.2e+03  6  0 63 63 27   6  0 67 65 28     0       0      0 0.00e+00    0 0.00e+00  0
SFSectionSF         8204 1.0 6.7494e+00 4.2 0.00e+00 0.0 5.0e+07 8.8e+01 0.0e+00 13  0  5  1  0  13  0  6  1  0     0       0      0 0.00e+00    0 0.00e+00  0
SFRemoteOff            5 1.0 6.4093e-03 4.8 0.00e+00 0.0 3.3e+05 2.3e+02 0.0e+00  0  0  0  0  0   0  0  0  0  0     0       0      0 0.00e+00    0 0.00e+00  0
SFPack             30197 1.0 6.8404e-01 13.7 0.00e+00 0.0 0.0e+00 0.0e+00 0.0e+00  1  0  0  0  0   1  0  0  0  0     0       0      5 6.45e-02    0 0.00e+00  0
SFUnpack           30199 1.0 1.0278e-01 13.3 9.52e+05 385.5 0.0e+00 0.0e+00 0.0e+00  0  0  0  0  0   0  0  0  0  0   630       0      2 8.42e-03    0 0.00e+00  100
VecTDot              173 1.0 1.8159e+00 21.9 1.06e+06 1.2 0.0e+00 0.0e+00 1.7e+02  3  0  0  0  1   3  1  0  0  1  2337       0      0 0.00e+00    0 0.00e+00  100
VecNorm               52 1.0 1.6286e+00 1.0 4.26e+05 1.2 0.0e+00 0.0e+00 5.2e+01  4  0  0  0  0   4  0  0  0  0  1059       0      0 0.00e+00    0 0.00e+00  100
VecCopy              468 1.0 5.4945e-02 2.0 0.00e+00 0.0 0.0e+00 0.0e+00 0.0e+00  0  0  0  0  0   0  0  0  0  0     0       0      0 0.00e+00    0 0.00e+00  0
VecSet               206 1.0 1.3494e-02 2.6 0.00e+00 0.0 0.0e+00 0.0e+00 0.0e+00  0  0  0  0  0   0  0  0  0  0     0       0      0 0.00e+00    0 0.00e+00  0
VecAXPY              163 1.0 1.9512e+00 8.3 1.03e+06 1.2 0.0e+00 0.0e+00 0.0e+00  1  0  0  0  0   1  1  0  0  0  2104       0      0 0.00e+00    0 0.00e+00  100
VecAYPX              995 1.0 6.1319e-03 2.3 3.31e+06 1.3 0.0e+00 0.0e+00 0.0e+00  0  1  0  0  0   0  2  0  0  0 2044078       0      0 0.00e+00    0 0.00e+00  100
VecAXPBYCZ           306 1.0 9.8450e-01 3.9 2.35e+06 1.3 0.0e+00 0.0e+00 0.0e+00  1  1  0  0  0   1  1  0  0  0  8943       0      0 0.00e+00    0 0.00e+00  100
VecAssemblyBegin     419 1.0 1.7835e-01 3.2 0.00e+00 0.0 0.0e+00 0.0e+00 0.0e+00  0  0  0  0  0   0  0  0  0  0     0       0      0 0.00e+00    0 0.00e+00  0
VecAssemblyEnd       419 1.0 5.9361e-03 23.8 0.00e+00 0.0 0.0e+00 0.0e+00 0.0e+00  0  0  0  0  0   0  0  0  0  0     0       0      0 0.00e+00    0 0.00e+00  0
VecPointwiseMult     645 1.0 4.5250e-03 2.8 9.91e+05 1.3 0.0e+00 0.0e+00 0.0e+00  0  0  0  0  0   0  0  0  0  0 820250       0      0 0.00e+00    0 0.00e+00  100
VecScatterBegin     1436 1.0 2.4572e+00 55.4 0.00e+00 0.0 7.4e+07 4.8e+02 0.0e+00  2  0  8  4  0   2  0  9  5  0     0       0      4 5.84e-02    0 0.00e+00  0
VecScatterEnd       1436 1.0 3.1858e+00 32.7 9.52e+05 424.2 0.0e+00 0.0e+00 0.0e+00  3  0  0  0  0   3  0  0  0  0    19       0      1 2.36e-03    0 0.00e+00  100
DualSpaceSetUp         5 1.0 7.7454e-02 5.5 3.13e+03 1.0 0.0e+00 0.0e+00 0.0e+00  0  0  0  0  0   0  0  0  0  0   166       0      0 0.00e+00    0 0.00e+00  0
FESetUp                5 1.0 1.9544e-01 12.9 0.00e+00 0.0 0.0e+00 0.0e+00 0.0e+00  0  0  0  0  0   0  0  0  0  0     0       0      0 0.00e+00    0 0.00e+00  0
PCSetUp_GAMG+          1 1.0 1.4691e+01 1.0 1.09e+07 1.9 4.3e+07 4.5e+02 7.1e+02 32  2  5  2  2  32  4  5  2  2  2153       0      4 5.84e-02    0 0.00e+00  90
 PCGAMGCreateG         3 1.0 3.2403e+00 1.0 8.50e+05 2.0 7.6e+05 4.7e+02 0.0e+00  7  0  0  0  0   7  0  0  0  0   734       0      2 2.92e-02    0 0.00e+00  100
 GAMG Coarsen          6 1.0 6.0903e+00 1.0 8.90e+05 1.7 3.5e+07 1.9e+02 4.6e+02 13  0  4  1  2  13  0  4  1  2   505       0      0 0.00e+00    0 0.00e+00  0
  GAMG MIS/Agg         3 1.0 6.0871e+00 1.0 8.90e+05 1.7 3.5e+07 1.9e+02 4.6e+02 13  0  4  1  2  13  0  4  1  2   505       0      0 0.00e+00    0 0.00e+00  0
 PCGAMGProl            3 1.0 1.5771e-02 1.1 0.00e+00 0.0 2.6e+05 8.4e+02 2.4e+01  0  0  0  0  0   0  0  0  0  0     0       0      0 0.00e+00    0 0.00e+00  0
  GAMG Prol-col        3 1.0 3.9174e-03 1.2 0.00e+00 0.0 1.0e+05 8.2e+02 0.0e+00  0  0  0  0  0   0  0  0  0  0     0       0      0 0.00e+00    0 0.00e+00  0
  GAMG Prol-lift       3 1.0 8.0105e-03 1.0 0.00e+00 0.0 1.6e+05 8.5e+02 1.2e+01  0  0  0  0  0   0  0  0  0  0     0       0      0 0.00e+00    0 0.00e+00  0
 PCGAMGOptProl         3 1.0 4.8445e+00 1.0 9.15e+06 1.9 3.2e+06 5.2e+02 8.7e+01 11  2  0  0  0  11  3  0  0  0  5402       0      2 2.92e-02    0 0.00e+00  100
  GAMG smooth          3 1.0 2.8553e+00 1.0 1.22e+05 1.8 1.3e+06 3.7e+02 1.8e+01  6  0  0  0  0   6  0  0  0  0   138       0      0 0.00e+00    0 0.00e+00  96
 PCGAMGCreateL         3 1.0 4.4282e-01 1.0 0.00e+00 0.0 3.8e+06 2.8e+03 1.4e+02  1  0  0  1  0   1  0  0  1  0     0       0      0 0.00e+00    0 0.00e+00  0
  GAMG PtAP            3 1.0 3.2310e-01 1.0 0.00e+00 0.0 3.7e+06 2.8e+03 3.6e+01  1  0  0  1  0   1  0  0  1  0     0       0      0 0.00e+00    0 0.00e+00  0
  GAMG Reduce          3 1.0 1.2016e-01 1.0 0.00e+00 0.0 7.7e+04 2.6e+03 1.0e+02  0  0  0  0  0   0  0  0  0  0     0       0      0 0.00e+00    0 0.00e+00  0
PCGAMG Gal l00         1 1.0 1.3512e-01 1.0 0.00e+00 0.0 1.2e+06 4.8e+03 1.2e+01  0  0  0  1  0   0  0  0  1  0     0       0      0 0.00e+00    0 0.00e+00  0
PCGAMG Opt l00         1 1.0 1.2256e+00 1.0 0.00e+00 0.0 6.1e+05 5.6e+02 6.0e+00  3  0  0  0  0   3  0  0  0  0     0       0      0 0.00e+00    0 0.00e+00  0
PCGAMG Gal l01         1 1.0 1.0394e-01 1.0 0.00e+00 0.0 2.5e+06 1.8e+03 1.2e+01  0  0  0  1  0   0  0  0  1  0     0       0      0 0.00e+00    0 0.00e+00  0
PCGAMG Opt l01         1 1.0 2.9268e-02 1.0 0.00e+00 0.0 6.8e+05 2.1e+02 6.0e+00  0  0  0  0  0   0  0  0  0  0     0       0      0 0.00e+00    0 0.00e+00  0
PCGAMG Gal l02         1 1.0 8.4298e-02 1.0 0.00e+00 0.0 6.8e+04 5.6e+03 1.2e+01  0  0  0  0  0   0  0  0  0  0     0       0      0 0.00e+00    0 0.00e+00  0
PCGAMG Opt l02         1 1.0 2.7500e-02 1.0 0.00e+00 0.0 2.5e+04 3.4e+02 6.0e+00  0  0  0  0  0   0  0  0  0  0     0       0      0 0.00e+00    0 0.00e+00  0
PCSetUp                2 1.0 1.4975e+01 1.0 4.09e+08 71.0 4.3e+07 4.5e+02 7.1e+02 32  2  5  2  2  32  4  5  2  2  2139       0      4 5.84e-02    0 0.00e+00  89
PCSetUpOnBlocks       51 1.0 2.8386e-01 3311.2 4.03e+08 0.0 0.0e+00 0.0e+00 0.0e+00  0  0  0  0  0   0  0  0  0  0  1418       0      0 0.00e+00    0 0.00e+00  0
PCApply               51 1.0 1.6152e+00 1.0 5.87e+08 5.9 4.8e+07 5.3e+02 5.1e+01  3 37  5  3  0   4 71  6  3  0 338804       0      1 2.36e-03    0 0.00e+00  100

--- Event Stage 1: Solve only

MatMult              832 1.3 2.4621e-01 2.9 2.00e+08 1.9 4.4e+07 6.6e+02 0.0e+00  0 41  5  3  0  20 86 83 97  0 2404573       0      0 0.00e+00    0 0.00e+00  100
MatMultAdd           153 1.0 6.5275e-02 3.0 6.02e+06 1.8 4.4e+06 1.1e+02 0.0e+00  0  1  0  0  0   9  3  8  2  0 294385       0      0 0.00e+00    0 0.00e+00  100
MatMultTranspose     153 1.0 8.1543e-02 7.2 6.20e+06 1.8 4.4e+06 1.1e+02 0.0e+00  0  1  0  0  0   3  3  8  2  0 236412       0      0 0.00e+00    0 0.00e+00  100
MatSolve              51 0.0 3.0145e-02 0.0 8.17e+07 0.0 0.0e+00 0.0e+00 0.0e+00  0  0  0  0  0   0  0  0  0  0  2710       0      0 0.00e+00    0 0.00e+00  0
MatResidual          153 1.0 1.0098e-01 5.2 4.38e+07 2.0 9.7e+06 6.3e+02 0.0e+00  0  8  1  1  0   5 18 18 21  0 1219026       0      0 0.00e+00    0 0.00e+00  100
MatView                7 1.4 6.9587e-02 86.7 0.00e+00 0.0 0.0e+00 0.0e+00 5.0e+00  0  0  0  0  0   6  0  0  0  2     0       0      0 0.00e+00    0 0.00e+00  0
KSPSetUp               1 1.0 7.9160e-06 60.9 0.00e+00 0.0 0.0e+00 0.0e+00 0.0e+00  0  0  0  0  0   0  0  0  0  0     0       0      0 0.00e+00    0 0.00e+00  0
KSPSolve               1 1.0 5.0775e-01 1.0 2.21e+08 1.8 5.2e+07 5.7e+02 2.1e+02  1 45  6  4  1  85 97 100 100 96 1307133       0      0 0.00e+00    0 0.00e+00  100
SNESSolve              1 1.0 5.2305e-01 1.0 2.27e+08 1.8 5.2e+07 5.7e+02 2.1e+02  1 47  6  4  1  88 100 100 100 96 1314732       0      0 0.00e+00    0 0.00e+00  97
SNESFunctionEval       1 1.0 2.5667e-02 1.7 6.05e+06 1.0 5.1e+04 9.7e+02 0.0e+00  0  2  0  0  0   3  3  0  0  0 932497       0      0 0.00e+00    0 0.00e+00  0
DMPlexResidualFE       1 1.0 2.1951e-02 1.8 5.81e+06 1.0 0.0e+00 0.0e+00 0.0e+00  0  2  0  0  0   2  3  0  0  0 1083377       0      0 0.00e+00    0 0.00e+00  0
SFBcastBegin           1 1.0 2.2623e-04 11.8 0.00e+00 0.0 2.6e+04 9.7e+02 0.0e+00  0  0  0  0  0   0  0  0  0  0     0       0      0 0.00e+00    0 0.00e+00  0
SFBcastEnd             1 1.0 3.5177e-03 814.5 0.00e+00 0.0 0.0e+00 0.0e+00 0.0e+00  0  0  0  0  0   0  0  0  0  0     0       0      0 0.00e+00    0 0.00e+00  0
SFReduceBegin          1 1.0 1.9469e-04 17.5 0.00e+00 0.0 2.6e+04 9.7e+02 0.0e+00  0  0  0  0  0   0  0  0  0  0     0       0      0 0.00e+00    0 0.00e+00  0
SFReduceEnd            1 1.0 9.8473e-03 1954.2 8.17e+02 0.0 0.0e+00 0.0e+00 0.0e+00  0  0  0  0  0   0  0  0  0  0   315       0      0 0.00e+00    0 0.00e+00  100
SFPack               971 1.0 4.3842e-03 2.6 0.00e+00 0.0 0.0e+00 0.0e+00 0.0e+00  0  0  0  0  0   0  0  0  0  0     0       0      0 0.00e+00    0 0.00e+00  0
SFUnpack             971 1.0 9.9015e-04 3.5 9.52e+05 385.5 0.0e+00 0.0e+00 0.0e+00  0  0  0  0  0   0  0  0  0  0 65444       0      0 0.00e+00    0 0.00e+00  100
VecTDot              104 1.0 8.1420e-02 1.8 8.52e+05 1.2 0.0e+00 0.0e+00 1.0e+02  0  0  0  0  0  10  1  0  0 48 42360       0      0 0.00e+00    0 0.00e+00  100
VecNorm               52 1.0 5.7839e-02 3.2 4.26e+05 1.2 0.0e+00 0.0e+00 5.2e+01  0  0  0  0  0   7  0  0  0 24 29811       0      0 0.00e+00    0 0.00e+00  100
VecCopy              461 1.0 5.6003e-02 2.1 0.00e+00 0.0 0.0e+00 0.0e+00 0.0e+00  0  0  0  0  0   6  0  0  0  0     0       0      0 0.00e+00    0 0.00e+00  0
VecSet               209 1.0 1.4187e-02 2.7 0.00e+00 0.0 0.0e+00 0.0e+00 0.0e+00  0  0  0  0  0   1  0  0  0  0     0       0      0 0.00e+00    0 0.00e+00  0
VecAXPY              103 1.0 7.4583e-04 1.8 8.44e+05 1.2 0.0e+00 0.0e+00 0.0e+00  0  0  0  0  0   0  0  0  0  0 4579790       0      0 0.00e+00    0 0.00e+00  100
VecAYPX              968 1.0 5.6581e-03 2.2 3.23e+06 1.3 0.0e+00 0.0e+00 0.0e+00  0  1  0  0  0   1  2  0  0  0 2160319       0      0 0.00e+00    0 0.00e+00  100
VecAXPBYCZ           306 1.0 2.2348e-03 2.2 2.35e+06 1.3 0.0e+00 0.0e+00 0.0e+00  0  1  0  0  0   0  1  0  0  0 3939628       0      0 0.00e+00    0 0.00e+00  100
VecPointwiseMult     612 1.0 3.8255e-03 2.5 9.40e+05 1.3 0.0e+00 0.0e+00 0.0e+00  0  0  0  0  0   0  1  0  0  0 920608       0      0 0.00e+00    0 0.00e+00  100
VecScatterBegin      969 1.0 1.3571e-01 3.5 0.00e+00 0.0 5.2e+07 5.7e+02 0.0e+00  0  0  6  4  0  11  0 100 100  0     0       0      0 0.00e+00    0 0.00e+00  0
VecScatterEnd        969 1.0 2.1861e-01 3.6 9.52e+05 424.2 0.0e+00 0.0e+00 0.0e+00  0  0  0  0  0  18  0  0  0  0   282       0      0 0.00e+00    0 0.00e+00  100
PCSetUpOnBlocks       51 1.0 4.0883e-05 2.8 0.00e+00 0.0 0.0e+00 0.0e+00 0.0e+00  0  0  0  0  0   0  0  0  0  0     0       0      0 0.00e+00    0 0.00e+00  0
PCApply               51 1.0 4.1953e-01 1.2 1.92e+08 1.9 4.8e+07 5.3e+02 5.1e+01  1 37  5  3  0  67 80 91 86 24 1303425       0      0 0.00e+00    0 0.00e+00  100
---------------------------------------------------------------------------------------------------------------------------------------------------------------

Object Type          Creations   Destructions. Reports information only for process 0.

--- Event Stage 0: Main Stage

           Container   109            109
                SNES     1              1
              DMSNES     1              1
       Krylov Solver     9              9
     DMKSP interface     1              1
              Matrix   456            456
      Matrix Coarsen     3              3
    Distributed Mesh   106            106
            DM Label  8448           8448
          Quadrature   286            286
      Mesh Transform     3              3
           Index Set 38112          38112
   IS L to G Mapping   204            204
             Section 16758          16758
   Star Forest Graph 12597          12597
     Discrete System   162            162
           Weak Form   163            163
    GraphPartitioner    48             48
              Vector   338            338
        Linear Space    10             10
          Dual Space    49             49
            FE Space     5              5
              Viewer     2              2
      Preconditioner     9              9
       Field over DM     1              1
         PetscRandom     3              3

--- Event Stage 1: Solve only

          Quadrature     1              1
           Index Set    31             31
              Viewer     1              1
========================================================================================================================
Average time to get PetscTime(): 5.11e-08
Average time for MPI_Barrier(): 3.4427e-05
Average time for zero size MPI_Send(): 0.000384953
#PETSc Option Table entries:
-benchmark_it 1 # (source: file)
-dm_mat_type aijkokkos # (source: file)
-dm_plex_box_faces 16,16,16 # (source: command line)
-dm_plex_box_lower 0,0,0 # (source: file)
-dm_plex_box_upper 4,2,1 # (source: file)
-dm_plex_dim 3 # (source: file)
-dm_plex_simplex 0 # (source: file)
-dm_refine 3 # (source: command line)
-dm_vec_type kokkos # (source: file)
-dm_view # (source: file)
-info :pc,is # (source: file)
-ksp_converged_reason # (source: file)
-ksp_monitor # (source: file)
-ksp_norm_type unpreconditioned # (source: file)
-ksp_rtol 1e-12 # (source: file)
-ksp_type cg # (source: file)
-log_view # (source: file)
-mat_coarsen_max_it 5 # (source: command line)
-mat_coarsen_type hem # (source: command line)
-mg_levels_ksp_chebyshev_esteig 0,0.2,0,1.05 # (source: file)
-options_left # (source: file)
-pc_gamg_aggressive_coarsening 2 # (source: file)
-pc_gamg_aggressive_square_graph true # (source: file)
-pc_gamg_coarse_eq_limit 1000 # (source: file)
-pc_gamg_esteig_ksp_type cg # (source: file)
-pc_gamg_mis_k_minimum_degree_ordering true # (source: file)
-pc_gamg_process_eq_limit 200 # (source: file)
-pc_gamg_reuse_interpolation true # (source: file)
-pc_gamg_threshold 0.04 # (source: file)
-pc_gamg_threshold_scale .25 # (source: file)
-pc_type gamg # (source: file)
-petscpartitioner_simple_node_grid 4,4,4 # (source: command line)
-petscpartitioner_simple_process_grid 4,4,4 # (source: file)
-petscpartitioner_type simple # (source: file)
-potential_petscspace_degree 2 # (source: command line)
-snes_lag_jacobian -2 # (source: file)
-snes_type ksponly # (source: file)
-snes_view # (source: file)
#End of PETSc Option Table entries
Compiled without FORTRAN kernels
Compiled with 64-bit PetscInt
Compiled with full precision matrices (default)
sizeof(short) 2 sizeof(int) 4 sizeof(long) 8 sizeof(void*) 8 sizeof(PetscScalar) 8 sizeof(PetscInt) 8
Configure options: --with-cc=cc --with-cxx=CC --with-fc=ftn --with-strict-petscerrorcode --with-make-np=8 LIBS="-L/opt/cray/pe/mpich/8.1.27/gtl/lib -lmpi_gtl_hsa" --with-debugging=0 --COPTFLAGS="-g -Ofast -march=native -Wno-deprecated" --CXXOPTFLAGS="-g -Ofast -march=native -Wno-deprecated" --FOPTFLAGS="-g -Ofast -march=native" --with-64-bit-indices=1 --with-mpiexec=srun --with-hip --with-hipc=hipcc --download-hdf5=1 --download-metis --download-parmetis --download-hypre --download-hypre-configure-arguments="--enable-bigint=no --enable-mixedint=yes" --with-hypre-gpuarch=gfx90a --with-hip-arch=gfx90a --download-kokkos --download-kokkos-kernels --with-kokkos-kernels-tpl=0 PETSC_ARCH=arch-olcf-crusher-kok
-----------------------------------------
Libraries compiled on 2024-02-08 13:00:33 on login08 
Machine characteristics: Linux-5.14.21-150400.24.46_12.0.83-cray_shasta_c-x86_64-with-glibc2.3.4
Using PETSc directory: /lustre/orion/csc314/scratch/adams/petsc
Using PETSc arch: arch-olcf-crusher-kok
-----------------------------------------

Using C compiler: cc  -fPIC -Wall -Wwrite-strings -Wno-unknown-pragmas -Wno-lto-type-mismatch -Wno-stringop-overflow -fstack-protector -fvisibility=hidden -g -Ofast -march=native -Wno-deprecated  
Using Fortran compiler: ftn  -fPIC -Wall -ffree-line-length-none -ffree-line-length-0 -Wno-lto-type-mismatch -Wno-unused-dummy-argument -g -Ofast -march=native    
-----------------------------------------

Using include paths: -I/lustre/orion/csc314/scratch/adams/petsc/include -I/lustre/orion/csc314/scratch/adams/petsc/arch-olcf-crusher-kok/include -I/opt/rocm-5.4.3/include
-----------------------------------------

Using C linker: cc
Using Fortran linker: ftn
Using libraries: -Wl,-rpath,/lustre/orion/csc314/scratch/adams/petsc/arch-olcf-crusher-kok/lib -L/lustre/orion/csc314/scratch/adams/petsc/arch-olcf-crusher-kok/lib -lpetsc -Wl,-rpath,/lustre/orion/csc314/scratch/adams/petsc/arch-olcf-crusher-kok/lib -L/lustre/orion/csc314/scratch/adams/petsc/arch-olcf-crusher-kok/lib -Wl,-rpath,/opt/rocm-5.4.3/lib -L/opt/rocm-5.4.3/lib -Wl,-rpath,/opt/cray/pe/mpich/8.1.27/gtl/lib -L/opt/cray/pe/mpich/8.1.27/gtl/lib -Wl,-rpath,/opt/cray/pe/mpich/8.1.27/ofi/gnu/9.1/lib -L/opt/cray/pe/mpich/8.1.27/ofi/gnu/9.1/lib -Wl,-rpath,/opt/cray/pe/libsci/22.12.1.1/GNU/9.1/x86_64/lib -L/opt/cray/pe/libsci/22.12.1.1/GNU/9.1/x86_64/lib -Wl,-rpath,/sw/frontier/spack-envs/base/opt/cray-sles15-zen3/gcc-12.2.0/darshan-runtime-3.4.0-ftq5gccg3qjtyh5xeo2bz4wqkjayjhw3/lib -L/sw/frontier/spack-envs/base/opt/cray-sles15-zen3/gcc-12.2.0/darshan-runtime-3.4.0-ftq5gccg3qjtyh5xeo2bz4wqkjayjhw3/lib -Wl,-rpath,/opt/cray/pe/dsmml/0.2.2/dsmml/lib -L/opt/cray/pe/dsmml/0.2.2/dsmml/lib -Wl,-rpath,/opt/cray/pe/pmi/6.1.8/lib -L/opt/cray/pe/pmi/6.1.8/lib -Wl,-rpath,/opt/cray/xpmem/2.6.2-2.5_2.22__gd067c3f.shasta/lib64 -L/opt/cray/xpmem/2.6.2-2.5_2.22__gd067c3f.shasta/lib64 -Wl,-rpath,/opt/cray/pe/gcc/12.2.0/snos/lib/gcc/x86_64-suse-linux/12.2.0 -L/opt/cray/pe/gcc/12.2.0/snos/lib/gcc/x86_64-suse-linux/12.2.0 -Wl,-rpath,/opt/cray/pe/gcc/12.2.0/snos/lib64 -L/opt/cray/pe/gcc/12.2.0/snos/lib64 -Wl,-rpath,/opt/rocm-5.4.3/llvm/lib -L/opt/rocm-5.4.3/llvm/lib -Wl,-rpath,/opt/cray/pe/gcc/12.2.0/snos/lib -L/opt/cray/pe/gcc/12.2.0/snos/lib -lHYPRE -lkokkoskernels -lkokkoscontainers -lkokkoscore -lkokkossimd -lparmetis -lmetis -lhdf5_hl -lhdf5 -lhipsparse -lhipblas -lhipsolver -lrocsparse -lrocsolver -lrocblas -lrocrand -lamdhip64 -lmpi_gtl_hsa -ldarshan -lz -ldl -lxpmem -lgfortran -lm -lmpifort_gnu_91 -lmpi_gnu_91 -lsci_gnu_82_mpi -lsci_gnu_82 -ldsmml -lpmi -lpmi2 -lgfortran -lquadmath -lpthread -lm -lgcc_s -lstdc++ -lquadmath -lmpi_gtl_hsa
-----------------------------------------

#PETSc Option Table entries:
-benchmark_it 1 # (source: file)
-dm_mat_type aijkokkos # (source: file)
-dm_plex_box_faces 16,16,16 # (source: command line)
-dm_plex_box_lower 0,0,0 # (source: file)
-dm_plex_box_upper 4,2,1 # (source: file)
-dm_plex_dim 3 # (source: file)
-dm_plex_simplex 0 # (source: file)
-dm_refine 3 # (source: command line)
-dm_vec_type kokkos # (source: file)
-dm_view # (source: file)
-info :pc,is # (source: file)
-ksp_converged_reason # (source: file)
-ksp_monitor # (source: file)
-ksp_norm_type unpreconditioned # (source: file)
-ksp_rtol 1e-12 # (source: file)
-ksp_type cg # (source: file)
-log_view # (source: file)
-mat_coarsen_max_it 5 # (source: command line)
-mat_coarsen_type hem # (source: command line)
-mg_levels_ksp_chebyshev_esteig 0,0.2,0,1.05 # (source: file)
-options_left # (source: file)
-pc_gamg_aggressive_coarsening 2 # (source: file)
-pc_gamg_aggressive_square_graph true # (source: file)
-pc_gamg_coarse_eq_limit 1000 # (source: file)
-pc_gamg_esteig_ksp_type cg # (source: file)
-pc_gamg_mis_k_minimum_degree_ordering true # (source: file)
-pc_gamg_process_eq_limit 200 # (source: file)
-pc_gamg_reuse_interpolation true # (source: file)
-pc_gamg_threshold 0.04 # (source: file)
-pc_gamg_threshold_scale .25 # (source: file)
-pc_type gamg # (source: file)
-petscpartitioner_simple_node_grid 4,4,4 # (source: command line)
-petscpartitioner_simple_process_grid 4,4,4 # (source: file)
-petscpartitioner_type simple # (source: file)
-potential_petscspace_degree 2 # (source: command line)
-snes_lag_jacobian -2 # (source: file)
-snes_type ksponly # (source: file)
-snes_view # (source: file)
#End of PETSc Option Table entries
There are no unused options.
