DM Object: box 4096 MPI processes
  type: plex
box in 3 dimensions:
  Min/Max of 0-cells per rank: 125/125
  Min/Max of 1-cells per rank: 300/300
  Min/Max of 2-cells per rank: 240/240
  Min/Max of 3-cells per rank: 64/64
Labels:
  celltype: 4 strata with value/size (0 (125), 1 (300), 4 (240), 7 (64))
  depth: 4 strata with value/size (0 (125), 1 (300), 2 (240), 3 (64))
  marker: 1 strata with value/size (1 (217))
  Face Sets: 3 strata with value/size (1 (49), 3 (49), 6 (49))
Number equations N = 2048383
[0] <pc:gamg> PCSetUp_GAMG(): (null): level 0) N=2048383, n data rows=1, n data cols=1, nnz/row (ave)=62, block size 1, np=4096
[0] <pc:gamg> PCGAMGCreateGraph_AGG(): 	 36.7104% nnz after filtering, with threshold 0.04, 45.5539 nnz ave. (N=2048383, max row size 125
[0] <pc:gamg> PCGAMGCreateGraph_AGG(): Filtering left 36.7104 % edges in graph (1.562500e+04 5.736000e+03)
[0] <pc:gamg> PCGAMGSquareGraph_GAMG(): (null): Square Graph on level 1
[0] <is> MatCoarsenApply_MIS_private(): mis: nloc = 343
[0] <is> MatCoarsenApply_MIS_private(): 	 removed 0 of 343 vertices.  14 selected.
[0] <pc:gamg> fixAggregatesWithSquare(): isMPI = yes
[0] <pc:gamg> PCGAMGProlongator_AGG(): (null): New grid 60203 nodes
[0] <pc:gamg> PCGAMGOptProlongator_AGG(): (null): Smooth P0: max eigen=2.539414e+00 min=6.507333e-02 PC=jacobi
[0] <pc:gamg> PCGAMGOptProlongator_AGG(): (null): Smooth P0: level 0, cache spectra 0.0650733 2.53941
[0] <pc:gamg> PCGAMGCreateLevel_GAMG(): (null): Coarse grid reduction from 4096 to 301 active processes
[0] <pc:gamg> PCGAMGCreateLevel_GAMG(): (null): Number of equations (loc) 14 with simple aggregation
[0] <pc:gamg> PCSetUp_GAMG(): (null): 1) N=60203, n data cols=1, nnz/row (ave)=188, 256 active pes
[0] <pc:gamg> PCGAMGCreateGraph_AGG(): 	 10.8607% nnz after filtering, with threshold 0.01, 121.469 nnz ave. (N=60203, max row size 141
[0] <pc:gamg> PCGAMGCreateGraph_AGG(): Filtering left 10.8607 % edges in graph (2.587300e+04 2.810000e+03)
[0] <pc:gamg> PCGAMGSquareGraph_GAMG(): (null): Square Graph on level 2
[0] <is> MatCoarsenApply_MIS_private(): mis: nloc = 213
[0] <is> MatCoarsenApply_MIS_private(): 	 removed 0 of 213 vertices.  10 selected.
[0] <pc:gamg> fixAggregatesWithSquare(): isMPI = yes
[0] <pc:gamg> PCGAMGProlongator_AGG(): (null): New grid 2320 nodes
[0] <pc:gamg> PCGAMGOptProlongator_AGG(): (null): Smooth P0: max eigen=1.405800e+00 min=4.918706e-02 PC=jacobi
[0] <pc:gamg> PCGAMGOptProlongator_AGG(): (null): Smooth P0: level 1, cache spectra 0.0491871 1.4058
[0] <pc:gamg> PCGAMGCreateLevel_GAMG(): (null): Coarse grid reduction from 256 to 12 active processes
[0] <pc:gamg> PCGAMGCreateLevel_GAMG(): (null): Number of equations (loc) 10 with simple aggregation
[0] <pc:gamg> PCSetUp_GAMG(): (null): 2) N=2320, n data cols=1, nnz/row (ave)=254, 16 active pes
[0] <pc:gamg> PCGAMGCreateGraph_AGG(): 	 14.9097% nnz after filtering, with threshold 0.0025, 166.919 nnz ave. (N=2320, max row size 207
[0] <pc:gamg> PCGAMGCreateGraph_AGG(): Filtering left 14.9097 % edges in graph (2.069800e+04 3.086000e+03)
[0] <pc:gamg> PCGAMGProlongator_AGG(): (null): New grid 227 nodes
[0] <pc:gamg> PCGAMGOptProlongator_AGG(): (null): Smooth P0: max eigen=1.461759e+00 min=7.922308e-02 PC=jacobi
[0] <pc:gamg> PCGAMGOptProlongator_AGG(): (null): Smooth P0: level 2, cache spectra 0.0792231 1.46176
[0] <pc:gamg> PCGAMGCreateLevel_GAMG(): (null): Force coarsest grid reduction to 1 active processes
[0] <pc:gamg> PCGAMGCreateLevel_GAMG(): (null): Number of equations (loc) 12 with simple aggregation
[0] <pc:gamg> PCSetUp_GAMG(): (null): 3) N=227, n data cols=1, nnz/row (ave)=223, 1 active pes
[0] <pc:gamg> PCSetUp_GAMG(): (null): 4 levels, operator complexity = 1.0942
[0] <pc:gamg> PCSetUp_GAMG(): (null): PCSetUp_GAMG: call KSPChebyshevSetEigenvalues on level 2 (N=2320) with emax = 1.46176 emin = 0.0792231
[0] <pc:gamg> PCSetUp_GAMG(): (null): PCSetUp_GAMG: call KSPChebyshevSetEigenvalues on level 1 (N=60203) with emax = 1.4058 emin = 0.0491871
[0] <pc:gamg> PCSetUp_GAMG(): (null): PCSetUp_GAMG: call KSPChebyshevSetEigenvalues on level 0 (N=2048383) with emax = 2.53941 emin = 0.0650733
[0] <pc:gamg> PCSetUp_MG(): Using outer operators to define finest grid operator 
  because PCMGGetSmoother(pc,nlevels-1,&ksp);KSPSetOperators(ksp,...); was not called.
    0 KSP Residual norm 1.745973035597e+01 
    1 KSP Residual norm 2.194279823820e+00 
    2 KSP Residual norm 1.291573740343e+00 
    3 KSP Residual norm 8.329341279199e-01 
    4 KSP Residual norm 5.592627559868e-01 
    5 KSP Residual norm 3.556056959657e-01 
    6 KSP Residual norm 2.158330124547e-01 
    7 KSP Residual norm 1.166967316868e-01 
    8 KSP Residual norm 7.038308993752e-02 
    9 KSP Residual norm 4.321771475682e-02 
   10 KSP Residual norm 2.650676331602e-02 
   11 KSP Residual norm 1.545646221095e-02 
   12 KSP Residual norm 8.774379426092e-03 
   13 KSP Residual norm 4.944960355959e-03 
   14 KSP Residual norm 2.778342160141e-03 
   15 KSP Residual norm 1.570443820197e-03 
   16 KSP Residual norm 9.284829248344e-04 
   17 KSP Residual norm 5.677540688505e-04 
   18 KSP Residual norm 3.224163565729e-04 
   19 KSP Residual norm 1.689827745464e-04 
   20 KSP Residual norm 8.632785301871e-05 
   21 KSP Residual norm 4.770101109239e-05 
   22 KSP Residual norm 2.862927004446e-05 
   23 KSP Residual norm 1.684720397064e-05 
   24 KSP Residual norm 9.631449558403e-06 
   25 KSP Residual norm 5.483668589745e-06 
   26 KSP Residual norm 3.243178683716e-06 
   27 KSP Residual norm 1.931165899200e-06 
   28 KSP Residual norm 1.135137780164e-06 
   29 KSP Residual norm 6.726166961465e-07 
   30 KSP Residual norm 3.960317169961e-07 
   31 KSP Residual norm 2.363911861151e-07 
   32 KSP Residual norm 1.364126076191e-07 
   33 KSP Residual norm 8.039139923768e-08 
   34 KSP Residual norm 4.704439410326e-08 
   35 KSP Residual norm 2.721422289862e-08 
   36 KSP Residual norm 1.539884406591e-08 
   37 KSP Residual norm 8.984993954641e-09 
   38 KSP Residual norm 5.118941813475e-09 
   39 KSP Residual norm 2.945219445449e-09 
   40 KSP Residual norm 1.668444413064e-09 
   41 KSP Residual norm 9.443118322508e-10 
   42 KSP Residual norm 5.540950215722e-10 
   43 KSP Residual norm 3.216560455964e-10 
   44 KSP Residual norm 1.811858993915e-10 
   45 KSP Residual norm 1.037343909578e-10 
   46 KSP Residual norm 6.068422117702e-11 
   47 KSP Residual norm 3.590510820696e-11 
   48 KSP Residual norm 2.114227188279e-11 
   49 KSP Residual norm 1.213613089678e-11 
  Linear solve converged due to CONVERGED_RTOL iterations 49
SNES Object: 4096 MPI processes
  type: ksponly
  maximum iterations=50, maximum function evaluations=10000
  tolerances: relative=1e-08, absolute=1e-50, solution=1e-08
  total number of linear solver iterations=49
  total number of function evaluations=1
  norm schedule ALWAYS
  Jacobian is never rebuilt
  KSP Object: 4096 MPI processes
    type: cg
    maximum iterations=10000, initial guess is zero
    tolerances:  relative=1e-12, absolute=1e-50, divergence=10000.
    left preconditioning
    using UNPRECONDITIONED norm type for convergence test
  PC Object: 4096 MPI processes
    type: gamg
      type is MULTIPLICATIVE, levels=4 cycles=v
        Cycles per PCApply=1
        Using externally compute Galerkin coarse grid matrices
        GAMG specific options
          Threshold for dropping small values in graph on each level =     0.04     0.01     0.0025     0.000625    
          Threshold scaling factor for each level not specified = 0.25
          AGG specific options
            Number of levels of aggressive coarsening 2
            Square graph aggressive coarsening
            Number smoothing steps 1
          Complexity:    grid = 1.03063    operator = 1.0942
    Coarse grid solver -- level 0 -------------------------------
      KSP Object: (mg_coarse_) 4096 MPI processes
        type: preonly
        maximum iterations=10000, initial guess is zero
        tolerances:  relative=1e-05, absolute=1e-50, divergence=10000.
        left preconditioning
        using NONE norm type for convergence test
      PC Object: (mg_coarse_) 4096 MPI processes
        type: bjacobi
          number of blocks = 4096
          Local solver information for first block is in the following KSP and PC objects on rank 0:
          Use -mg_coarse_ksp_view ::ascii_info_detail to display information for all blocks
          KSP Object: (mg_coarse_sub_) 1 MPI process
            type: preonly
            maximum iterations=1, initial guess is zero
            tolerances:  relative=1e-05, absolute=1e-50, divergence=10000.
            left preconditioning
            using NONE norm type for convergence test
          PC Object: (mg_coarse_sub_) 1 MPI process
            type: lu
              out-of-place factorization
              tolerance for zero pivot 2.22045e-14
              using diagonal shift on blocks to prevent zero pivot [INBLOCKS]
              matrix ordering: nd
              factor fill ratio given 5., needed 1.01261
                Factored matrix follows:
                  Mat Object: (mg_coarse_sub_) 1 MPI process
                    type: seqaijkokkos
                    rows=227, cols=227
                    package used to perform factorization: kokkos
                    total: nonzeros=51383, allocated nonzeros=51383
                      using I-node routines: found 60 nodes, limit used is 5
            linear system matrix = precond matrix:
            Mat Object: (mg_coarse_sub_) 1 MPI process
              type: seqaijkokkos
              rows=227, cols=227
              total: nonzeros=50743, allocated nonzeros=50743
              total number of mallocs used during MatSetValues calls=0
                using I-node routines: found 150 nodes, limit used is 5
        linear system matrix = precond matrix:
        Mat Object: 4096 MPI processes
          type: mpiaijkokkos
          rows=227, cols=227
          total: nonzeros=50743, allocated nonzeros=50743
          total number of mallocs used during MatSetValues calls=0
            using I-node (on process 0) routines: found 150 nodes, limit used is 5
    Down solver (pre-smoother) on level 1 -------------------------------
      KSP Object: (mg_levels_1_) 4096 MPI processes
        type: chebyshev
          Chebyshev polynomial of first kind
          eigenvalue targets used: min 0.292352, max 1.53485
          eigenvalues provided (min 0.0792231, max 1.46176) with transform: [0. 0.2; 0. 1.05]
        maximum iterations=2, nonzero initial guess
        tolerances:  relative=1e-05, absolute=1e-50, divergence=10000.
        left preconditioning
        using NONE norm type for convergence test
      PC Object: (mg_levels_1_) 4096 MPI processes
        type: jacobi
          type DIAGONAL
        linear system matrix = precond matrix:
        Mat Object: 4096 MPI processes
          type: mpiaijkokkos
          rows=2320, cols=2320
          total: nonzeros=591310, allocated nonzeros=591310
          total number of mallocs used during MatSetValues calls=0
            not using I-node (on process 0) routines
    Up solver (post-smoother) same as down solver (pre-smoother)
    Down solver (pre-smoother) on level 2 -------------------------------
      KSP Object: (mg_levels_2_) 4096 MPI processes
        type: chebyshev
          Chebyshev polynomial of first kind
          eigenvalue targets used: min 0.28116, max 1.47609
          eigenvalues provided (min 0.0491871, max 1.4058) with transform: [0. 0.2; 0. 1.05]
        maximum iterations=2, nonzero initial guess
        tolerances:  relative=1e-05, absolute=1e-50, divergence=10000.
        left preconditioning
        using NONE norm type for convergence test
      PC Object: (mg_levels_2_) 4096 MPI processes
        type: jacobi
          type DIAGONAL
        linear system matrix = precond matrix:
        Mat Object: 4096 MPI processes
          type: mpiaijkokkos
          rows=60203, cols=60203
          total: nonzeros=11345747, allocated nonzeros=11345747
          total number of mallocs used during MatSetValues calls=0
            not using I-node (on process 0) routines
    Up solver (post-smoother) same as down solver (pre-smoother)
    Down solver (pre-smoother) on level 3 -------------------------------
      KSP Object: (mg_levels_3_) 4096 MPI processes
        type: chebyshev
          Chebyshev polynomial of first kind
          eigenvalue targets used: min 0.507883, max 2.66639
          eigenvalues provided (min 0.0650733, max 2.53941) with transform: [0. 0.2; 0. 1.05]
        maximum iterations=2, nonzero initial guess
        tolerances:  relative=1e-05, absolute=1e-50, divergence=10000.
        left preconditioning
        using NONE norm type for convergence test
      PC Object: (mg_levels_3_) 4096 MPI processes
        type: jacobi
          type DIAGONAL
        linear system matrix = precond matrix:
        Mat Object: 4096 MPI processes
          type: mpiaijkokkos
          rows=2048383, cols=2048383
          total: nonzeros=127263527, allocated nonzeros=127263527
          total number of mallocs used during MatSetValues calls=0
            not using I-node (on process 0) routines
    Up solver (post-smoother) same as down solver (pre-smoother)
    linear system matrix = precond matrix:
    Mat Object: 4096 MPI processes
      type: mpiaijkokkos
      rows=2048383, cols=2048383
      total: nonzeros=127263527, allocated nonzeros=127263527
      total number of mallocs used during MatSetValues calls=0
        not using I-node (on process 0) routines
    0 KSP Residual norm 1.745973035597e+01 
    1 KSP Residual norm 2.194169719233e+00 
    2 KSP Residual norm 1.291661226084e+00 
    3 KSP Residual norm 8.330156812290e-01 
    4 KSP Residual norm 5.592623396243e-01 
    5 KSP Residual norm 3.556373482628e-01 
    6 KSP Residual norm 2.158886697530e-01 
    7 KSP Residual norm 1.167355613045e-01 
    8 KSP Residual norm 7.041023736728e-02 
    9 KSP Residual norm 4.324109097390e-02 
   10 KSP Residual norm 2.652231575575e-02 
   11 KSP Residual norm 1.547096577659e-02 
   12 KSP Residual norm 8.783637449887e-03 
   13 KSP Residual norm 4.950482180524e-03 
   14 KSP Residual norm 2.781526624470e-03 
   15 KSP Residual norm 1.572897743140e-03 
   16 KSP Residual norm 9.300782163499e-04 
   17 KSP Residual norm 5.688098642991e-04 
   18 KSP Residual norm 3.230413964687e-04 
   19 KSP Residual norm 1.692729377673e-04 
   20 KSP Residual norm 8.647092602078e-05 
   21 KSP Residual norm 4.778399201294e-05 
   22 KSP Residual norm 2.868473961702e-05 
   23 KSP Residual norm 1.687788138846e-05 
   24 KSP Residual norm 9.645729904863e-06 
   25 KSP Residual norm 5.490425668680e-06 
   26 KSP Residual norm 3.247193197367e-06 
   27 KSP Residual norm 1.933509427352e-06 
   28 KSP Residual norm 1.136521152627e-06 
   29 KSP Residual norm 6.732416293456e-07 
   30 KSP Residual norm 3.963689784107e-07 
   31 KSP Residual norm 2.364738428694e-07 
   32 KSP Residual norm 1.364636618539e-07 
   33 KSP Residual norm 8.038755394852e-08 
   34 KSP Residual norm 4.702497711097e-08 
   35 KSP Residual norm 2.719695934306e-08 
   36 KSP Residual norm 1.539294089706e-08 
   37 KSP Residual norm 8.980495189467e-09 
   38 KSP Residual norm 5.117088355186e-09 
   39 KSP Residual norm 2.943694448549e-09 
   40 KSP Residual norm 1.667873031748e-09 
   41 KSP Residual norm 9.441034888347e-10 
   42 KSP Residual norm 5.537702785824e-10 
   43 KSP Residual norm 3.214204605957e-10 
   44 KSP Residual norm 1.811130432874e-10 
   45 KSP Residual norm 1.036792041778e-10 
   46 KSP Residual norm 6.066833430763e-11 
   47 KSP Residual norm 3.590173087480e-11 
   48 KSP Residual norm 2.114296839111e-11 
   49 KSP Residual norm 1.213979240297e-11 
  Linear solve converged due to CONVERGED_RTOL iterations 49
SNES Object: 4096 MPI processes
  type: ksponly
  maximum iterations=50, maximum function evaluations=10000
  tolerances: relative=1e-08, absolute=1e-50, solution=1e-08
  total number of linear solver iterations=49
  total number of function evaluations=1
  norm schedule ALWAYS
  Jacobian is never rebuilt
  KSP Object: 4096 MPI processes
    type: cg
    maximum iterations=10000, initial guess is zero
    tolerances:  relative=1e-12, absolute=1e-50, divergence=10000.
    left preconditioning
    using UNPRECONDITIONED norm type for convergence test
  PC Object: 4096 MPI processes
    type: gamg
      type is MULTIPLICATIVE, levels=4 cycles=v
        Cycles per PCApply=1
        Using externally compute Galerkin coarse grid matrices
        GAMG specific options
          Threshold for dropping small values in graph on each level =     0.04     0.01     0.0025     0.000625    
          Threshold scaling factor for each level not specified = 0.25
          AGG specific options
            Number of levels of aggressive coarsening 2
            Square graph aggressive coarsening
            Number smoothing steps 1
          Complexity:    grid = 1.03063    operator = 1.0942
    Coarse grid solver -- level 0 -------------------------------
      KSP Object: (mg_coarse_) 4096 MPI processes
        type: preonly
        maximum iterations=10000, initial guess is zero
        tolerances:  relative=1e-05, absolute=1e-50, divergence=10000.
        left preconditioning
        using NONE norm type for convergence test
      PC Object: (mg_coarse_) 4096 MPI processes
        type: bjacobi
          number of blocks = 4096
          Local solver information for first block is in the following KSP and PC objects on rank 0:
          Use -mg_coarse_ksp_view ::ascii_info_detail to display information for all blocks
          KSP Object: (mg_coarse_sub_) 1 MPI process
            type: preonly
            maximum iterations=1, initial guess is zero
            tolerances:  relative=1e-05, absolute=1e-50, divergence=10000.
            left preconditioning
            using NONE norm type for convergence test
          PC Object: (mg_coarse_sub_) 1 MPI process
            type: lu
              out-of-place factorization
              tolerance for zero pivot 2.22045e-14
              using diagonal shift on blocks to prevent zero pivot [INBLOCKS]
              matrix ordering: nd
              factor fill ratio given 5., needed 1.01261
                Factored matrix follows:
                  Mat Object: (mg_coarse_sub_) 1 MPI process
                    type: seqaijkokkos
                    rows=227, cols=227
                    package used to perform factorization: kokkos
                    total: nonzeros=51383, allocated nonzeros=51383
                      using I-node routines: found 60 nodes, limit used is 5
            linear system matrix = precond matrix:
            Mat Object: (mg_coarse_sub_) 1 MPI process
              type: seqaijkokkos
              rows=227, cols=227
              total: nonzeros=50743, allocated nonzeros=50743
              total number of mallocs used during MatSetValues calls=0
                using I-node routines: found 150 nodes, limit used is 5
        linear system matrix = precond matrix:
        Mat Object: 4096 MPI processes
          type: mpiaijkokkos
          rows=227, cols=227
          total: nonzeros=50743, allocated nonzeros=50743
          total number of mallocs used during MatSetValues calls=0
            using I-node (on process 0) routines: found 150 nodes, limit used is 5
    Down solver (pre-smoother) on level 1 -------------------------------
      KSP Object: (mg_levels_1_) 4096 MPI processes
        type: chebyshev
          Chebyshev polynomial of first kind
          eigenvalue targets used: min 0.292352, max 1.53485
          eigenvalues provided (min 0.0792231, max 1.46176) with transform: [0. 0.2; 0. 1.05]
        maximum iterations=2, nonzero initial guess
        tolerances:  relative=1e-05, absolute=1e-50, divergence=10000.
        left preconditioning
        using NONE norm type for convergence test
      PC Object: (mg_levels_1_) 4096 MPI processes
        type: jacobi
          type DIAGONAL
        linear system matrix = precond matrix:
        Mat Object: 4096 MPI processes
          type: mpiaijkokkos
          rows=2320, cols=2320
          total: nonzeros=591310, allocated nonzeros=591310
          total number of mallocs used during MatSetValues calls=0
            not using I-node (on process 0) routines
    Up solver (post-smoother) same as down solver (pre-smoother)
    Down solver (pre-smoother) on level 2 -------------------------------
      KSP Object: (mg_levels_2_) 4096 MPI processes
        type: chebyshev
          Chebyshev polynomial of first kind
          eigenvalue targets used: min 0.28116, max 1.47609
          eigenvalues provided (min 0.0491871, max 1.4058) with transform: [0. 0.2; 0. 1.05]
        maximum iterations=2, nonzero initial guess
        tolerances:  relative=1e-05, absolute=1e-50, divergence=10000.
        left preconditioning
        using NONE norm type for convergence test
      PC Object: (mg_levels_2_) 4096 MPI processes
        type: jacobi
          type DIAGONAL
        linear system matrix = precond matrix:
        Mat Object: 4096 MPI processes
          type: mpiaijkokkos
          rows=60203, cols=60203
          total: nonzeros=11345747, allocated nonzeros=11345747
          total number of mallocs used during MatSetValues calls=0
            not using I-node (on process 0) routines
    Up solver (post-smoother) same as down solver (pre-smoother)
    Down solver (pre-smoother) on level 3 -------------------------------
      KSP Object: (mg_levels_3_) 4096 MPI processes
        type: chebyshev
          Chebyshev polynomial of first kind
          eigenvalue targets used: min 0.507883, max 2.66639
          eigenvalues provided (min 0.0650733, max 2.53941) with transform: [0. 0.2; 0. 1.05]
        maximum iterations=2, nonzero initial guess
        tolerances:  relative=1e-05, absolute=1e-50, divergence=10000.
        left preconditioning
        using NONE norm type for convergence test
      PC Object: (mg_levels_3_) 4096 MPI processes
        type: jacobi
          type DIAGONAL
        linear system matrix = precond matrix:
        Mat Object: 4096 MPI processes
          type: mpiaijkokkos
          rows=2048383, cols=2048383
          total: nonzeros=127263527, allocated nonzeros=127263527
          total number of mallocs used during MatSetValues calls=0
            not using I-node (on process 0) routines
    Up solver (post-smoother) same as down solver (pre-smoother)
    linear system matrix = precond matrix:
    Mat Object: 4096 MPI processes
      type: mpiaijkokkos
      rows=2048383, cols=2048383
      total: nonzeros=127263527, allocated nonzeros=127263527
      total number of mallocs used during MatSetValues calls=0
        not using I-node (on process 0) routines
****************************************************************************************************************************************************************
***                                WIDEN YOUR WINDOW TO 160 CHARACTERS.  Use 'enscript -r -fCourier9' to print this document                                 ***
****************************************************************************************************************************************************************

------------------------------------------------------------------ PETSc Performance Summary: ------------------------------------------------------------------

/lustre/orion/csc314/scratch/adams/petsc/src/snes/tests/data/../ex13 on a arch-olcf-crusher-kok named frontier00055 with 4096 processors, by adams Fri Feb  9 10:58:12 2024
Using Petsc Development GIT revision: v3.20.4-590-g26f22146603  GIT Date: 2024-02-07 12:58:08 -0500

                         Max       Max/Min     Avg       Total
Time (sec):           1.928e+01     1.000   1.928e+01
Objects:              0.000e+00     0.000   0.000e+00
Flops:                1.170e+08     4.622   4.119e+07  1.687e+11
Flops/sec:            6.067e+06     4.622   2.137e+06  8.752e+09
MPI Msg Count:        2.570e+05     2.667   2.018e+05  8.268e+08
MPI Msg Len (bytes):  6.623e+07     2.192   2.651e+02  2.192e+11
MPI Reductions:       2.963e+04     1.000

Flop counting convention: 1 flop = 1 real number operation of type (multiply/divide/add/subtract)
                            e.g., VecAXPY() for real vectors of length N --> 2N flops
                            and VecAXPY() for complex vectors of length N --> 8N flops

Summary of Stages:   ----- Time ------  ----- Flop ------  --- Messages ---  -- Message Lengths --  -- Reductions --
                        Avg     %Total     Avg     %Total    Count   %Total     Avg         %Total    Count   %Total
 0:      Main Stage: 1.8941e+01  98.3%  9.0315e+10  53.5%  8.007e+08  96.9%  2.653e+02       96.9%  2.940e+04  99.2%
 1:      Solve only: 3.3567e-01   1.7%  7.8401e+10  46.5%  2.602e+07   3.1%  2.591e+02        3.1%  2.080e+02   0.7%

------------------------------------------------------------------------------------------------------------------------
See the 'Profiling' chapter of the users' manual for details on interpreting output.
Phase summary info:
   Count: number of times phase was executed
   Time and Flop: Max - maximum over all processors
                  Ratio - ratio of maximum to minimum over all processors
   Mess: number of messages sent
   AvgLen: average message length (bytes)
   Reduct: number of global reductions
   Global: entire computation
   Stage: stages of a computation. Set stages with PetscLogStagePush() and PetscLogStagePop().
      %T - percent time in this phase         %F - percent flop in this phase
      %M - percent messages in this phase     %L - percent message lengths in this phase
      %R - percent reductions in this phase
   Total Mflop/s: 10e-6 * (sum of flop over all processors)/(max time over all processors)
   GPU Mflop/s: 10e-6 * (sum of flop on GPU over all processors)/(max GPU time over all processors)
   CpuToGpu Count: total number of CPU to GPU copies per processor
   CpuToGpu Size (Mbytes): 10e-6 * (total size of CPU to GPU copies per processor)
   GpuToCpu Count: total number of GPU to CPU copies per processor
   GpuToCpu Size (Mbytes): 10e-6 * (total size of GPU to CPU copies per processor)
   GPU %F: percent flops on GPU in this event
------------------------------------------------------------------------------------------------------------------------
Event                Count      Time (sec)     Flop                              --- Global ---  --- Stage ----  Total   GPU    - CpuToGpu -   - GpuToCpu - GPU
                   Max Ratio  Max     Ratio   Max  Ratio  Mess   AvgLen  Reduct  %T %F %M %L %R  %T %F %M %L %R Mflop/s Mflop/s Count   Size   Count   Size  %F
---------------------------------------------------------------------------------------------------------------------------------------------------------------

--- Event Stage 0: Main Stage

BuildTwoSided      12359 1.0 4.7600e+00 2.8 0.00e+00 0.0 7.0e+07 8.0e+00 0.0e+00 20  0  8  0  0  21  0  9  0  0     0       0      0 0.00e+00    0 0.00e+00  0
BuildTwoSidedF        31 1.0 3.8720e-01 19.3 0.00e+00 0.0 1.0e+05 7.9e+03 0.0e+00  1  0  0  0  0   1  0  0  0  0     0       0      0 0.00e+00    0 0.00e+00  0
MatMult              741 1.1 9.4994e-01 24.7 5.28e+07 5.5 2.5e+07 2.7e+02 0.0e+00  2 41  3  3  0   2 77  3  3  0 73503       0      1 6.56e-03    0 0.00e+00  100
MatMultAdd           147 1.0 5.5832e-02 3.4 1.72e+06 5.3 1.0e+06 1.3e+02 0.0e+00  0  1  0  0  0   0  2  0  0  0 39498       0      0 0.00e+00    0 0.00e+00  100
MatMultTranspose     147 1.0 8.6261e-01 269.2 1.88e+06 5.8 1.0e+06 1.3e+02 0.0e+00  0  1  0  0  0   0  2  0  0  0  2576       0      0 6.81e-04    0 0.00e+00  100
MatSolve              49 0.0 2.4391e-03 0.0 5.02e+06 0.0 0.0e+00 0.0e+00 0.0e+00  0  0  0  0  0   0  0  0  0  0  2060       0      0 0.00e+00    0 0.00e+00  0
MatLUFactorSym         1 1.0 1.9780e-03 278.0 0.00e+00 0.0 0.0e+00 0.0e+00 0.0e+00  0  0  0  0  0   0  0  0  0  0     0       0      0 0.00e+00    0 0.00e+00  0
MatLUFactorNum         1 1.0 3.7854e-03 868.6 7.71e+06 0.0 0.0e+00 0.0e+00 0.0e+00  0  0  0  0  0   0  0  0  0  0  2037       0      0 0.00e+00    0 0.00e+00  0
MatConvert             3 1.0 1.1526e-02 3.1 0.00e+00 0.0 1.5e+05 1.8e+02 0.0e+00  0  0  0  0  0   0  0  0  0  0     0       0      0 0.00e+00    0 0.00e+00  0
MatScale               9 1.0 1.3532e+00 5.3 2.79e+05 6.3 9.8e+04 2.7e+02 0.0e+00  3  0  0  0  0   3  0  0  0  0   239       0      1 6.56e-03    0 0.00e+00  100
MatResidual          147 1.0 8.8780e-01 112.7 1.20e+07 6.4 4.8e+06 2.7e+02 0.0e+00  2  8  1  1  0   2 15  1  1  0 15599       0      0 0.00e+00    0 0.00e+00  100
MatAssemblyBegin     110 1.0 3.7417e-01 30.4 0.00e+00 0.0 1.0e+05 7.9e+03 0.0e+00  1  0  0  0  0   1  0  0  0  0     0       0      0 0.00e+00    0 0.00e+00  0
MatAssemblyEnd       110 1.0 1.0845e+00 9.4 8.94e+03 0.0 1.1e+06 1.2e+02 1.1e+02  1  0  0  0  0   1  0  0  0  0    31       0      0 0.00e+00    0 0.00e+00  0
MatGetRowIJ            1 0.0 1.0895e-04 0.0 0.00e+00 0.0 0.0e+00 0.0e+00 0.0e+00  0  0  0  0  0   0  0  0  0  0     0       0      0 0.00e+00    0 0.00e+00  0
MatCreateSubMat        6 1.0 7.0812e-02 1.0 0.00e+00 0.0 6.0e+04 3.1e+03 7.8e+01  0  0  0  0  0   0  0  0  0  0     0       0      0 0.00e+00    0 0.00e+00  0
MatGetOrdering         1 0.0 2.3168e-04 0.0 0.00e+00 0.0 0.0e+00 0.0e+00 0.0e+00  0  0  0  0  0   0  0  0  0  0     0       0      0 0.00e+00    0 0.00e+00  0
MatCoarsen             3 1.0 2.6760e-02 1.1 0.00e+00 0.0 1.1e+06 5.3e+02 5.6e+01  0  0  0  0  0   0  0  0  0  0     0       0      0 0.00e+00    0 0.00e+00  0
MatZeroEntries         1 1.0 3.9358e-04 7.8 0.00e+00 0.0 0.0e+00 0.0e+00 0.0e+00  0  0  0  0  0   0  0  0  0  0     0       0      0 0.00e+00    0 0.00e+00  0
MatView                7 1.4 1.6046e-01 116.8 0.00e+00 0.0 0.0e+00 0.0e+00 5.0e+00  0  0  0  0  0   0  0  0  0  0     0       0      0 0.00e+00    0 0.00e+00  0
MatAXPY                3 1.0 3.5989e-01 114.1 8.72e+02 2.2 0.0e+00 0.0e+00 0.0e+00  1  0  0  0  0   1  0  0  0  0     6       0      0 0.00e+00    0 0.00e+00  0
MatTranspose           1 1.0 4.5026e-03 1.2 0.00e+00 0.0 1.9e+02 9.2e+01 6.0e+00  0  0  0  0  0   0  0  0  0  0     0       0      0 0.00e+00    0 0.00e+00  0
MatMatMultSym          3 1.0 6.8344e-02 1.0 0.00e+00 0.0 6.6e+05 1.7e+02 1.8e+01  0  0  0  0  0   0  0  0  0  0     0       0      0 0.00e+00    0 0.00e+00  0
MatMatMultNum          3 1.0 1.6172e-05 34.3 0.00e+00 0.0 0.0e+00 0.0e+00 0.0e+00  0  0  0  0  0   0  0  0  0  0     0       0      0 0.00e+00    0 0.00e+00  0
MatPtAPSymbolic        3 1.0 1.8900e-01 1.0 0.00e+00 0.0 1.5e+06 1.2e+03 3.6e+01  1  0  0  1  0   1  0  0  1  0     0       0      0 0.00e+00    0 0.00e+00  0
MatPtAPNumeric         3 1.0 2.1340e-06 4.6 0.00e+00 0.0 0.0e+00 0.0e+00 0.0e+00  0  0  0  0  0   0  0  0  0  0     0       0      0 0.00e+00    0 0.00e+00  0
MatTrnMatMultSym       2 1.0 1.3301e+00 1.0 0.00e+00 0.0 4.5e+05 5.8e+03 1.2e+01  7  0  0  1  0   7  0  0  1  0     0       0      0 0.00e+00    0 0.00e+00  0
MatSetPreallCOO       20 1.0 2.9753e-04 5.4 0.00e+00 0.0 0.0e+00 0.0e+00 0.0e+00  0  0  0  0  0   0  0  0  0  0     0       0      0 0.00e+00    0 0.00e+00  0
MatSetValuesCOO       20 1.0 3.9816e-05 1.6 0.00e+00 0.0 0.0e+00 0.0e+00 0.0e+00  0  0  0  0  0   0  0  0  0  0     0       0      0 0.00e+00    0 0.00e+00  0
KSPSetUp               9 1.0 9.1722e-04 2.7 0.00e+00 0.0 0.0e+00 0.0e+00 0.0e+00  0  0  0  0  0   0  0  0  0  0     0       0      0 0.00e+00    0 0.00e+00  0
KSPSolve               1 1.0 2.2422e+00 1.0 5.53e+07 5.2 2.6e+07 2.6e+02 2.0e+02 12 45  3  3  1  12 83  3  3  1 33619       0      0 6.81e-04    0 0.00e+00  100
SNESSolve              1 1.0 1.0736e+01 1.0 6.04e+07 4.5 3.2e+07 4.2e+02 5.9e+02 56 52  4  6  2  57 98  4  6  2  8218       0      7 3.94e-02    0 0.00e+00  89
SNESSetUp              1 1.0 1.4021e-01 1.0 0.00e+00 0.0 5.8e+05 4.3e+03 1.6e+01  1  0  0  1  0   1  0  0  1  0     0       0      0 0.00e+00    0 0.00e+00  0
SNESFunctionEval       1 1.0 2.9051e+00 3.3 8.88e+05 1.1 9.0e+04 2.2e+02 2.0e+00 11  2  0  0  0  11  4  0  0  0  1180       0      3 7.18e-03    0 0.00e+00  0
SNESJacobianEval       1 1.0 2.0609e+00 51.7 1.53e+06 1.0 6.4e+04 1.3e+04 1.0e+00  4  4  0  0  0   4  7  0  0  0  2943       0      0 0.00e+00    0 0.00e+00  0
DMRefine               2 1.0 1.0450e-02 1.1 0.00e+00 0.0 3.9e+05 6.8e+01 2.2e+01  0  0  0  0  0   0  0  0  0  0     0       0      0 0.00e+00    0 0.00e+00  0
DMCreateMat            1 1.0 1.3662e-01 1.0 0.00e+00 0.0 5.8e+05 4.3e+03 1.3e+01  1  0  0  1  0   1  0  0  1  0     0       0      0 0.00e+00    0 0.00e+00  0
DMPlexCrFromOpts       1 1.0 1.4724e-02 1.8 0.00e+00 0.0 0.0e+00 0.0e+00 1.0e+00  0  0  0  0  0   0  0  0  0  0     0       0      0 0.00e+00    0 0.00e+00  0
Mesh Partition         1 1.0 1.7315e-01 1.1 0.00e+00 0.0 1.6e+04 2.7e+02 6.0e+00  1  0  0  0  0   1  0  0  0  0     0       0      0 0.00e+00    0 0.00e+00  0
Mesh Migration         1 1.0 3.5130e+00 1.0 0.00e+00 0.0 9.5e+04 1.9e+02 2.7e+01 18  0  0  0  0  19  0  0  0  0     0       0      0 0.00e+00    0 0.00e+00  0
DMPlexPartSelf         1 1.0 3.9661e-02 1416.8 0.00e+00 0.0 0.0e+00 0.0e+00 0.0e+00  0  0  0  0  0   0  0  0  0  0     0       0      0 0.00e+00    0 0.00e+00  0
DMPlexPartLblInv       1 1.0 7.0240e-02 2.3 0.00e+00 0.0 0.0e+00 0.0e+00 3.0e+00  0  0  0  0  0   0  0  0  0  0     0       0      0 0.00e+00    0 0.00e+00  0
DMPlexPartLblSF        1 1.0 4.1467e-02 1.7 0.00e+00 0.0 6.1e+03 1.5e+02 0.0e+00  0  0  0  0  0   0  0  0  0  0     0       0      0 0.00e+00    0 0.00e+00  0
DMPlexPartStrtSF       1 1.0 1.7541e-02 2.3 0.00e+00 0.0 4.1e+03 4.3e+02 0.0e+00  0  0  0  0  0   0  0  0  0  0     0       0      0 0.00e+00    0 0.00e+00  0
DMPlexPointSF          1 1.0 1.1131e-01 1.0 0.00e+00 0.0 8.2e+03 5.4e+02 0.0e+00  1  0  0  0  0   1  0  0  0  0     0       0      0 0.00e+00    0 0.00e+00  0
DMPlexInterp          30 1.0 2.4519e-03 2.7 0.00e+00 0.0 0.0e+00 0.0e+00 0.0e+00  0  0  0  0  0   0  0  0  0  0     0       0      0 0.00e+00    0 0.00e+00  0
DMPlexDistribute       1 1.0 3.8032e+00 1.0 0.00e+00 0.0 1.2e+05 2.2e+02 3.6e+01 20  0  0  0  0  20  0  0  0  0     0       0      0 0.00e+00    0 0.00e+00  0
DMPlexDistCones        1 1.0 6.4765e-02 1.0 0.00e+00 0.0 2.3e+04 3.1e+02 1.0e+00  0  0  0  0  0   0  0  0  0  0     0       0      0 0.00e+00    0 0.00e+00  0
DMPlexDistLabels       1 1.0 9.6380e-02 1.0 0.00e+00 0.0 4.2e+04 1.8e+02 2.1e+01  0  0  0  0  0   1  0  0  0  0     0       0      0 0.00e+00    0 0.00e+00  0
DMPlexDistField        1 1.0 3.3457e+00 1.0 0.00e+00 0.0 2.7e+04 9.3e+01 1.0e+00 17  0  0  0  0  18  0  0  0  0     0       0      0 0.00e+00    0 0.00e+00  0
DMPlexStratify        47 1.0 1.7304e-02 2.7 0.00e+00 0.0 0.0e+00 0.0e+00 4.0e+00  0  0  0  0  0   0  0  0  0  0     0       0      0 0.00e+00    0 0.00e+00  0
DMPlexSymmetrize      47 1.0 1.6092e-03 30.6 0.00e+00 0.0 0.0e+00 0.0e+00 0.0e+00  0  0  0  0  0   0  0  0  0  0     0       0      0 0.00e+00    0 0.00e+00  0
DMPlexPrealloc         1 1.0 1.2754e-01 1.5 0.00e+00 0.0 5.8e+05 4.3e+03 1.1e+01  1  0  0  1  0   1  0  0  1  0     0       0      0 0.00e+00    0 0.00e+00  0
DMPlexResidualFE       1 1.0 5.4333e-03 2.3 8.24e+05 1.0 0.0e+00 0.0e+00 0.0e+00  0  2  0  0  0   0  4  0  0  0 621383       0      0 0.00e+00    0 0.00e+00  0
DMPlexJacobianFE       1 1.0 1.2846e+00 33.1 1.47e+06 1.0 3.9e+04 2.1e+04 1.0e+00  3  4  0  0  0   3  7  0  0  0  4681       0      0 0.00e+00    0 0.00e+00  0
DMPlexGenerate         1 1.0 1.4654e-02 1.8 0.00e+00 0.0 0.0e+00 0.0e+00 1.0e+00  0  0  0  0  0   0  0  0  0  0     0       0      0 0.00e+00    0 0.00e+00  0
DMPlexTransform        2 1.0 8.7951e-03 1.3 0.00e+00 0.0 3.9e+05 6.8e+01 1.0e+01  0  0  0  0  0   0  0  0  0  0     0       0      0 0.00e+00    0 0.00e+00  0
SFSetGraph         12365 1.0 4.9711e-03 3.9 0.00e+00 0.0 0.0e+00 0.0e+00 0.0e+00  0  0  0  0  0   0  0  0  0  0     0       0      0 0.00e+00    0 0.00e+00  0
SFSetUp            12359 1.0 4.9276e+00 2.5 0.00e+00 0.0 2.1e+08 1.5e+02 0.0e+00 21  0 25 15  0  22  0 26 15  0     0       0      0 0.00e+00    0 0.00e+00  0
SFBcastBegin       24680 1.0 3.1730e+00 5.9 0.00e+00 0.0 4.6e+08 2.5e+02 0.0e+00  8  0 55 52  0   8  0 57 53  0     0       0      2 5.59e-03    0 0.00e+00  0
SFBcastEnd         24680 1.0 2.8724e+00 10.1 0.00e+00 0.0 0.0e+00 0.0e+00 0.0e+00  5  0  0  0  0   6  0  0  0  0     0       0      1 1.59e-03    0 0.00e+00  0
SFReduceBegin       4118 1.0 1.3612e-01 8.0 0.00e+00 0.0 1.1e+08 5.5e+02 0.0e+00  0  0 13 26  0   0  0 13 27  0     0       0      0 0.00e+00    0 0.00e+00  0
SFReduceEnd         4118 1.0 2.7930e+00 302.5 2.17e+02 0.0 0.0e+00 0.0e+00 0.0e+00  5  0  0  0  0   5  0  0  0  0     0       0      0 0.00e+00    0 0.00e+00  100
SFFetchOpBegin         2 1.0 1.7533e-04 56.6 0.00e+00 0.0 5.1e+04 5.4e+03 0.0e+00  0  0  0  0  0   0  0  0  0  0     0       0      0 0.00e+00    0 0.00e+00  0
SFFetchOpEnd           2 1.0 2.9681e-02 111.1 0.00e+00 0.0 5.1e+04 5.4e+03 0.0e+00  0  0  0  0  0   0  0  0  0  0     0       0      0 0.00e+00    0 0.00e+00  0
SFCreateEmbed          5 1.0 4.2874e-02 44.9 0.00e+00 0.0 1.1e+05 2.0e+01 0.0e+00  0  0  0  0  0   0  0  0  0  0     0       0      0 0.00e+00    0 0.00e+00  0
SFDistSection       8199 1.0 2.0640e+00 1.3 0.00e+00 0.0 5.8e+08 2.4e+02 8.2e+03 10  0 70 63 28  10  0 72 65 28     0       0      0 0.00e+00    0 0.00e+00  0
SFSectionSF         8203 1.0 4.0933e+00 3.9 0.00e+00 0.0 5.0e+07 4.0e+01 0.0e+00 17  0  6  1  0  17  0  6  1  0     0       0      0 0.00e+00    0 0.00e+00  0
SFRemoteOff            4 1.0 4.1094e-02 60.4 0.00e+00 0.0 2.4e+05 8.2e+01 0.0e+00  0  0  0  0  0   0  0  0  0  0     0       0      0 0.00e+00    0 0.00e+00  0
SFPack             29783 1.0 1.1458e+00 52.0 0.00e+00 0.0 0.0e+00 0.0e+00 0.0e+00  2  0  0  0  0   2  0  0  0  0     0       0      5 3.31e-02    0 0.00e+00  0
SFUnpack           29785 1.0 9.5487e-02 21.9 1.82e+05 3705.0 0.0e+00 0.0e+00 0.0e+00  0  0  0  0  0   0  0  0  0  0   188       0      1 2.27e-03    0 0.00e+00  100
VecTDot              169 1.0 1.3547e+00 18.4 1.42e+05 1.5 0.0e+00 0.0e+00 1.7e+02  7  0  0  0  1   7  1  0  0  1   374       0      0 0.00e+00    0 0.00e+00  100
VecNorm               50 1.0 8.4897e-01 1.0 5.12e+04 1.5 0.0e+00 0.0e+00 5.0e+01  4  0  0  0  0   4  0  0  0  0   241       0      0 0.00e+00    0 0.00e+00  100
VecCopy              450 1.0 3.9579e-02 3.3 0.00e+00 0.0 0.0e+00 0.0e+00 0.0e+00  0  0  0  0  0   0  0  0  0  0     0       0      0 0.00e+00    0 0.00e+00  0
VecSet               198 1.0 1.1297e-02 7.6 0.00e+00 0.0 0.0e+00 0.0e+00 0.0e+00  0  0  0  0  0   0  0  0  0  0     0       0      0 0.00e+00    0 0.00e+00  0
VecAXPY              159 1.0 1.5341e+00 5.8 1.36e+05 1.5 0.0e+00 0.0e+00 0.0e+00  2  0  0  0  0   2  1  0  0  0   319       0      0 0.00e+00    0 0.00e+00  100
VecAYPX              957 1.0 9.5995e-03 5.9 5.71e+05 2.1 0.0e+00 0.0e+00 0.0e+00  0  1  0  0  0   0  2  0  0  0 153743       0      0 0.00e+00    0 0.00e+00  100
VecAXPBYCZ           294 1.0 1.1425e+00 4.2 4.27e+05 2.2 0.0e+00 0.0e+00 0.0e+00  2  1  0  0  0   2  1  0  0  0   905       0      0 0.00e+00    0 0.00e+00  100
VecAssemblyBegin      17 1.0 1.6961e-02 2.4 0.00e+00 0.0 0.0e+00 0.0e+00 0.0e+00  0  0  0  0  0   0  0  0  0  0     0       0      0 0.00e+00    0 0.00e+00  0
VecAssemblyEnd        17 1.0 1.3284e-04 5.3 0.00e+00 0.0 0.0e+00 0.0e+00 0.0e+00  0  0  0  0  0   0  0  0  0  0     0       0      0 0.00e+00    0 0.00e+00  0
VecPointwiseMult     621 1.0 3.6982e-03 3.9 1.81e+05 2.2 0.0e+00 0.0e+00 0.0e+00  0  0  0  0  0   0  0  0  0  0 118153       0      0 0.00e+00    0 0.00e+00  100
VecScatterBegin      983 1.0 9.3215e-02 4.9 0.00e+00 0.0 2.8e+07 2.7e+02 0.0e+00  0  0  3  3  0   0  0  3  3  0     0       0      4 3.15e-02    0 0.00e+00  0
VecScatterEnd        983 1.0 1.8592e+00 34.5 1.82e+05 0.0 0.0e+00 0.0e+00 0.0e+00  4  0  0  0  0   4  0  0  0  0     9       0      0 6.81e-04    0 0.00e+00  100
DualSpaceSetUp         5 1.0 1.2347e-02 1.5 3.13e+03 1.0 0.0e+00 0.0e+00 0.0e+00  0  0  0  0  0   0  0  0  0  0  1040       0      0 0.00e+00    0 0.00e+00  0
FESetUp                5 1.0 7.4772e-04 2.3 0.00e+00 0.0 0.0e+00 0.0e+00 0.0e+00  0  0  0  0  0   0  0  0  0  0     0       0      0 0.00e+00    0 0.00e+00  0
PCSetUp_GAMG+          1 1.0 5.5550e+00 1.0 2.82e+06 6.1 5.9e+06 1.0e+03 3.9e+02 29  2  1  3  1  29  4  1  3  1   603       0      4 3.15e-02    0 0.00e+00  100
 PCGAMGCreateG         3 1.0 1.5832e+00 1.0 2.44e+05 6.5 3.3e+05 2.2e+02 1.8e+01  8  0  0  0  0   8  0  0  0  0   176       0      1 6.56e-03    0 0.00e+00  100
 GAMG Coarsen          6 1.0 1.3773e+00 1.0 0.00e+00 0.0 2.0e+06 1.7e+03 6.8e+01  7  0  0  2  0   7  0  0  2  0     0       0      2 1.84e-02    0 0.00e+00  0
  GAMG MIS/Agg         3 1.0 1.3569e+00 1.0 0.00e+00 0.0 1.6e+06 2.1e+03 6.8e+01  7  0  0  1  0   7  0  0  2  0     0       0      0 0.00e+00    0 0.00e+00  0
 PCGAMGProl            3 1.0 2.7154e-02 1.2 0.00e+00 0.0 3.3e+05 4.0e+02 2.4e+01  0  0  0  0  0   0  0  0  0  0     0       0      0 0.00e+00    0 0.00e+00  0
  GAMG Prol-col        3 1.0 6.8120e-03 1.6 0.00e+00 0.0 2.0e+05 5.6e+02 0.0e+00  0  0  0  0  0   0  0  0  0  0     0       0      0 0.00e+00    0 0.00e+00  0
  GAMG Prol-lift       3 1.0 1.5237e-02 1.2 0.00e+00 0.0 1.3e+05 1.5e+02 1.2e+01  0  0  0  0  0   0  0  0  0  0     0       0      0 0.00e+00    0 0.00e+00  0
 PCGAMGOptProl         3 1.0 2.2456e+00 1.0 2.57e+06 6.0 1.6e+06 2.3e+02 8.7e+01 12  2  0  0  0  12  3  0  0  0  1369       0      1 6.56e-03    0 0.00e+00  100
  GAMG smooth          3 1.0 6.8092e-01 1.0 3.60e+04 5.1 6.6e+05 1.7e+02 1.8e+01  4  0  0  0  0   4  0  0  0  0    69       0      0 0.00e+00    0 0.00e+00  96
 PCGAMGCreateL         3 1.0 3.1240e-01 1.0 0.00e+00 0.0 1.5e+06 1.2e+03 1.9e+02  2  0  0  1  1   2  0  0  1  1     0       0      0 0.00e+00    0 0.00e+00  0
  GAMG PtAP            3 1.0 1.8906e-01 1.0 0.00e+00 0.0 1.5e+06 1.2e+03 3.6e+01  1  0  0  1  0   1  0  0  1  0     0       0      0 0.00e+00    0 0.00e+00  0
  GAMG Reduce          3 1.0 1.2400e-01 1.0 0.00e+00 0.0 8.4e+04 2.3e+03 1.5e+02  1  0  0  0  1   1  0  0  0  1     0       0      0 0.00e+00    0 0.00e+00  0
PCGAMG Squ l00         1 1.0 1.3008e+00 1.0 0.00e+00 0.0 4.2e+05 6.0e+03 6.0e+00  7  0  0  1  0   7  0  0  1  0     0       0      0 0.00e+00    0 0.00e+00  0
PCGAMG Gal l00         1 1.0 8.7752e-02 1.0 0.00e+00 0.0 1.3e+06 1.1e+03 1.2e+01  0  0  0  1  0   0  0  0  1  0     0       0      0 0.00e+00    0 0.00e+00  0
PCGAMG Opt l00         1 1.0 2.9644e-02 1.0 0.00e+00 0.0 6.2e+05 1.6e+02 6.0e+00  0  0  0  0  0   0  0  0  0  0     0       0      0 0.00e+00    0 0.00e+00  0
PCGAMG Squ l01         1 1.0 2.9365e-02 1.0 0.00e+00 0.0 2.7e+04 3.3e+03 6.0e+00  0  0  0  0  0   0  0  0  0  0     0       0      0 0.00e+00    0 0.00e+00  0
PCGAMG Gal l01         1 1.0 6.1080e-02 1.0 0.00e+00 0.0 1.0e+05 2.2e+03 1.2e+01  0  0  0  0  0   0  0  0  0  0     0       0      0 0.00e+00    0 0.00e+00  0
PCGAMG Opt l01         1 1.0 2.3391e-02 1.0 0.00e+00 0.0 3.8e+04 2.7e+02 6.0e+00  0  0  0  0  0   0  0  0  0  0     0       0      0 0.00e+00    0 0.00e+00  0
PCGAMG Gal l02         1 1.0 4.0276e-02 1.0 0.00e+00 0.0 2.5e+03 8.7e+03 1.2e+01  0  0  0  0  0   0  0  0  0  0     0       0      0 0.00e+00    0 0.00e+00  0
PCGAMG Opt l02         1 1.0 1.5581e-02 1.0 0.00e+00 0.0 1.1e+03 3.9e+02 6.0e+00  0  0  0  0  0   0  0  0  0  0     0       0      0 0.00e+00    0 0.00e+00  0
PCSetUp                2 1.0 5.5610e+00 1.0 9.18e+06 19.8 5.9e+06 1.0e+03 3.9e+02 29  2  1  3  1  29  4  1  3  1   604       0      4 3.15e-02    0 0.00e+00  100
PCSetUpOnBlocks       49 1.0 6.0725e-03 83.2 7.71e+06 0.0 0.0e+00 0.0e+00 0.0e+00  0  0  0  0  0   0  0  0  0  0  1270       0      0 0.00e+00    0 0.00e+00  0
PCApply               49 1.0 1.3516e+00 1.0 5.25e+07 6.2 2.1e+07 2.6e+02 4.9e+01  7 37  3  3  0   7 68  3  3  0 45647       0      0 6.81e-04    0 0.00e+00  100

--- Event Stage 1: Solve only

MatMult              674 1.1 9.9016e-02 3.2 5.03e+07 5.5 2.4e+07 2.7e+02 0.0e+00  0 40  3  3  0  14 86 92 96  0 677053       0      0 0.00e+00    0 0.00e+00  100
MatMultAdd           147 1.0 6.2450e-02 4.1 1.72e+06 5.3 1.0e+06 1.3e+02 0.0e+00  0  1  0  0  0  14  3  4  2  0 35312       0      0 0.00e+00    0 0.00e+00  100
MatMultTranspose     147 1.0 2.8730e-02 9.8 1.88e+06 5.8 1.0e+06 1.3e+02 0.0e+00  0  1  0  0  0   2  3  4  2  0 77354       0      0 0.00e+00    0 0.00e+00  100
MatSolve              49 0.0 2.4367e-03 0.0 5.02e+06 0.0 0.0e+00 0.0e+00 0.0e+00  0  0  0  0  0   0  0  0  0  0  2062       0      0 0.00e+00    0 0.00e+00  0
MatResidual          147 1.0 2.6922e-02 3.8 1.20e+07 6.4 4.8e+06 2.7e+02 0.0e+00  0  8  1  1  0   4 18 19 20  0 514401       0      0 0.00e+00    0 0.00e+00  100
MatView                7 1.4 6.3664e-02 82.1 0.00e+00 0.0 0.0e+00 0.0e+00 5.0e+00  0  0  0  0  0  10  0  0  0  2     0       0      0 0.00e+00    0 0.00e+00  0
KSPSetUp               1 1.0 5.7610e-06 32.0 0.00e+00 0.0 0.0e+00 0.0e+00 0.0e+00  0  0  0  0  0   0  0  0  0  0     0       0      0 0.00e+00    0 0.00e+00  0
KSPSolve               1 1.0 2.6874e-01 1.0 5.53e+07 5.2 2.6e+07 2.6e+02 2.0e+02  1 45  3  3  1  80 96 100 100 96 280467       0      0 0.00e+00    0 0.00e+00  100
SNESSolve              1 1.0 2.7092e-01 1.0 5.60e+07 4.9 2.6e+07 2.6e+02 2.0e+02  1 46  3  3  1  81 100 100 100 96 289387       0      0 0.00e+00    0 0.00e+00  96
SNESFunctionEval       1 1.0 4.7830e-03 2.3 7.90e+05 1.1 5.1e+04 2.5e+02 0.0e+00  0  2  0  0  0   1  4  0  0  0 632315       0      0 0.00e+00    0 0.00e+00  0
DMPlexResidualFE       1 1.0 3.9706e-03 2.5 7.26e+05 1.0 0.0e+00 0.0e+00 0.0e+00  0  2  0  0  0   1  4  0  0  0 748681       0      0 0.00e+00    0 0.00e+00  0
SFBcastBegin           1 1.0 2.0729e-04 14.3 0.00e+00 0.0 2.6e+04 2.5e+02 0.0e+00  0  0  0  0  0   0  0  0  0  0     0       0      0 0.00e+00    0 0.00e+00  0
SFBcastEnd             1 1.0 8.6029e-04 514.2 0.00e+00 0.0 0.0e+00 0.0e+00 0.0e+00  0  0  0  0  0   0  0  0  0  0     0       0      0 0.00e+00    0 0.00e+00  0
SFReduceBegin          1 1.0 3.0228e-04 33.9 0.00e+00 0.0 2.6e+04 2.5e+02 0.0e+00  0  0  0  0  0   0  0  0  0  0     0       0      0 0.00e+00    0 0.00e+00  0
SFReduceEnd            1 1.0 2.6568e-03 1597.6 2.17e+02 0.0 0.0e+00 0.0e+00 0.0e+00  0  0  0  0  0   0  0  0  0  0   307       0      0 0.00e+00    0 0.00e+00  100
SFPack               933 1.0 3.6962e-03 4.6 0.00e+00 0.0 0.0e+00 0.0e+00 0.0e+00  0  0  0  0  0   0  0  0  0  0     0       0      0 0.00e+00    0 0.00e+00  0
SFUnpack             933 1.0 8.0533e-04 8.7 1.82e+05 3705.0 0.0e+00 0.0e+00 0.0e+00  0  0  0  0  0   0  0  0  0  0 22235       0      0 0.00e+00    0 0.00e+00  100
VecTDot              100 1.0 6.6469e-02 1.7 1.02e+05 1.5 0.0e+00 0.0e+00 1.0e+02  0  0  0  0  0  15  1  0  0 48  6163       0      0 0.00e+00    0 0.00e+00  100
VecNorm               50 1.0 1.3162e-02 1.3 5.12e+04 1.5 0.0e+00 0.0e+00 5.0e+01  0  0  0  0  0   4  0  0  0 24 15547       0      0 0.00e+00    0 0.00e+00  100
VecCopy              443 1.0 3.9597e-02 3.5 0.00e+00 0.0 0.0e+00 0.0e+00 0.0e+00  0  0  0  0  0   5  0  0  0  0     0       0      0 0.00e+00    0 0.00e+00  0
VecSet               201 1.0 1.1502e-02 6.9 0.00e+00 0.0 0.0e+00 0.0e+00 0.0e+00  0  0  0  0  0   1  0  0  0  0     0       0      0 0.00e+00    0 0.00e+00  0
VecAXPY               99 1.0 6.7546e-04 1.8 1.01e+05 1.5 0.0e+00 0.0e+00 0.0e+00  0  0  0  0  0   0  1  0  0  0 600452       0      0 0.00e+00    0 0.00e+00  100
VecAYPX              930 1.0 5.3476e-03 3.5 5.56e+05 2.1 0.0e+00 0.0e+00 0.0e+00  0  1  0  0  0   1  2  0  0  0 268881       0      0 0.00e+00    0 0.00e+00  100
VecAXPBYCZ           294 1.0 1.9196e-03 3.5 4.27e+05 2.2 0.0e+00 0.0e+00 0.0e+00  0  1  0  0  0   0  1  0  0  0 538825       0      0 0.00e+00    0 0.00e+00  100
VecPointwiseMult     588 1.0 3.6324e-03 4.2 1.71e+05 2.2 0.0e+00 0.0e+00 0.0e+00  0  0  0  0  0   0  1  0  0  0 113903       0      0 0.00e+00    0 0.00e+00  100
VecScatterBegin      931 1.0 8.2718e-02 4.8 0.00e+00 0.0 2.6e+07 2.6e+02 0.0e+00  0  0  3  3  0   9  0 100 100  0     0       0      0 0.00e+00    0 0.00e+00  0
VecScatterEnd        931 1.0 8.1602e-02 2.5 1.82e+05 0.0 0.0e+00 0.0e+00 0.0e+00  0  0  0  0  0  19  0  0  0  0   209       0      0 0.00e+00    0 0.00e+00  100
PCSetUpOnBlocks       49 1.0 4.5805e-05 3.2 0.00e+00 0.0 0.0e+00 0.0e+00 0.0e+00  0  0  0  0  0   0  0  0  0  0     0       0      0 0.00e+00    0 0.00e+00  0
PCApply               49 1.0 2.0781e-01 1.1 5.25e+07 6.2 2.1e+07 2.6e+02 4.9e+01  1 37  3  3  0  59 79 82 82 24 296853       0      0 0.00e+00    0 0.00e+00  100
---------------------------------------------------------------------------------------------------------------------------------------------------------------

Object Type          Creations   Destructions. Reports information only for process 0.

--- Event Stage 0: Main Stage

           Container    69             69
                SNES     1              1
              DMSNES     1              1
       Krylov Solver     9              9
     DMKSP interface     1              1
              Matrix   253            253
      Matrix Coarsen     3              3
    Distributed Mesh   104            104
            DM Label  8440           8440
          Quadrature   286            286
      Mesh Transform     2              2
           Index Set 38041          38041
   IS L to G Mapping   194            194
             Section 16751          16751
   Star Forest Graph 12566          12566
     Discrete System   157            157
           Weak Form   158            158
    GraphPartitioner    47             47
              Vector   202            202
        Linear Space    10             10
          Dual Space    49             49
            FE Space     5              5
              Viewer     2              2
      Preconditioner     9              9
       Field over DM     1              1
         PetscRandom     3              3

--- Event Stage 1: Solve only

          Quadrature     1              1
           Index Set    31             31
              Viewer     1              1
========================================================================================================================
Average time to get PetscTime(): 4.91e-08
Average time for MPI_Barrier(): 3.94386e-05
Average time for zero size MPI_Send(): 8.27792e-06
#PETSc Option Table entries:
-benchmark_it 1 # (source: file)
-dm_mat_type aijkokkos # (source: file)
-dm_plex_box_faces 16,16,16 # (source: command line)
-dm_plex_box_lower 0,0,0 # (source: file)
-dm_plex_box_upper 4,2,1 # (source: file)
-dm_plex_dim 3 # (source: file)
-dm_plex_simplex 0 # (source: file)
-dm_refine 2 # (source: command line)
-dm_vec_type kokkos # (source: file)
-dm_view # (source: file)
-info :pc,is # (source: file)
-ksp_converged_reason # (source: file)
-ksp_monitor # (source: file)
-ksp_norm_type unpreconditioned # (source: file)
-ksp_rtol 1e-12 # (source: file)
-ksp_type cg # (source: file)
-log_view # (source: file)
-mg_levels_ksp_chebyshev_esteig 0,0.2,0,1.05 # (source: file)
-options_left # (source: file)
-pc_gamg_aggressive_coarsening 2 # (source: file)
-pc_gamg_aggressive_square_graph true # (source: file)
-pc_gamg_coarse_eq_limit 1000 # (source: file)
-pc_gamg_esteig_ksp_type cg # (source: file)
-pc_gamg_mis_k_minimum_degree_ordering true # (source: file)
-pc_gamg_process_eq_limit 200 # (source: file)
-pc_gamg_reuse_interpolation true # (source: file)
-pc_gamg_threshold 0.04 # (source: file)
-pc_gamg_threshold_scale .25 # (source: file)
-pc_type gamg # (source: file)
-petscpartitioner_simple_node_grid 4,4,4 # (source: command line)
-petscpartitioner_simple_process_grid 4,4,4 # (source: file)
-petscpartitioner_type simple # (source: file)
-potential_petscspace_degree 2 # (source: command line)
-snes_lag_jacobian -2 # (source: file)
-snes_type ksponly # (source: file)
-snes_view # (source: file)
#End of PETSc Option Table entries
Compiled without FORTRAN kernels
Compiled with 64-bit PetscInt
Compiled with full precision matrices (default)
sizeof(short) 2 sizeof(int) 4 sizeof(long) 8 sizeof(void*) 8 sizeof(PetscScalar) 8 sizeof(PetscInt) 8
Configure options: --with-cc=cc --with-cxx=CC --with-fc=ftn --with-strict-petscerrorcode --with-make-np=8 LIBS="-L/opt/cray/pe/mpich/8.1.27/gtl/lib -lmpi_gtl_hsa" --with-debugging=0 --COPTFLAGS="-g -Ofast -march=native -Wno-deprecated" --CXXOPTFLAGS="-g -Ofast -march=native -Wno-deprecated" --FOPTFLAGS="-g -Ofast -march=native" --with-64-bit-indices=1 --with-mpiexec=srun --with-hip --with-hipc=hipcc --download-hdf5=1 --download-metis --download-parmetis --download-hypre --download-hypre-configure-arguments="--enable-bigint=no --enable-mixedint=yes" --with-hypre-gpuarch=gfx90a --with-hip-arch=gfx90a --download-kokkos --download-kokkos-kernels --with-kokkos-kernels-tpl=0 PETSC_ARCH=arch-olcf-crusher-kok
-----------------------------------------
Libraries compiled on 2024-02-08 13:00:33 on login08 
Machine characteristics: Linux-5.14.21-150400.24.46_12.0.83-cray_shasta_c-x86_64-with-glibc2.3.4
Using PETSc directory: /lustre/orion/csc314/scratch/adams/petsc
Using PETSc arch: arch-olcf-crusher-kok
-----------------------------------------

Using C compiler: cc  -fPIC -Wall -Wwrite-strings -Wno-unknown-pragmas -Wno-lto-type-mismatch -Wno-stringop-overflow -fstack-protector -fvisibility=hidden -g -Ofast -march=native -Wno-deprecated  
Using Fortran compiler: ftn  -fPIC -Wall -ffree-line-length-none -ffree-line-length-0 -Wno-lto-type-mismatch -Wno-unused-dummy-argument -g -Ofast -march=native    
-----------------------------------------

Using include paths: -I/lustre/orion/csc314/scratch/adams/petsc/include -I/lustre/orion/csc314/scratch/adams/petsc/arch-olcf-crusher-kok/include -I/opt/rocm-5.4.3/include
-----------------------------------------

Using C linker: cc
Using Fortran linker: ftn
Using libraries: -Wl,-rpath,/lustre/orion/csc314/scratch/adams/petsc/arch-olcf-crusher-kok/lib -L/lustre/orion/csc314/scratch/adams/petsc/arch-olcf-crusher-kok/lib -lpetsc -Wl,-rpath,/lustre/orion/csc314/scratch/adams/petsc/arch-olcf-crusher-kok/lib -L/lustre/orion/csc314/scratch/adams/petsc/arch-olcf-crusher-kok/lib -Wl,-rpath,/opt/rocm-5.4.3/lib -L/opt/rocm-5.4.3/lib -Wl,-rpath,/opt/cray/pe/mpich/8.1.27/gtl/lib -L/opt/cray/pe/mpich/8.1.27/gtl/lib -Wl,-rpath,/opt/cray/pe/mpich/8.1.27/ofi/gnu/9.1/lib -L/opt/cray/pe/mpich/8.1.27/ofi/gnu/9.1/lib -Wl,-rpath,/opt/cray/pe/libsci/22.12.1.1/GNU/9.1/x86_64/lib -L/opt/cray/pe/libsci/22.12.1.1/GNU/9.1/x86_64/lib -Wl,-rpath,/sw/frontier/spack-envs/base/opt/cray-sles15-zen3/gcc-12.2.0/darshan-runtime-3.4.0-ftq5gccg3qjtyh5xeo2bz4wqkjayjhw3/lib -L/sw/frontier/spack-envs/base/opt/cray-sles15-zen3/gcc-12.2.0/darshan-runtime-3.4.0-ftq5gccg3qjtyh5xeo2bz4wqkjayjhw3/lib -Wl,-rpath,/opt/cray/pe/dsmml/0.2.2/dsmml/lib -L/opt/cray/pe/dsmml/0.2.2/dsmml/lib -Wl,-rpath,/opt/cray/pe/pmi/6.1.8/lib -L/opt/cray/pe/pmi/6.1.8/lib -Wl,-rpath,/opt/cray/xpmem/2.6.2-2.5_2.22__gd067c3f.shasta/lib64 -L/opt/cray/xpmem/2.6.2-2.5_2.22__gd067c3f.shasta/lib64 -Wl,-rpath,/opt/cray/pe/gcc/12.2.0/snos/lib/gcc/x86_64-suse-linux/12.2.0 -L/opt/cray/pe/gcc/12.2.0/snos/lib/gcc/x86_64-suse-linux/12.2.0 -Wl,-rpath,/opt/cray/pe/gcc/12.2.0/snos/lib64 -L/opt/cray/pe/gcc/12.2.0/snos/lib64 -Wl,-rpath,/opt/rocm-5.4.3/llvm/lib -L/opt/rocm-5.4.3/llvm/lib -Wl,-rpath,/opt/cray/pe/gcc/12.2.0/snos/lib -L/opt/cray/pe/gcc/12.2.0/snos/lib -lHYPRE -lkokkoskernels -lkokkoscontainers -lkokkoscore -lkokkossimd -lparmetis -lmetis -lhdf5_hl -lhdf5 -lhipsparse -lhipblas -lhipsolver -lrocsparse -lrocsolver -lrocblas -lrocrand -lamdhip64 -lmpi_gtl_hsa -ldarshan -lz -ldl -lxpmem -lgfortran -lm -lmpifort_gnu_91 -lmpi_gnu_91 -lsci_gnu_82_mpi -lsci_gnu_82 -ldsmml -lpmi -lpmi2 -lgfortran -lquadmath -lpthread -lm -lgcc_s -lstdc++ -lquadmath -lmpi_gtl_hsa
-----------------------------------------

#PETSc Option Table entries:
-benchmark_it 1 # (source: file)
-dm_mat_type aijkokkos # (source: file)
-dm_plex_box_faces 16,16,16 # (source: command line)
-dm_plex_box_lower 0,0,0 # (source: file)
-dm_plex_box_upper 4,2,1 # (source: file)
-dm_plex_dim 3 # (source: file)
-dm_plex_simplex 0 # (source: file)
-dm_refine 2 # (source: command line)
-dm_vec_type kokkos # (source: file)
-dm_view # (source: file)
-info :pc,is # (source: file)
-ksp_converged_reason # (source: file)
-ksp_monitor # (source: file)
-ksp_norm_type unpreconditioned # (source: file)
-ksp_rtol 1e-12 # (source: file)
-ksp_type cg # (source: file)
-log_view # (source: file)
-mg_levels_ksp_chebyshev_esteig 0,0.2,0,1.05 # (source: file)
-options_left # (source: file)
-pc_gamg_aggressive_coarsening 2 # (source: file)
-pc_gamg_aggressive_square_graph true # (source: file)
-pc_gamg_coarse_eq_limit 1000 # (source: file)
-pc_gamg_esteig_ksp_type cg # (source: file)
-pc_gamg_mis_k_minimum_degree_ordering true # (source: file)
-pc_gamg_process_eq_limit 200 # (source: file)
-pc_gamg_reuse_interpolation true # (source: file)
-pc_gamg_threshold 0.04 # (source: file)
-pc_gamg_threshold_scale .25 # (source: file)
-pc_type gamg # (source: file)
-petscpartitioner_simple_node_grid 4,4,4 # (source: command line)
-petscpartitioner_simple_process_grid 4,4,4 # (source: file)
-petscpartitioner_type simple # (source: file)
-potential_petscspace_degree 2 # (source: command line)
-snes_lag_jacobian -2 # (source: file)
-snes_type ksponly # (source: file)
-snes_view # (source: file)
#End of PETSc Option Table entries
There are no unused options.
