DM Object: box 512 MPI processes
  type: plex
box in 3 dimensions:
  Min/Max of 0-cells per rank: 35937/35937
  Min/Max of 1-cells per rank: 104544/104544
  Min/Max of 2-cells per rank: 101376/101376
  Min/Max of 3-cells per rank: 32768/32768
Labels:
  celltype: 4 strata with value/size (0 (35937), 1 (104544), 4 (101376), 7 (32768))
  depth: 4 strata with value/size (0 (35937), 1 (104544), 2 (101376), 3 (32768))
  marker: 1 strata with value/size (1 (12481))
  Face Sets: 3 strata with value/size (1 (3969), 3 (3969), 6 (3969))
Number equations N = 133432831
[0] <pc:gamg> PCSetUp_GAMG(): (null): level 0) N=133432831, n data rows=1, n data cols=1, nnz/row (ave)=64, block size 1, np=512
[0] <pc:gamg> PCGAMGCreateGraph_AGG(): 	 32.1449% nnz after filtering, with threshold 0.04, 61.7414 nnz ave. (N=133432831, max row size 125
[0] <pc:gamg> PCGAMGCreateGraph_AGG(): Filtering left 32.1449 % edges in graph (1.543825e+07 4.962604e+06)
[0] <pc:gamg> PCGAMGSquareGraph_GAMG(): (null): Square Graph on level 1
[0] <is> MatCoarsenApply_MIS_private(): mis: nloc = 250047
[0] <is> MatCoarsenApply_MIS_private(): 	 removed 0 of 250047 vertices.  7248 selected.
[0] <pc:gamg> fixAggregatesWithSquare(): isMPI = yes
[0] <pc:gamg> PCGAMGProlongator_AGG(): (null): New grid 3841268 nodes
[0] <pc:gamg> PCGAMGOptProlongator_AGG(): (null): Smooth P0: max eigen=2.539900e+00 min=6.425918e-02 PC=jacobi
[0] <pc:gamg> PCGAMGOptProlongator_AGG(): (null): Smooth P0: level 0, cache spectra 0.0642592 2.5399
[0] <pc:gamg> PCGAMGCreateLevel_GAMG(): (null): Coarse grid reduction from 512 to 512 active processes
[0] <pc:gamg> PCSetUp_GAMG(): (null): 1) N=3841268, n data cols=1, nnz/row (ave)=207, 512 active pes
[0] <pc:gamg> PCGAMGCreateGraph_AGG(): 	 9.33734% nnz after filtering, with threshold 0.01, 189.284 nnz ave. (N=3841268, max row size 271
[0] <pc:gamg> PCGAMGCreateGraph_AGG(): Filtering left 9.33734 % edges in graph (1.371933e+06 1.281020e+05)
[0] <pc:gamg> PCGAMGSquareGraph_GAMG(): (null): Square Graph on level 2
[0] <is> MatCoarsenApply_MIS_private(): mis: nloc = 7248
[0] <is> MatCoarsenApply_MIS_private(): 	 removed 0 of 7248 vertices.  241 selected.
[0] <pc:gamg> fixAggregatesWithSquare(): isMPI = yes
[0] <pc:gamg> PCGAMGProlongator_AGG(): (null): New grid 131303 nodes
[0] <pc:gamg> PCGAMGOptProlongator_AGG(): (null): Smooth P0: max eigen=1.392956e+00 min=4.259802e-02 PC=jacobi
[0] <pc:gamg> PCGAMGOptProlongator_AGG(): (null): Smooth P0: level 1, cache spectra 0.042598 1.39296
[0] <pc:gamg> PCGAMGCreateLevel_GAMG(): (null): Coarse grid reduction from 512 to 512 active processes
[0] <pc:gamg> PCSetUp_GAMG(): (null): 2) N=131303, n data cols=1, nnz/row (ave)=407, 512 active pes
[0] <pc:gamg> PCGAMGCreateGraph_AGG(): 	 11.1369% nnz after filtering, with threshold 0.0025, 279.025 nnz ave. (N=131303, max row size 384
[0] <pc:gamg> PCGAMGCreateGraph_AGG(): Filtering left 11.1369 % edges in graph (6.724500e+04 7.489000e+03)
[0] <pc:gamg> PCGAMGProlongator_AGG(): (null): New grid 11020 nodes
[0] <pc:gamg> PCGAMGOptProlongator_AGG(): (null): Smooth P0: max eigen=1.289325e+00 min=5.736280e-02 PC=jacobi
[0] <pc:gamg> PCGAMGOptProlongator_AGG(): (null): Smooth P0: level 2, cache spectra 0.0573628 1.28933
[0] <pc:gamg> PCGAMGCreateLevel_GAMG(): (null): Coarse grid reduction from 512 to 55 active processes
[0] <pc:gamg> PCGAMGCreateLevel_GAMG(): (null): Number of equations (loc) 22 with simple aggregation
[0] <pc:gamg> PCSetUp_GAMG(): (null): 3) N=11020, n data cols=1, nnz/row (ave)=1019, 64 active pes
[0] <pc:gamg> PCGAMGCreateGraph_AGG(): 	 10.6762% nnz after filtering, with threshold 0.000625, 610.957 nnz ave. (N=11020, max row size 860
[0] <pc:gamg> PCGAMGCreateGraph_AGG(): Filtering left 10.6762 % edges in graph (9.958600e+04 1.063200e+04)
[0] <pc:gamg> PCGAMGProlongator_AGG(): (null): New grid 479 nodes
[0] <pc:gamg> PCGAMGOptProlongator_AGG(): (null): Smooth P0: max eigen=2.163115e+00 min=1.290464e-01 PC=jacobi
[0] <pc:gamg> PCGAMGOptProlongator_AGG(): (null): Smooth P0: level 3, cache spectra 0.129046 2.16311
[0] <pc:gamg> PCGAMGCreateLevel_GAMG(): (null): Force coarsest grid reduction to 1 active processes
[0] <pc:gamg> PCGAMGCreateLevel_GAMG(): (null): Number of equations (loc) 4 with simple aggregation
[0] <pc:gamg> PCSetUp_GAMG(): (null): 4) N=479, n data cols=1, nnz/row (ave)=457, 1 active pes
[0] <pc:gamg> PCSetUp_GAMG(): (null): 5 levels, operator complexity = 1.10162
[0] <pc:gamg> PCSetUp_GAMG(): (null): PCSetUp_GAMG: call KSPChebyshevSetEigenvalues on level 3 (N=11020) with emax = 2.16311 emin = 0.129046
[0] <pc:gamg> PCSetUp_GAMG(): (null): PCSetUp_GAMG: call KSPChebyshevSetEigenvalues on level 2 (N=131303) with emax = 1.28933 emin = 0.0573628
[0] <pc:gamg> PCSetUp_GAMG(): (null): PCSetUp_GAMG: call KSPChebyshevSetEigenvalues on level 1 (N=3841268) with emax = 1.39296 emin = 0.042598
[0] <pc:gamg> PCSetUp_GAMG(): (null): PCSetUp_GAMG: call KSPChebyshevSetEigenvalues on level 0 (N=133432831) with emax = 2.5399 emin = 0.0642592
[0] <pc:gamg> PCSetUp_MG(): Using outer operators to define finest grid operator 
  because PCMGGetSmoother(pc,nlevels-1,&ksp);KSPSetOperators(ksp,...); was not called.
    0 KSP Residual norm 1.744207195017e+01 
    1 KSP Residual norm 1.453973944531e+00 
    2 KSP Residual norm 6.800178499169e-01 
    3 KSP Residual norm 5.086715312252e-01 
    4 KSP Residual norm 3.204759516763e-01 
    5 KSP Residual norm 2.160365366724e-01 
    6 KSP Residual norm 1.369198573889e-01 
    7 KSP Residual norm 7.720401467142e-02 
    8 KSP Residual norm 3.956757738673e-02 
    9 KSP Residual norm 2.152815312970e-02 
   10 KSP Residual norm 1.268042650040e-02 
   11 KSP Residual norm 7.591738326764e-03 
   12 KSP Residual norm 4.702817169439e-03 
   13 KSP Residual norm 2.913839541251e-03 
   14 KSP Residual norm 1.828560633664e-03 
   15 KSP Residual norm 1.126219413393e-03 
   16 KSP Residual norm 6.559722553244e-04 
   17 KSP Residual norm 3.919982946033e-04 
   18 KSP Residual norm 2.412773687969e-04 
   19 KSP Residual norm 1.444277300647e-04 
   20 KSP Residual norm 8.264035751594e-05 
   21 KSP Residual norm 4.663860246830e-05 
   22 KSP Residual norm 2.730062522700e-05 
   23 KSP Residual norm 1.635725299503e-05 
   24 KSP Residual norm 9.481492830326e-06 
   25 KSP Residual norm 5.461763417707e-06 
   26 KSP Residual norm 3.276433812906e-06 
   27 KSP Residual norm 2.027554446169e-06 
   28 KSP Residual norm 1.256009349495e-06 
   29 KSP Residual norm 7.639488053530e-07 
   30 KSP Residual norm 4.604414812132e-07 
   31 KSP Residual norm 2.783612790052e-07 
   32 KSP Residual norm 1.681989411213e-07 
   33 KSP Residual norm 1.003809006137e-07 
   34 KSP Residual norm 5.911023370024e-08 
   35 KSP Residual norm 3.526536481559e-08 
   36 KSP Residual norm 2.142274813845e-08 
   37 KSP Residual norm 1.301314055461e-08 
   38 KSP Residual norm 7.680653274075e-09 
   39 KSP Residual norm 4.434425720896e-09 
   40 KSP Residual norm 2.551476782242e-09 
   41 KSP Residual norm 1.480974482373e-09 
   42 KSP Residual norm 8.669071408998e-10 
   43 KSP Residual norm 5.128978712215e-10 
   44 KSP Residual norm 3.056488743752e-10 
   45 KSP Residual norm 1.844120974131e-10 
   46 KSP Residual norm 1.117582759049e-10 
   47 KSP Residual norm 6.747103781961e-11 
   48 KSP Residual norm 4.064073922148e-11 
   49 KSP Residual norm 2.456452262481e-11 
   50 KSP Residual norm 1.501816961581e-11 
  Linear solve converged due to CONVERGED_RTOL iterations 50
SNES Object: 512 MPI processes
  type: ksponly
  maximum iterations=50, maximum function evaluations=10000
  tolerances: relative=1e-08, absolute=1e-50, solution=1e-08
  total number of linear solver iterations=50
  total number of function evaluations=1
  norm schedule ALWAYS
  Jacobian is never rebuilt
  KSP Object: 512 MPI processes
    type: cg
    maximum iterations=10000, initial guess is zero
    tolerances:  relative=1e-12, absolute=1e-50, divergence=10000.
    left preconditioning
    using UNPRECONDITIONED norm type for convergence test
  PC Object: 512 MPI processes
    type: gamg
      type is MULTIPLICATIVE, levels=5 cycles=v
        Cycles per PCApply=1
        Using externally compute Galerkin coarse grid matrices
        GAMG specific options
          Threshold for dropping small values in graph on each level =     0.04     0.01     0.0025     0.000625     0.00015625    
          Threshold scaling factor for each level not specified = 0.25
          AGG specific options
            Number of levels of aggressive coarsening 2
            Square graph aggressive coarsening
            Number smoothing steps 1
          Complexity:    grid = 1.02986    operator = 1.10162
    Coarse grid solver -- level 0 -------------------------------
      KSP Object: (mg_coarse_) 512 MPI processes
        type: preonly
        maximum iterations=10000, initial guess is zero
        tolerances:  relative=1e-05, absolute=1e-50, divergence=10000.
        left preconditioning
        using NONE norm type for convergence test
      PC Object: (mg_coarse_) 512 MPI processes
        type: bjacobi
          number of blocks = 512
          Local solver information for first block is in the following KSP and PC objects on rank 0:
          Use -mg_coarse_ksp_view ::ascii_info_detail to display information for all blocks
          KSP Object: (mg_coarse_sub_) 1 MPI process
            type: preonly
            maximum iterations=1, initial guess is zero
            tolerances:  relative=1e-05, absolute=1e-50, divergence=10000.
            left preconditioning
            using NONE norm type for convergence test
          PC Object: (mg_coarse_sub_) 1 MPI process
            type: lu
              out-of-place factorization
              tolerance for zero pivot 2.22045e-14
              using diagonal shift on blocks to prevent zero pivot [INBLOCKS]
              matrix ordering: nd
              factor fill ratio given 5., needed 1.04045
                Factored matrix follows:
                  Mat Object: (mg_coarse_sub_) 1 MPI process
                    type: seqaijkokkos
                    rows=479, cols=479
                    package used to perform factorization: kokkos
                    total: nonzeros=228131, allocated nonzeros=228131
                      using I-node routines: found 211 nodes, limit used is 5
            linear system matrix = precond matrix:
            Mat Object: (mg_coarse_sub_) 1 MPI process
              type: seqaijkokkos
              rows=479, cols=479
              total: nonzeros=219261, allocated nonzeros=219261
              total number of mallocs used during MatSetValues calls=0
                not using I-node routines
        linear system matrix = precond matrix:
        Mat Object: 512 MPI processes
          type: mpiaijkokkos
          rows=479, cols=479
          total: nonzeros=219261, allocated nonzeros=219261
          total number of mallocs used during MatSetValues calls=0
            not using I-node (on process 0) routines
    Down solver (pre-smoother) on level 1 -------------------------------
      KSP Object: (mg_levels_1_) 512 MPI processes
        type: chebyshev
          Chebyshev polynomial of first kind
          eigenvalue targets used: min 0.432623, max 2.27127
          eigenvalues provided (min 0.129046, max 2.16311) with transform: [0. 0.2; 0. 1.05]
        maximum iterations=2, nonzero initial guess
        tolerances:  relative=1e-05, absolute=1e-50, divergence=10000.
        left preconditioning
        using NONE norm type for convergence test
      PC Object: (mg_levels_1_) 512 MPI processes
        type: jacobi
          type DIAGONAL
        linear system matrix = precond matrix:
        Mat Object: 512 MPI processes
          type: mpiaijkokkos
          rows=11020, cols=11020
          total: nonzeros=11238524, allocated nonzeros=11238524
          total number of mallocs used during MatSetValues calls=0
            not using I-node (on process 0) routines
    Up solver (post-smoother) same as down solver (pre-smoother)
    Down solver (pre-smoother) on level 2 -------------------------------
      KSP Object: (mg_levels_2_) 512 MPI processes
        type: chebyshev
          Chebyshev polynomial of first kind
          eigenvalue targets used: min 0.257865, max 1.35379
          eigenvalues provided (min 0.0573628, max 1.28933) with transform: [0. 0.2; 0. 1.05]
        maximum iterations=2, nonzero initial guess
        tolerances:  relative=1e-05, absolute=1e-50, divergence=10000.
        left preconditioning
        using NONE norm type for convergence test
      PC Object: (mg_levels_2_) 512 MPI processes
        type: jacobi
          type DIAGONAL
        linear system matrix = precond matrix:
        Mat Object: 512 MPI processes
          type: mpiaijkokkos
          rows=131303, cols=131303
          total: nonzeros=53524973, allocated nonzeros=53524973
          total number of mallocs used during MatSetValues calls=0
            not using I-node (on process 0) routines
    Up solver (post-smoother) same as down solver (pre-smoother)
    Down solver (pre-smoother) on level 3 -------------------------------
      KSP Object: (mg_levels_3_) 512 MPI processes
        type: chebyshev
          Chebyshev polynomial of first kind
          eigenvalue targets used: min 0.278591, max 1.4626
          eigenvalues provided (min 0.042598, max 1.39296) with transform: [0. 0.2; 0. 1.05]
        maximum iterations=2, nonzero initial guess
        tolerances:  relative=1e-05, absolute=1e-50, divergence=10000.
        left preconditioning
        using NONE norm type for convergence test
      PC Object: (mg_levels_3_) 512 MPI processes
        type: jacobi
          type DIAGONAL
        linear system matrix = precond matrix:
        Mat Object: 512 MPI processes
          type: mpiaijkokkos
          rows=3841268, cols=3841268
          total: nonzeros=796467826, allocated nonzeros=796467826
          total number of mallocs used during MatSetValues calls=0
            not using I-node (on process 0) routines
    Up solver (post-smoother) same as down solver (pre-smoother)
    Down solver (pre-smoother) on level 4 -------------------------------
      KSP Object: (mg_levels_4_) 512 MPI processes
        type: chebyshev
          Chebyshev polynomial of first kind
          eigenvalue targets used: min 0.50798, max 2.66689
          eigenvalues provided (min 0.0642592, max 2.5399) with transform: [0. 0.2; 0. 1.05]
        maximum iterations=2, nonzero initial guess
        tolerances:  relative=1e-05, absolute=1e-50, divergence=10000.
        left preconditioning
        using NONE norm type for convergence test
      PC Object: (mg_levels_4_) 512 MPI processes
        type: jacobi
          type DIAGONAL
        linear system matrix = precond matrix:
        Mat Object: 512 MPI processes
          type: mpiaijkokkos
          rows=133432831, cols=133432831
          total: nonzeros=8477185319, allocated nonzeros=8477185319
          total number of mallocs used during MatSetValues calls=0
            not using I-node (on process 0) routines
    Up solver (post-smoother) same as down solver (pre-smoother)
    linear system matrix = precond matrix:
    Mat Object: 512 MPI processes
      type: mpiaijkokkos
      rows=133432831, cols=133432831
      total: nonzeros=8477185319, allocated nonzeros=8477185319
      total number of mallocs used during MatSetValues calls=0
        not using I-node (on process 0) routines
    0 KSP Residual norm 1.744207195017e+01 
    1 KSP Residual norm 1.453988959289e+00 
    2 KSP Residual norm 6.800117781607e-01 
    3 KSP Residual norm 5.086606530888e-01 
    4 KSP Residual norm 3.204655150081e-01 
    5 KSP Residual norm 2.160150553806e-01 
    6 KSP Residual norm 1.368854740390e-01 
    7 KSP Residual norm 7.717523307242e-02 
    8 KSP Residual norm 3.955364356874e-02 
    9 KSP Residual norm 2.152189440394e-02 
   10 KSP Residual norm 1.267767089765e-02 
   11 KSP Residual norm 7.590181002821e-03 
   12 KSP Residual norm 4.701616862263e-03 
   13 KSP Residual norm 2.912916496790e-03 
   14 KSP Residual norm 1.827961324810e-03 
   15 KSP Residual norm 1.125903650465e-03 
   16 KSP Residual norm 6.558240358476e-04 
   17 KSP Residual norm 3.919669169155e-04 
   18 KSP Residual norm 2.412770381568e-04 
   19 KSP Residual norm 1.444479521749e-04 
   20 KSP Residual norm 8.265757129053e-05 
   21 KSP Residual norm 4.665250986218e-05 
   22 KSP Residual norm 2.730953805079e-05 
   23 KSP Residual norm 1.636427078241e-05 
   24 KSP Residual norm 9.486743060398e-06 
   25 KSP Residual norm 5.464877677884e-06 
   26 KSP Residual norm 3.278460906317e-06 
   27 KSP Residual norm 2.028999608673e-06 
   28 KSP Residual norm 1.257086559212e-06 
   29 KSP Residual norm 7.647337190189e-07 
   30 KSP Residual norm 4.609729070226e-07 
   31 KSP Residual norm 2.787340754315e-07 
   32 KSP Residual norm 1.684189879277e-07 
   33 KSP Residual norm 1.005100842487e-07 
   34 KSP Residual norm 5.918970175675e-08 
   35 KSP Residual norm 3.531590899872e-08 
   36 KSP Residual norm 2.146165772408e-08 
   37 KSP Residual norm 1.304186065429e-08 
   38 KSP Residual norm 7.699407747586e-09 
   39 KSP Residual norm 4.445042192410e-09 
   40 KSP Residual norm 2.557991552117e-09 
   41 KSP Residual norm 1.484770283777e-09 
   42 KSP Residual norm 8.691351317977e-10 
   43 KSP Residual norm 5.141379837152e-10 
   44 KSP Residual norm 3.063533682583e-10 
   45 KSP Residual norm 1.848423974249e-10 
   46 KSP Residual norm 1.120250639073e-10 
   47 KSP Residual norm 6.762735093914e-11 
   48 KSP Residual norm 4.072354118332e-11 
   49 KSP Residual norm 2.461102081505e-11 
   50 KSP Residual norm 1.504665519546e-11 
  Linear solve converged due to CONVERGED_RTOL iterations 50
SNES Object: 512 MPI processes
  type: ksponly
  maximum iterations=50, maximum function evaluations=10000
  tolerances: relative=1e-08, absolute=1e-50, solution=1e-08
  total number of linear solver iterations=50
  total number of function evaluations=1
  norm schedule ALWAYS
  Jacobian is never rebuilt
  KSP Object: 512 MPI processes
    type: cg
    maximum iterations=10000, initial guess is zero
    tolerances:  relative=1e-12, absolute=1e-50, divergence=10000.
    left preconditioning
    using UNPRECONDITIONED norm type for convergence test
  PC Object: 512 MPI processes
    type: gamg
      type is MULTIPLICATIVE, levels=5 cycles=v
        Cycles per PCApply=1
        Using externally compute Galerkin coarse grid matrices
        GAMG specific options
          Threshold for dropping small values in graph on each level =     0.04     0.01     0.0025     0.000625     0.00015625    
          Threshold scaling factor for each level not specified = 0.25
          AGG specific options
            Number of levels of aggressive coarsening 2
            Square graph aggressive coarsening
            Number smoothing steps 1
          Complexity:    grid = 1.02986    operator = 1.10162
    Coarse grid solver -- level 0 -------------------------------
      KSP Object: (mg_coarse_) 512 MPI processes
        type: preonly
        maximum iterations=10000, initial guess is zero
        tolerances:  relative=1e-05, absolute=1e-50, divergence=10000.
        left preconditioning
        using NONE norm type for convergence test
      PC Object: (mg_coarse_) 512 MPI processes
        type: bjacobi
          number of blocks = 512
          Local solver information for first block is in the following KSP and PC objects on rank 0:
          Use -mg_coarse_ksp_view ::ascii_info_detail to display information for all blocks
          KSP Object: (mg_coarse_sub_) 1 MPI process
            type: preonly
            maximum iterations=1, initial guess is zero
            tolerances:  relative=1e-05, absolute=1e-50, divergence=10000.
            left preconditioning
            using NONE norm type for convergence test
          PC Object: (mg_coarse_sub_) 1 MPI process
            type: lu
              out-of-place factorization
              tolerance for zero pivot 2.22045e-14
              using diagonal shift on blocks to prevent zero pivot [INBLOCKS]
              matrix ordering: nd
              factor fill ratio given 5., needed 1.04045
                Factored matrix follows:
                  Mat Object: (mg_coarse_sub_) 1 MPI process
                    type: seqaijkokkos
                    rows=479, cols=479
                    package used to perform factorization: kokkos
                    total: nonzeros=228131, allocated nonzeros=228131
                      using I-node routines: found 211 nodes, limit used is 5
            linear system matrix = precond matrix:
            Mat Object: (mg_coarse_sub_) 1 MPI process
              type: seqaijkokkos
              rows=479, cols=479
              total: nonzeros=219261, allocated nonzeros=219261
              total number of mallocs used during MatSetValues calls=0
                not using I-node routines
        linear system matrix = precond matrix:
        Mat Object: 512 MPI processes
          type: mpiaijkokkos
          rows=479, cols=479
          total: nonzeros=219261, allocated nonzeros=219261
          total number of mallocs used during MatSetValues calls=0
            not using I-node (on process 0) routines
    Down solver (pre-smoother) on level 1 -------------------------------
      KSP Object: (mg_levels_1_) 512 MPI processes
        type: chebyshev
          Chebyshev polynomial of first kind
          eigenvalue targets used: min 0.432623, max 2.27127
          eigenvalues provided (min 0.129046, max 2.16311) with transform: [0. 0.2; 0. 1.05]
        maximum iterations=2, nonzero initial guess
        tolerances:  relative=1e-05, absolute=1e-50, divergence=10000.
        left preconditioning
        using NONE norm type for convergence test
      PC Object: (mg_levels_1_) 512 MPI processes
        type: jacobi
          type DIAGONAL
        linear system matrix = precond matrix:
        Mat Object: 512 MPI processes
          type: mpiaijkokkos
          rows=11020, cols=11020
          total: nonzeros=11238524, allocated nonzeros=11238524
          total number of mallocs used during MatSetValues calls=0
            not using I-node (on process 0) routines
    Up solver (post-smoother) same as down solver (pre-smoother)
    Down solver (pre-smoother) on level 2 -------------------------------
      KSP Object: (mg_levels_2_) 512 MPI processes
        type: chebyshev
          Chebyshev polynomial of first kind
          eigenvalue targets used: min 0.257865, max 1.35379
          eigenvalues provided (min 0.0573628, max 1.28933) with transform: [0. 0.2; 0. 1.05]
        maximum iterations=2, nonzero initial guess
        tolerances:  relative=1e-05, absolute=1e-50, divergence=10000.
        left preconditioning
        using NONE norm type for convergence test
      PC Object: (mg_levels_2_) 512 MPI processes
        type: jacobi
          type DIAGONAL
        linear system matrix = precond matrix:
        Mat Object: 512 MPI processes
          type: mpiaijkokkos
          rows=131303, cols=131303
          total: nonzeros=53524973, allocated nonzeros=53524973
          total number of mallocs used during MatSetValues calls=0
            not using I-node (on process 0) routines
    Up solver (post-smoother) same as down solver (pre-smoother)
    Down solver (pre-smoother) on level 3 -------------------------------
      KSP Object: (mg_levels_3_) 512 MPI processes
        type: chebyshev
          Chebyshev polynomial of first kind
          eigenvalue targets used: min 0.278591, max 1.4626
          eigenvalues provided (min 0.042598, max 1.39296) with transform: [0. 0.2; 0. 1.05]
        maximum iterations=2, nonzero initial guess
        tolerances:  relative=1e-05, absolute=1e-50, divergence=10000.
        left preconditioning
        using NONE norm type for convergence test
      PC Object: (mg_levels_3_) 512 MPI processes
        type: jacobi
          type DIAGONAL
        linear system matrix = precond matrix:
        Mat Object: 512 MPI processes
          type: mpiaijkokkos
          rows=3841268, cols=3841268
          total: nonzeros=796467826, allocated nonzeros=796467826
          total number of mallocs used during MatSetValues calls=0
            not using I-node (on process 0) routines
    Up solver (post-smoother) same as down solver (pre-smoother)
    Down solver (pre-smoother) on level 4 -------------------------------
      KSP Object: (mg_levels_4_) 512 MPI processes
        type: chebyshev
          Chebyshev polynomial of first kind
          eigenvalue targets used: min 0.50798, max 2.66689
          eigenvalues provided (min 0.0642592, max 2.5399) with transform: [0. 0.2; 0. 1.05]
        maximum iterations=2, nonzero initial guess
        tolerances:  relative=1e-05, absolute=1e-50, divergence=10000.
        left preconditioning
        using NONE norm type for convergence test
      PC Object: (mg_levels_4_) 512 MPI processes
        type: jacobi
          type DIAGONAL
        linear system matrix = precond matrix:
        Mat Object: 512 MPI processes
          type: mpiaijkokkos
          rows=133432831, cols=133432831
          total: nonzeros=8477185319, allocated nonzeros=8477185319
          total number of mallocs used during MatSetValues calls=0
            not using I-node (on process 0) routines
    Up solver (post-smoother) same as down solver (pre-smoother)
    linear system matrix = precond matrix:
    Mat Object: 512 MPI processes
      type: mpiaijkokkos
      rows=133432831, cols=133432831
      total: nonzeros=8477185319, allocated nonzeros=8477185319
      total number of mallocs used during MatSetValues calls=0
        not using I-node (on process 0) routines
****************************************************************************************************************************************************************
***                                WIDEN YOUR WINDOW TO 160 CHARACTERS.  Use 'enscript -r -fCourier9' to print this document                                 ***
****************************************************************************************************************************************************************

------------------------------------------------------------------ PETSc Performance Summary: ------------------------------------------------------------------

/lustre/orion/csc314/scratch/adams/petsc/src/snes/tests/data/../ex13 on a arch-olcf-crusher-kok named frontier00085 with 512 processors, by adams Fri Feb  9 09:14:46 2024
Using Petsc Development GIT revision: v3.20.4-590-g26f22146603  GIT Date: 2024-02-07 12:58:08 -0500

                         Max       Max/Min     Avg       Total
Time (sec):           6.978e+01     1.000   6.978e+01
Objects:              0.000e+00     0.000   0.000e+00
Flops:                2.252e+10     1.082   2.206e+10  1.129e+13
Flops/sec:            3.227e+08     1.082   3.161e+08  1.618e+11
MPI Msg Count:        1.049e+05     3.907   6.632e+04  3.396e+07
MPI Msg Len (bytes):  7.487e+08     2.137   9.484e+03  3.221e+11
MPI Reductions:       6.267e+03     1.000

Flop counting convention: 1 flop = 1 real number operation of type (multiply/divide/add/subtract)
                            e.g., VecAXPY() for real vectors of length N --> 2N flops
                            and VecAXPY() for complex vectors of length N --> 8N flops

Summary of Stages:   ----- Time ------  ----- Flop ------  --- Messages ---  -- Message Lengths --  -- Reductions --
                        Avg     %Total     Avg     %Total    Count   %Total     Avg         %Total    Count   %Total
 0:      Main Stage: 6.7132e+01  96.2%  5.9629e+12  52.8%  2.466e+07  72.6%  1.127e+04       86.3%  6.034e+03  96.3%
 1:      Solve only: 2.6440e+00   3.8%  5.3297e+12  47.2%  9.298e+06  27.4%  4.762e+03       13.7%  2.140e+02   3.4%

------------------------------------------------------------------------------------------------------------------------
See the 'Profiling' chapter of the users' manual for details on interpreting output.
Phase summary info:
   Count: number of times phase was executed
   Time and Flop: Max - maximum over all processors
                  Ratio - ratio of maximum to minimum over all processors
   Mess: number of messages sent
   AvgLen: average message length (bytes)
   Reduct: number of global reductions
   Global: entire computation
   Stage: stages of a computation. Set stages with PetscLogStagePush() and PetscLogStagePop().
      %T - percent time in this phase         %F - percent flop in this phase
      %M - percent messages in this phase     %L - percent message lengths in this phase
      %R - percent reductions in this phase
   Total Mflop/s: 10e-6 * (sum of flop over all processors)/(max time over all processors)
   GPU Mflop/s: 10e-6 * (sum of flop on GPU over all processors)/(max GPU time over all processors)
   CpuToGpu Count: total number of CPU to GPU copies per processor
   CpuToGpu Size (Mbytes): 10e-6 * (total size of CPU to GPU copies per processor)
   GpuToCpu Count: total number of GPU to CPU copies per processor
   GpuToCpu Size (Mbytes): 10e-6 * (total size of GPU to CPU copies per processor)
   GPU %F: percent flops on GPU in this event
------------------------------------------------------------------------------------------------------------------------
Event                Count      Time (sec)     Flop                              --- Global ---  --- Stage ----  Total   GPU    - CpuToGpu -   - GpuToCpu - GPU
                   Max Ratio  Max     Ratio   Max  Ratio  Mess   AvgLen  Reduct  %T %F %M %L %R  %T %F %M %L %R Mflop/s Mflop/s Count   Size   Count   Size  %F
---------------------------------------------------------------------------------------------------------------------------------------------------------------

--- Event Stage 0: Main Stage

BuildTwoSided       1660 1.0 4.1316e+00 4.4 0.00e+00 0.0 2.9e+06 8.0e+00 1.7e+03  3  0  8  0 26   3  0 12  0 28     0       0      0 0.00e+00    0 0.00e+00  0
BuildTwoSidedF        36 1.0 5.3359e-01 4.3 0.00e+00 0.0 4.4e+04 1.5e+05 3.6e+01  1  0  0  2  1   1  0  0  2  1     0       0      0 0.00e+00    0 0.00e+00  0
MatMult             6844 7.7 1.4348e+00 2.2 9.54e+09 1.1 7.4e+06 6.0e+03 0.0e+00  2 42 22 14  0   2 80 30 16  0 3324517       0      3 3.49e-01    0 0.00e+00  100
MatMultAdd           200 1.0 1.2745e-01 2.2 2.95e+08 1.1 1.1e+06 7.0e+02 0.0e+00  0  1  3  0  0   0  2  5  0  0 1162160       0      0 0.00e+00    0 0.00e+00  100
MatMultTranspose     200 1.0 7.6711e-01 8.2 2.96e+08 1.1 1.1e+06 7.0e+02 0.0e+00  0  1  3  0  0   0  2  5  0  0 193213       0      2 3.09e-02    0 0.00e+00  100
MatSolve              50 0.0 8.1365e-03 0.0 2.28e+07 0.0 0.0e+00 0.0e+00 0.0e+00  0  0  0  0  0   0  0  0  0  0  2801       0      0 0.00e+00    0 0.00e+00  0
MatLUFactorSym         1 1.0 2.3872e-02 1749.4 0.00e+00 0.0 0.0e+00 0.0e+00 0.0e+00  0  0  0  0  0   0  0  0  0  0     0       0      0 0.00e+00    0 0.00e+00  0
MatLUFactorNum         1 1.0 3.6711e-02 6979.2 7.20e+07 0.0 0.0e+00 0.0e+00 0.0e+00  0  0  0  0  0   0  0  0  0  0  1962       0      0 0.00e+00    0 0.00e+00  0
MatConvert             4 1.0 1.8223e+00 3.9 0.00e+00 0.0 6.5e+04 2.7e+03 4.0e+00  1  0  0  0  0   1  0  0  0  0     0       0      0 0.00e+00    0 0.00e+00  0
MatScale              12 1.0 1.0632e+00 5.6 4.33e+07 1.1 3.3e+04 5.5e+03 0.0e+00  1  0  0  0  0   1  0  0  0  0 20353       0      3 3.49e-01    0 0.00e+00  100
MatResidual          200 1.0 8.1585e-01 6.2 1.90e+09 1.1 1.6e+06 5.5e+03 0.0e+00  1  8  5  3  0   1 16  7  3  0 1161473       0      0 0.00e+00    0 0.00e+00  100
MatAssemblyBegin     121 1.0 5.3636e-01 2.4 0.00e+00 0.0 4.4e+04 1.5e+05 2.0e+01  1  0  0  2  0   1  0  0  2  0     0       0      0 0.00e+00    0 0.00e+00  0
MatAssemblyEnd       121 1.0 2.5385e+00 1.8 5.88e+05 0.0 5.1e+05 1.4e+03 1.6e+02  3  0  1  0  3   3  0  2  0  3   103       0      0 0.00e+00    0 0.00e+00  0
MatGetRowIJ            1 0.0 7.4861e-04 0.0 0.00e+00 0.0 0.0e+00 0.0e+00 0.0e+00  0  0  0  0  0   0  0  0  0  0     0       0      0 0.00e+00    0 0.00e+00  0
MatCreateSubMat        4 1.0 6.5467e-02 1.0 0.00e+00 0.0 1.3e+04 1.3e+04 6.0e+01  0  0  0  0  1   0  0  0  0  1     0       0      0 0.00e+00    0 0.00e+00  0
MatGetOrdering         1 0.0 1.6445e-03 0.0 0.00e+00 0.0 0.0e+00 0.0e+00 0.0e+00  0  0  0  0  0   0  0  0  0  0     0       0      0 0.00e+00    0 0.00e+00  0
MatCoarsen             4 1.0 1.6144e-01 1.1 0.00e+00 0.0 3.5e+05 7.5e+03 9.5e+01  0  0  1  1  2   0  0  1  1  2     0       0      0 0.00e+00    0 0.00e+00  0
MatZeroEntries         1 1.0 3.6704e-04 2.3 0.00e+00 0.0 0.0e+00 0.0e+00 0.0e+00  0  0  0  0  0   0  0  0  0  0     0       0      0 0.00e+00    0 0.00e+00  0
MatView                8 1.3 2.0761e-02 15.6 0.00e+00 0.0 0.0e+00 0.0e+00 6.0e+00  0  0  0  0  0   0  0  0  0  0     0       0      0 0.00e+00    0 0.00e+00  0
MatAXPY                4 1.0 5.7410e-01 1.6 2.70e+05 1.0 0.0e+00 0.0e+00 4.0e+00  1  0  0  0  0   1  0  0  0  0   239       0      0 0.00e+00    0 0.00e+00  0
MatTranspose           2 1.0 1.2665e-02 1.1 0.00e+00 0.0 1.9e+04 6.8e+01 1.8e+01  0  0  0  0  0   0  0  0  0  0     0       0      0 0.00e+00    0 0.00e+00  0
MatMatMultSym          4 1.0 4.3158e-01 1.0 0.00e+00 0.0 2.6e+05 2.8e+03 3.2e+01  1  0  1  0  1   1  0  1  0  1     0       0      0 0.00e+00    0 0.00e+00  0
MatMatMultNum          4 1.0 7.1530e-06 8.3 0.00e+00 0.0 0.0e+00 0.0e+00 0.0e+00  0  0  0  0  0   0  0  0  0  0     0       0      0 0.00e+00    0 0.00e+00  0
MatPtAPSymbolic        4 1.0 2.0139e+00 1.0 0.00e+00 0.0 6.7e+05 2.6e+04 6.4e+01  3  0  2  5  1   3  0  3  6  1     0       0      0 0.00e+00    0 0.00e+00  0
MatPtAPNumeric         4 1.0 2.5640e-06 3.4 0.00e+00 0.0 0.0e+00 0.0e+00 0.0e+00  0  0  0  0  0   0  0  0  0  0     0       0      0 0.00e+00    0 0.00e+00  0
MatTrnMatMultSym       2 1.0 2.6031e+00 1.0 0.00e+00 0.0 1.2e+05 1.6e+05 1.6e+01  4  0  0  6  0   4  0  1  7  0     0       0      0 0.00e+00    0 0.00e+00  0
MatSetPreallCOO       20 1.0 2.4389e-04 4.4 0.00e+00 0.0 0.0e+00 0.0e+00 0.0e+00  0  0  0  0  0   0  0  0  0  0     0       0      0 0.00e+00    0 0.00e+00  0
MatSetValuesCOO       20 1.0 3.5227e-05 1.4 0.00e+00 0.0 0.0e+00 0.0e+00 0.0e+00  0  0  0  0  0   0  0  0  0  0     0       0      0 0.00e+00    0 0.00e+00  0
KSPSetUp              11 1.0 2.9450e-01 31.2 0.00e+00 0.0 0.0e+00 0.0e+00 0.0e+00  0  0  0  0  0   0  0  0  0  0     0       0      0 0.00e+00    0 0.00e+00  0
KSPSolve               1 1.0 2.8896e+00 1.1 1.03e+10 1.1 9.3e+06 4.8e+03 2.0e+02  4 46 27 14  3   4 86 38 16  3 1778346       0      2 3.09e-02    0 0.00e+00  100
SNESSolve              1 1.0 3.9904e+01 1.0 1.19e+10 1.1 1.1e+07 8.4e+03 7.2e+02 57 53 34 30 11  59 100 46 35 12 149423       0     15 3.88e+00    0 0.00e+00  90
SNESSetUp              1 1.0 7.4863e+00 1.0 0.00e+00 0.0 7.5e+04 2.6e+05 2.2e+01 11  0  0  6  0  11  0  0  7  0     0       0      0 0.00e+00    0 0.00e+00  0
SNESFunctionEval       1 1.0 1.1429e+01 1.1 4.19e+08 1.0 1.1e+04 1.2e+04 3.0e+00 16  2  0  0  0  16  4  0  0  0 18636       0      3 2.26e+00    0 0.00e+00  0
SNESJacobianEval       1 1.0 1.5345e+01 1.1 7.57e+08 1.0 8.6e+03 7.4e+05 2.0e+00 21  3  0  2  0  22  6  0  2  0 25170       0      0 0.00e+00    0 0.00e+00  0
DMRefine               5 1.0 2.2065e-01 1.0 0.00e+00 0.0 1.2e+05 1.4e+03 6.2e+01  0  0  0  0  1   0  0  0  0  1     0       0      0 0.00e+00    0 0.00e+00  0
DMCreateMat            1 1.0 7.4802e+00 1.0 0.00e+00 0.0 7.5e+04 2.6e+05 1.9e+01 11  0  0  6  0  11  0  0  7  0     0       0      0 0.00e+00    0 0.00e+00  0
DMPlexCrFromOpts       1 1.0 8.9995e-03 2.5 0.00e+00 0.0 0.0e+00 0.0e+00 1.0e+00  0  0  0  0  0   0  0  0  0  0     0       0      0 0.00e+00    0 0.00e+00  0
Mesh Partition         1 1.0 1.6480e-02 1.4 0.00e+00 0.0 2.6e+03 2.2e+02 8.0e+00  0  0  0  0  0   0  0  0  0  0     0       0      0 0.00e+00    0 0.00e+00  0
Mesh Migration         1 1.0 1.3298e+00 1.0 0.00e+00 0.0 1.4e+04 1.7e+02 3.2e+01  2  0  0  0  1   2  0  0  0  1     0       0      0 0.00e+00    0 0.00e+00  0
DMPlexPartSelf         1 1.0 4.2427e-03 423.4 0.00e+00 0.0 0.0e+00 0.0e+00 0.0e+00  0  0  0  0  0   0  0  0  0  0     0       0      0 0.00e+00    0 0.00e+00  0
DMPlexPartLblInv       1 1.0 6.7109e-03 2.7 0.00e+00 0.0 0.0e+00 0.0e+00 3.0e+00  0  0  0  0  0   0  0  0  0  0     0       0      0 0.00e+00    0 0.00e+00  0
DMPlexPartLblSF        1 1.0 2.4660e-03 7.3 0.00e+00 0.0 1.0e+03 1.1e+02 1.0e+00  0  0  0  0  0   0  0  0  0  0     0       0      0 0.00e+00    0 0.00e+00  0
DMPlexPartStrtSF       1 1.0 1.9143e-03 3.0 0.00e+00 0.0 5.1e+02 4.3e+02 0.0e+00  0  0  0  0  0   0  0  0  0  0     0       0      0 0.00e+00    0 0.00e+00  0
DMPlexPointSF          1 1.0 1.4341e-02 1.0 0.00e+00 0.0 1.0e+03 5.4e+02 0.0e+00  0  0  0  0  0   0  0  0  0  0     0       0      0 0.00e+00    0 0.00e+00  0
DMPlexInterp          30 1.0 2.1748e-03 2.2 0.00e+00 0.0 0.0e+00 0.0e+00 0.0e+00  0  0  0  0  0   0  0  0  0  0     0       0      0 0.00e+00    0 0.00e+00  0
DMPlexDistribute       1 1.0 1.3619e+00 1.0 0.00e+00 0.0 1.7e+04 2.0e+02 4.3e+01  2  0  0  0  1   2  0  0  0  1     0       0      0 0.00e+00    0 0.00e+00  0
DMPlexDistCones        1 1.0 5.5213e-03 1.1 0.00e+00 0.0 3.1e+03 2.9e+02 2.0e+00  0  0  0  0  0   0  0  0  0  0     0       0      0 0.00e+00    0 0.00e+00  0
DMPlexDistLabels       1 1.0 9.9640e-03 1.0 0.00e+00 0.0 6.4e+03 1.5e+02 2.4e+01  0  0  0  0  0   0  0  0  0  0     0       0      0 0.00e+00    0 0.00e+00  0
DMPlexDistField        1 1.0 1.3124e+00 1.0 0.00e+00 0.0 3.6e+03 8.7e+01 2.0e+00  2  0  0  0  0   2  0  0  0  0     0       0      0 0.00e+00    0 0.00e+00  0
DMPlexStratify        50 1.0 2.4218e-02 2.2 0.00e+00 0.0 0.0e+00 0.0e+00 7.0e+00  0  0  0  0  0   0  0  0  0  0     0       0      0 0.00e+00    0 0.00e+00  0
DMPlexSymmetrize      50 1.0 2.8792e-02 1.2 0.00e+00 0.0 0.0e+00 0.0e+00 0.0e+00  0  0  0  0  0   0  0  0  0  0     0       0      0 0.00e+00    0 0.00e+00  0
DMPlexPrealloc         1 1.0 7.4565e+00 1.0 0.00e+00 0.0 7.5e+04 2.6e+05 1.7e+01 11  0  0  6  0  11  0  0  7  0     0       0      0 0.00e+00    0 0.00e+00  0
DMPlexResidualFE       1 1.0 1.3633e+00 1.4 4.15e+08 1.0 0.0e+00 0.0e+00 0.0e+00  2  2  0  0  0   2  4  0  0  0 155843       0      0 0.00e+00    0 0.00e+00  0
DMPlexJacobianFE       1 1.0 1.4860e+01 1.1 7.54e+08 1.0 5.7e+03 1.1e+06 2.0e+00 20  3  0  2  0  21  6  0  2  0 25956       0      0 0.00e+00    0 0.00e+00  0
DMPlexGenerate         1 1.0 8.9647e-03 2.6 0.00e+00 0.0 0.0e+00 0.0e+00 1.0e+00  0  0  0  0  0   0  0  0  0  0     0       0      0 0.00e+00    0 0.00e+00  0
DMPlexTransform        5 1.0 2.1517e-01 1.0 0.00e+00 0.0 1.2e+05 1.4e+03 3.2e+01  0  0  0  0  1   0  0  0  0  1     0       0      0 0.00e+00    0 0.00e+00  0
SFSetGraph          1633 1.0 3.2411e-02 2.9 0.00e+00 0.0 0.0e+00 0.0e+00 0.0e+00  0  0  0  0  0   0  0  0  0  0     0       0      0 0.00e+00    0 0.00e+00  0
SFSetUp             1624 1.0 4.3212e+00 2.6 0.00e+00 0.0 5.7e+06 7.6e+03 1.6e+03  3  0 17 14 26   3  0 23 16 27     0       0      0 0.00e+00    0 0.00e+00  0
SFBcastBegin        3192 1.0 1.0278e+01 1.4 0.00e+00 0.0 7.3e+06 1.4e+04 0.0e+00 12  0 22 32  0  13  0 30 37  0     0       0      2 2.17e+00    0 0.00e+00  0
SFBcastEnd          3192 1.0 3.3970e+00 10.6 0.00e+00 0.0 0.0e+00 0.0e+00 0.0e+00  2  0  0  0  0   2  0  0  0  0     0       0      1 8.69e-02    0 0.00e+00  0
SFReduceBegin        540 1.0 3.5380e-01 16.8 0.00e+00 0.0 1.6e+06 4.4e+04 0.0e+00  0  0  5 22  0   0  0  6 26  0     0       0      0 0.00e+00    0 0.00e+00  0
SFReduceEnd          540 1.0 2.3083e+00 12.3 1.25e+04 0.0 0.0e+00 0.0e+00 0.0e+00  1  0  0  0  0   1  0  0  0  0     2       0      0 0.00e+00    0 0.00e+00  100
SFFetchOpBegin         2 1.0 1.1711e-02 734.6 0.00e+00 0.0 5.7e+03 3.7e+05 0.0e+00  0  0  0  1  0   0  0  0  1  0     0       0      0 0.00e+00    0 0.00e+00  0
SFFetchOpEnd           2 1.0 6.7052e-02 3.3 0.00e+00 0.0 5.7e+03 3.7e+05 0.0e+00  0  0  0  1  0   0  0  0  1  0     0       0      0 0.00e+00    0 0.00e+00  0
SFCreateEmbed          8 1.0 1.0858e-01 27.2 0.00e+00 0.0 2.1e+04 6.4e+02 0.0e+00  0  0  0  0  0   0  0  0  0  0     0       0      0 0.00e+00    0 0.00e+00  0
SFDistSection       1031 1.0 7.0591e+00 3.5 0.00e+00 0.0 8.8e+06 1.3e+04 1.5e+03  6  0 26 36 25   7  0 36 41 26     0       0      0 0.00e+00    0 0.00e+00  0
SFSectionSF         1038 1.0 3.0965e+00 3.8 0.00e+00 0.0 1.9e+06 1.4e+03 1.0e+03  2  0  5  1 17   2  0  8  1 17     0       0      0 0.00e+00    0 0.00e+00  0
SFRemoteOff            7 1.0 1.1448e-01 10.3 0.00e+00 0.0 6.3e+04 2.1e+03 4.0e+00  0  0  0  0  0   0  0  0  0  0     0       0      0 0.00e+00    0 0.00e+00  0
SFPack              5048 1.0 7.7000e+00 55.4 0.00e+00 0.0 0.0e+00 0.0e+00 0.0e+00 11  0  0  0  0  11  0  0  0  0     0       0     11 1.68e+00    0 0.00e+00  0
SFUnpack            5050 1.0 3.3074e-01 9.1 7.02e+05 7.1 0.0e+00 0.0e+00 0.0e+00  0  0  0  0  0   0  0  0  0  0   315       0      3 1.18e-01    0 0.00e+00  100
VecTDot              194 1.0 7.3208e-01 2.6 6.59e+07 1.0 0.0e+00 0.0e+00 1.9e+02  1  0  0  0  3   1  1  0  0  3 45817       0      0 0.00e+00    0 0.00e+00  100
VecNorm               51 1.0 4.5514e-01 2.6 2.67e+07 1.0 0.0e+00 0.0e+00 5.1e+01  1  0  0  0  1   1  0  0  0  1 29903       0      0 0.00e+00    0 0.00e+00  100
VecCopy              611 1.0 5.1274e-01 2.9 0.00e+00 0.0 0.0e+00 0.0e+00 0.0e+00  0  0  0  0  0   0  0  0  0  0     0       0      0 0.00e+00    0 0.00e+00  0
VecSet               252 1.0 1.7798e-01 18.9 0.00e+00 0.0 0.0e+00 0.0e+00 0.0e+00  0  0  0  0  0   0  0  0  0  0     0       0      0 0.00e+00    0 0.00e+00  0
VecAXPY              181 1.0 4.2640e-01 1.6 6.38e+07 1.0 0.0e+00 0.0e+00 0.0e+00  0  0  0  0  0   0  1  0  0  0 76103       0      0 0.00e+00    0 0.00e+00  100
VecAYPX             1285 1.0 1.5668e-01 41.7 1.93e+08 1.0 0.0e+00 0.0e+00 0.0e+00  0  1  0  0  0   0  2  0  0  0 625469       0      0 0.00e+00    0 0.00e+00  100
VecAXPBYCZ           400 1.0 9.1830e-01 7.3 1.35e+08 1.0 0.0e+00 0.0e+00 0.0e+00  1  1  0  0  0   1  1  0  0  0 74821       0      0 0.00e+00    0 0.00e+00  100
VecAssemblyBegin      18 1.0 9.4172e-02 2.6 0.00e+00 0.0 0.0e+00 0.0e+00 1.6e+01  0  0  0  0  0   0  0  0  0  0     0       0      0 0.00e+00    0 0.00e+00  0
VecAssemblyEnd        18 1.0 1.2833e-04 3.0 0.00e+00 0.0 0.0e+00 0.0e+00 0.0e+00  0  0  0  0  0   0  0  0  0  0     0       0      0 0.00e+00    0 0.00e+00  0
VecPointwiseMult     844 1.0 5.1397e-03 2.2 5.71e+07 1.0 0.0e+00 0.0e+00 0.0e+00  0  0  0  0  0   0  0  0  0  0 5641377       0      0 0.00e+00    0 0.00e+00  100
VecScatterBegin     1314 1.0 5.3484e-01 1.8 0.00e+00 0.0 9.8e+06 4.9e+03 0.0e+00  1  0 29 15  0   1  0 40 17  0     0       0     10 1.59e+00    0 0.00e+00  0
VecScatterEnd       1314 1.0 1.9903e+00 3.7 7.02e+05 7.6 0.0e+00 0.0e+00 0.0e+00  2  0  0  0  0   2  0  0  0  0    50       0      2 3.09e-02    0 0.00e+00  100
DualSpaceSetUp         5 1.0 1.0855e-02 1.2 3.13e+03 1.0 0.0e+00 0.0e+00 0.0e+00  0  0  0  0  0   0  0  0  0  0   148       0      0 0.00e+00    0 0.00e+00  0
FESetUp                5 1.0 6.3177e-04 1.9 0.00e+00 0.0 0.0e+00 0.0e+00 0.0e+00  0  0  0  0  0   0  0  0  0  0     0       0      0 0.00e+00    0 0.00e+00  0
PCSetUp_GAMG+          1 1.0 1.2021e+01 1.1 4.49e+08 1.1 2.1e+06 2.2e+04 5.1e+02 16  2  6 14  8  17  4  8 16  8 18662       0     10 1.59e+00    0 0.00e+00  100
 PCGAMGCreateG         4 1.0 3.3033e+00 1.0 3.74e+07 1.1 1.5e+05 3.4e+03 3.2e+01  5  0  0  0  1   5  0  1  0  1  5654       0      3 3.49e-01    0 0.00e+00  100
 GAMG Coarsen          8 1.0 3.4175e+00 1.0 0.00e+00 0.0 5.7e+05 4.3e+04 1.2e+02  5  0  2  8  2   5  0  2  9  2     0       0      4 8.96e-01    0 0.00e+00  0
  GAMG MIS/Agg         4 1.0 2.7657e+00 1.0 0.00e+00 0.0 4.8e+05 4.9e+04 1.1e+02  4  0  1  7  2   4  0  2  8  2     0       0      0 0.00e+00    0 0.00e+00  0
 PCGAMGProl            4 1.0 3.7249e-01 1.1 0.00e+00 0.0 1.0e+05 8.0e+03 4.8e+01  1  0  0  0  1   1  0  0  0  1     0       0      0 0.00e+00    0 0.00e+00  0
  GAMG Prol-col        4 1.0 2.0784e-01 1.1 0.00e+00 0.0 4.6e+04 1.4e+04 8.0e+00  0  0  0  0  0   0  0  0  0  0     0       0      0 0.00e+00    0 0.00e+00  0
  GAMG Prol-lift       4 1.0 1.3322e-01 1.1 0.00e+00 0.0 5.3e+04 2.9e+03 2.4e+01  0  0  0  0  0   0  0  0  0  0     0       0      0 0.00e+00    0 0.00e+00  0
 PCGAMGOptProl         4 1.0 2.1051e+00 1.0 4.12e+08 1.1 5.9e+05 4.3e+03 1.3e+02  3  2  2  1  2   3  3  2  1  2 97701       0      3 3.49e-01    0 0.00e+00  100
  GAMG smooth          4 1.0 1.3100e+00 1.0 6.18e+06 1.1 2.6e+05 2.8e+03 3.6e+01  2  0  1  0  1   2  0  1  0  1  2366       0      0 0.00e+00    0 0.00e+00  96
 PCGAMGCreateL         4 1.0 2.0984e+00 1.0 0.00e+00 0.0 6.8e+05 2.5e+04 1.7e+02  3  0  2  5  3   3  0  3  6  3     0       0      0 0.00e+00    0 0.00e+00  0
  GAMG PtAP            4 1.0 2.0140e+00 1.0 0.00e+00 0.0 6.7e+05 2.6e+04 6.4e+01  3  0  2  5  1   3  0  3  6  1     0       0      0 0.00e+00    0 0.00e+00  0
  GAMG Reduce          2 1.0 8.4550e-02 1.0 0.00e+00 0.0 1.7e+04 1.0e+04 1.1e+02  0  0  0  0  2   0  0  0  0  2     0       0      0 0.00e+00    0 0.00e+00  0
PCGAMG Squ l00         1 1.0 2.3912e+00 1.0 0.00e+00 0.0 5.5e+04 3.4e+05 8.0e+00  3  0  0  6  0   4  0  0  7  0     0       0      0 0.00e+00    0 0.00e+00  0
PCGAMG Gal l00         1 1.0 1.4585e+00 1.0 0.00e+00 0.0 1.6e+05 6.2e+04 1.6e+01  2  0  0  3  0   2  0  1  3  0     0       0      0 0.00e+00    0 0.00e+00  0
PCGAMG Opt l00         1 1.0 2.8947e-01 1.0 0.00e+00 0.0 8.0e+04 7.0e+03 8.0e+00  0  0  0  0  0   0  0  0  0  0     0       0      0 0.00e+00    0 0.00e+00  0
PCGAMG Squ l01         1 1.0 2.1192e-01 1.0 0.00e+00 0.0 7.0e+04 2.4e+04 8.0e+00  0  0  0  1  0   0  0  0  1  0     0       0      0 0.00e+00    0 0.00e+00  0
PCGAMG Gal l01         1 1.0 2.3032e-01 1.0 0.00e+00 0.0 1.6e+05 2.3e+04 1.6e+01  0  0  0  1  0   0  0  1  1  0     0       0      0 0.00e+00    0 0.00e+00  0
PCGAMG Opt l01         1 1.0 5.7655e-02 1.0 0.00e+00 0.0 8.1e+04 1.6e+03 8.0e+00  0  0  0  0  0   0  0  0  0  0     0       0      0 0.00e+00    0 0.00e+00  0
PCGAMG Gal l02         1 1.0 1.7370e-01 1.0 0.00e+00 0.0 3.0e+05 1.0e+04 1.6e+01  0  0  1  1  0   0  0  1  1  0     0       0      0 0.00e+00    0 0.00e+00  0
PCGAMG Opt l02         1 1.0 3.6218e-02 1.0 0.00e+00 0.0 8.1e+04 4.1e+02 8.0e+00  0  0  0  0  0   0  0  0  0  0     0       0      0 0.00e+00    0 0.00e+00  0
PCGAMG Gal l03         1 1.0 1.5262e-01 1.0 0.00e+00 0.0 4.2e+04 1.0e+04 1.6e+01  0  0  0  0  0   0  0  0  0  0     0       0      0 0.00e+00    0 0.00e+00  0
PCGAMG Opt l03         1 1.0 4.8583e-02 1.0 0.00e+00 0.0 1.8e+04 3.3e+02 8.0e+00  0  0  0  0  0   0  0  0  0  0     0       0      0 0.00e+00    0 0.00e+00  0
PCSetUp                2 1.0 1.2084e+01 1.1 4.81e+08 1.2 2.1e+06 2.2e+04 5.1e+02 16  2  6 14  8  17  4  8 16  8 18572       0     10 1.59e+00    0 0.00e+00  100
PCSetUpOnBlocks       50 1.0 6.2305e-02 708.8 7.20e+07 0.0 0.0e+00 0.0e+00 0.0e+00  0  0  0  0  0   0  0  0  0  0  1156       0      0 0.00e+00    0 0.00e+00  0
PCApply               50 1.0 2.2039e+00 1.0 8.43e+09 1.1 8.8e+06 4.2e+03 5.0e+01  3 37 26 12  1   3 71 36 13  1 1910442       0      2 3.09e-02    0 0.00e+00  100

--- Event Stage 1: Solve only

MatMult             3827 4.5 7.7730e-01 1.3 9.16e+09 1.1 7.0e+06 6.1e+03 0.0e+00  1 41 21 13  0  25 86 76 96  0 5896164       0      0 0.00e+00    0 0.00e+00  100
MatMultAdd           200 1.0 1.2348e-01 2.2 2.95e+08 1.1 1.1e+06 7.0e+02 0.0e+00  0  1  3  0  0   4  3 12  2  0 1199469       0      0 0.00e+00    0 0.00e+00  100
MatMultTranspose     200 1.0 1.6863e-01 1.9 2.96e+08 1.1 1.1e+06 7.0e+02 0.0e+00  0  1  3  0  0   4  3 12  2  0 878936       0      0 0.00e+00    0 0.00e+00  100
MatSolve              50 0.0 7.9898e-03 0.0 2.28e+07 0.0 0.0e+00 0.0e+00 0.0e+00  0  0  0  0  0   0  0  0  0  0  2852       0      0 0.00e+00    0 0.00e+00  0
MatResidual          200 1.0 1.9294e-01 1.6 1.90e+09 1.1 1.6e+06 5.5e+03 0.0e+00  0  8  5  3  0   6 18 18 20  0 4911296       0      0 0.00e+00    0 0.00e+00  100
MatView                8 1.3 1.1756e-02 12.1 0.00e+00 0.0 0.0e+00 0.0e+00 6.0e+00  0  0  0  0  0   0  0  0  0  3     0       0      0 0.00e+00    0 0.00e+00  0
KSPSetUp               1 1.0 1.0920e-06 5.7 0.00e+00 0.0 0.0e+00 0.0e+00 0.0e+00  0  0  0  0  0   0  0  0  0  0     0       0      0 0.00e+00    0 0.00e+00  0
KSPSolve               1 1.0 1.6343e+00 1.1 1.03e+10 1.1 9.3e+06 4.8e+03 2.0e+02  2 46 27 14  3  59 96 100 100 95 3144184       0      0 0.00e+00    0 0.00e+00  100
SNESSolve              1 1.0 2.6311e+00 1.0 1.06e+10 1.1 9.3e+06 4.8e+03 2.0e+02  4 47 27 14  3 100 100 100 100 95 2025635       0      0 0.00e+00    0 0.00e+00  96
SNESFunctionEval       1 1.0 1.1510e+00 1.2 3.76e+08 1.0 5.7e+03 1.6e+04 0.0e+00  2  2  0  0  0  40  4  0  0  0 165758       0      0 0.00e+00    0 0.00e+00  0
DMPlexResidualFE       1 1.0 1.0026e+00 1.2 3.72e+08 1.0 0.0e+00 0.0e+00 0.0e+00  1  2  0  0  0  32  4  0  0  0 189764       0      0 0.00e+00    0 0.00e+00  0
SFBcastBegin           1 1.0 3.9316e-04 16.1 0.00e+00 0.0 2.9e+03 1.6e+04 0.0e+00  0  0  0  0  0   0  0  0  0  0     0       0      0 0.00e+00    0 0.00e+00  0
SFBcastEnd             1 1.0 6.9680e-02 5480.6 0.00e+00 0.0 0.0e+00 0.0e+00 0.0e+00  0  0  0  0  0   1  0  0  0  0     0       0      0 0.00e+00    0 0.00e+00  0
SFReduceBegin          1 1.0 6.3246e-04 29.9 0.00e+00 0.0 2.9e+03 1.6e+04 0.0e+00  0  0  0  0  0   0  0  0  0  0     0       0      0 0.00e+00    0 0.00e+00  0
SFReduceEnd            1 1.0 1.6305e-01 24145.5 1.25e+04 0.0 0.0e+00 0.0e+00 0.0e+00  0  0  0  0  0   1  0  0  0  0    34       0      0 0.00e+00    0 0.00e+00  100
SFPack              1252 1.0 5.5133e-03 2.3 0.00e+00 0.0 0.0e+00 0.0e+00 0.0e+00  0  0  0  0  0   0  0  0  0  0     0       0      0 0.00e+00    0 0.00e+00  0
SFUnpack            1252 1.0 1.6842e-03 3.3 7.02e+05 7.1 0.0e+00 0.0e+00 0.0e+00  0  0  0  0  0   0  0  0  0  0 61930       0      0 0.00e+00    0 0.00e+00  100
VecTDot              102 1.0 3.0754e-01 1.5 5.35e+07 1.0 0.0e+00 0.0e+00 1.0e+02  0  0  0  0  2   9  1  0  0 48 88510       0      0 0.00e+00    0 0.00e+00  100
VecNorm               51 1.0 1.7370e-01 9.0 2.67e+07 1.0 0.0e+00 0.0e+00 5.1e+01  0  0  0  0  1   4  0  0  0 24 78352       0      0 0.00e+00    0 0.00e+00  100
VecCopy              602 1.0 2.7253e-01 1.6 0.00e+00 0.0 0.0e+00 0.0e+00 0.0e+00  0  0  0  0  0   8  0  0  0  0     0       0      0 0.00e+00    0 0.00e+00  0
VecSet               255 1.0 2.3169e-02 2.4 0.00e+00 0.0 0.0e+00 0.0e+00 0.0e+00  0  0  0  0  0   1  0  0  0  0     0       0      0 0.00e+00    0 0.00e+00  0
VecAXPY              101 1.0 7.9152e-04 2.0 5.30e+07 1.0 0.0e+00 0.0e+00 0.0e+00  0  0  0  0  0   0  1  0  0  0 34052835       0      0 0.00e+00    0 0.00e+00  100
VecAYPX             1249 1.0 7.6747e-03 2.1 1.88e+08 1.0 0.0e+00 0.0e+00 0.0e+00  0  1  0  0  0   0  2  0  0  0 12446987       0      0 0.00e+00    0 0.00e+00  100
VecAXPBYCZ           400 1.0 2.5465e-03 1.9 1.35e+08 1.0 0.0e+00 0.0e+00 0.0e+00  0  1  0  0  0   0  1  0  0  0 26981154       0      0 0.00e+00    0 0.00e+00  100
VecPointwiseMult     800 1.0 4.6400e-03 2.1 5.41e+07 1.0 0.0e+00 0.0e+00 0.0e+00  0  0  0  0  0   0  1  0  0  0 5923122       0      0 0.00e+00    0 0.00e+00  100
VecScatterBegin     1250 1.0 4.5665e-01 1.7 0.00e+00 0.0 9.3e+06 4.8e+03 0.0e+00  0  0 27 14  0  13  0 100 100  0     0       0      0 0.00e+00    0 0.00e+00  0
VecScatterEnd       1250 1.0 6.1743e-01 1.6 7.02e+05 7.6 0.0e+00 0.0e+00 0.0e+00  1  0  0  0  0  20  0  0  0  0   160       0      0 0.00e+00    0 0.00e+00  100
PCSetUpOnBlocks       50 1.0 2.9043e-05 1.9 0.00e+00 0.0 0.0e+00 0.0e+00 0.0e+00  0  0  0  0  0   0  0  0  0  0     0       0      0 0.00e+00    0 0.00e+00  0
PCApply               50 1.0 1.2278e+00 1.1 8.43e+09 1.1 8.8e+06 4.2e+03 5.0e+01  2 37 26 12  1  45 79 94 84 23 3429100       0      0 0.00e+00    0 0.00e+00  100
---------------------------------------------------------------------------------------------------------------------------------------------------------------

Object Type          Creations   Destructions. Reports information only for process 0.

--- Event Stage 0: Main Stage

           Container    73             73
                SNES     1              1
              DMSNES     1              1
       Krylov Solver    11             11
     DMKSP interface     1              1
              Matrix   275            275
      Matrix Coarsen     4              4
    Distributed Mesh   111            111
            DM Label  1296           1296
          Quadrature   286            286
      Mesh Transform     5              5
           Index Set  5880           5880
   IS L to G Mapping   194            194
             Section  2436           2436
   Star Forest Graph  1845           1845
     Discrete System   173            173
           Weak Form   174            174
    GraphPartitioner    50             50
              Vector   234            234
        Linear Space    10             10
          Dual Space    49             49
            FE Space     5              5
              Viewer     2              2
      Preconditioner    11             11
       Field over DM     1              1
         PetscRandom     4              4

--- Event Stage 1: Solve only

          Quadrature     1              1
           Index Set    31             31
              Viewer     1              1
========================================================================================================================
Average time to get PetscTime(): 4.61e-08
Average time for MPI_Barrier(): 1.87582e-05
Average time for zero size MPI_Send(): 8.41239e-06
#PETSc Option Table entries:
-benchmark_it 1 # (source: file)
-dm_mat_type aijkokkos # (source: file)
-dm_plex_box_faces 8,8,8 # (source: command line)
-dm_plex_box_lower 0,0,0 # (source: file)
-dm_plex_box_upper 4,2,1 # (source: file)
-dm_plex_dim 3 # (source: file)
-dm_plex_simplex 0 # (source: file)
-dm_refine 5 # (source: command line)
-dm_vec_type kokkos # (source: file)
-dm_view # (source: file)
-info :pc,is # (source: file)
-ksp_converged_reason # (source: file)
-ksp_monitor # (source: file)
-ksp_norm_type unpreconditioned # (source: file)
-ksp_rtol 1e-12 # (source: file)
-ksp_type cg # (source: file)
-log_view # (source: file)
-mg_levels_ksp_chebyshev_esteig 0,0.2,0,1.05 # (source: file)
-options_left # (source: file)
-pc_gamg_aggressive_coarsening 2 # (source: file)
-pc_gamg_aggressive_square_graph true # (source: file)
-pc_gamg_coarse_eq_limit 1000 # (source: file)
-pc_gamg_esteig_ksp_type cg # (source: file)
-pc_gamg_mis_k_minimum_degree_ordering true # (source: file)
-pc_gamg_process_eq_limit 200 # (source: file)
-pc_gamg_reuse_interpolation true # (source: file)
-pc_gamg_threshold 0.04 # (source: file)
-pc_gamg_threshold_scale .25 # (source: file)
-pc_type gamg # (source: file)
-petscpartitioner_simple_node_grid 2,2,2 # (source: command line)
-petscpartitioner_simple_process_grid 4,4,4 # (source: file)
-petscpartitioner_type simple # (source: file)
-potential_petscspace_degree 2 # (source: command line)
-snes_lag_jacobian -2 # (source: file)
-snes_type ksponly # (source: file)
-snes_view # (source: file)
#End of PETSc Option Table entries
Compiled without FORTRAN kernels
Compiled with 64-bit PetscInt
Compiled with full precision matrices (default)
sizeof(short) 2 sizeof(int) 4 sizeof(long) 8 sizeof(void*) 8 sizeof(PetscScalar) 8 sizeof(PetscInt) 8
Configure options: --with-cc=cc --with-cxx=CC --with-fc=ftn --with-strict-petscerrorcode --with-make-np=8 LIBS="-L/opt/cray/pe/mpich/8.1.27/gtl/lib -lmpi_gtl_hsa" --with-debugging=0 --COPTFLAGS="-g -Ofast -march=native -Wno-deprecated" --CXXOPTFLAGS="-g -Ofast -march=native -Wno-deprecated" --FOPTFLAGS="-g -Ofast -march=native" --with-64-bit-indices=1 --with-mpiexec=srun --with-hip --with-hipc=hipcc --download-hdf5=1 --download-metis --download-parmetis --download-hypre --download-hypre-configure-arguments="--enable-bigint=no --enable-mixedint=yes" --with-hypre-gpuarch=gfx90a --with-hip-arch=gfx90a --download-kokkos --download-kokkos-kernels --with-kokkos-kernels-tpl=0 PETSC_ARCH=arch-olcf-crusher-kok
-----------------------------------------
Libraries compiled on 2024-02-08 13:00:33 on login08 
Machine characteristics: Linux-5.14.21-150400.24.46_12.0.83-cray_shasta_c-x86_64-with-glibc2.3.4
Using PETSc directory: /lustre/orion/csc314/scratch/adams/petsc
Using PETSc arch: arch-olcf-crusher-kok
-----------------------------------------

Using C compiler: cc  -fPIC -Wall -Wwrite-strings -Wno-unknown-pragmas -Wno-lto-type-mismatch -Wno-stringop-overflow -fstack-protector -fvisibility=hidden -g -Ofast -march=native -Wno-deprecated  
Using Fortran compiler: ftn  -fPIC -Wall -ffree-line-length-none -ffree-line-length-0 -Wno-lto-type-mismatch -Wno-unused-dummy-argument -g -Ofast -march=native    
-----------------------------------------

Using include paths: -I/lustre/orion/csc314/scratch/adams/petsc/include -I/lustre/orion/csc314/scratch/adams/petsc/arch-olcf-crusher-kok/include -I/opt/rocm-5.4.3/include
-----------------------------------------

Using C linker: cc
Using Fortran linker: ftn
Using libraries: -Wl,-rpath,/lustre/orion/csc314/scratch/adams/petsc/arch-olcf-crusher-kok/lib -L/lustre/orion/csc314/scratch/adams/petsc/arch-olcf-crusher-kok/lib -lpetsc -Wl,-rpath,/lustre/orion/csc314/scratch/adams/petsc/arch-olcf-crusher-kok/lib -L/lustre/orion/csc314/scratch/adams/petsc/arch-olcf-crusher-kok/lib -Wl,-rpath,/opt/rocm-5.4.3/lib -L/opt/rocm-5.4.3/lib -Wl,-rpath,/opt/cray/pe/mpich/8.1.27/gtl/lib -L/opt/cray/pe/mpich/8.1.27/gtl/lib -Wl,-rpath,/opt/cray/pe/mpich/8.1.27/ofi/gnu/9.1/lib -L/opt/cray/pe/mpich/8.1.27/ofi/gnu/9.1/lib -Wl,-rpath,/opt/cray/pe/libsci/22.12.1.1/GNU/9.1/x86_64/lib -L/opt/cray/pe/libsci/22.12.1.1/GNU/9.1/x86_64/lib -Wl,-rpath,/sw/frontier/spack-envs/base/opt/cray-sles15-zen3/gcc-12.2.0/darshan-runtime-3.4.0-ftq5gccg3qjtyh5xeo2bz4wqkjayjhw3/lib -L/sw/frontier/spack-envs/base/opt/cray-sles15-zen3/gcc-12.2.0/darshan-runtime-3.4.0-ftq5gccg3qjtyh5xeo2bz4wqkjayjhw3/lib -Wl,-rpath,/opt/cray/pe/dsmml/0.2.2/dsmml/lib -L/opt/cray/pe/dsmml/0.2.2/dsmml/lib -Wl,-rpath,/opt/cray/pe/pmi/6.1.8/lib -L/opt/cray/pe/pmi/6.1.8/lib -Wl,-rpath,/opt/cray/xpmem/2.6.2-2.5_2.22__gd067c3f.shasta/lib64 -L/opt/cray/xpmem/2.6.2-2.5_2.22__gd067c3f.shasta/lib64 -Wl,-rpath,/opt/cray/pe/gcc/12.2.0/snos/lib/gcc/x86_64-suse-linux/12.2.0 -L/opt/cray/pe/gcc/12.2.0/snos/lib/gcc/x86_64-suse-linux/12.2.0 -Wl,-rpath,/opt/cray/pe/gcc/12.2.0/snos/lib64 -L/opt/cray/pe/gcc/12.2.0/snos/lib64 -Wl,-rpath,/opt/rocm-5.4.3/llvm/lib -L/opt/rocm-5.4.3/llvm/lib -Wl,-rpath,/opt/cray/pe/gcc/12.2.0/snos/lib -L/opt/cray/pe/gcc/12.2.0/snos/lib -lHYPRE -lkokkoskernels -lkokkoscontainers -lkokkoscore -lkokkossimd -lparmetis -lmetis -lhdf5_hl -lhdf5 -lhipsparse -lhipblas -lhipsolver -lrocsparse -lrocsolver -lrocblas -lrocrand -lamdhip64 -lmpi_gtl_hsa -ldarshan -lz -ldl -lxpmem -lgfortran -lm -lmpifort_gnu_91 -lmpi_gnu_91 -lsci_gnu_82_mpi -lsci_gnu_82 -ldsmml -lpmi -lpmi2 -lgfortran -lquadmath -lpthread -lm -lgcc_s -lstdc++ -lquadmath -lmpi_gtl_hsa
-----------------------------------------

#PETSc Option Table entries:
-benchmark_it 1 # (source: file)
-dm_mat_type aijkokkos # (source: file)
-dm_plex_box_faces 8,8,8 # (source: command line)
-dm_plex_box_lower 0,0,0 # (source: file)
-dm_plex_box_upper 4,2,1 # (source: file)
-dm_plex_dim 3 # (source: file)
-dm_plex_simplex 0 # (source: file)
-dm_refine 5 # (source: command line)
-dm_vec_type kokkos # (source: file)
-dm_view # (source: file)
-info :pc,is # (source: file)
-ksp_converged_reason # (source: file)
-ksp_monitor # (source: file)
-ksp_norm_type unpreconditioned # (source: file)
-ksp_rtol 1e-12 # (source: file)
-ksp_type cg # (source: file)
-log_view # (source: file)
-mg_levels_ksp_chebyshev_esteig 0,0.2,0,1.05 # (source: file)
-options_left # (source: file)
-pc_gamg_aggressive_coarsening 2 # (source: file)
-pc_gamg_aggressive_square_graph true # (source: file)
-pc_gamg_coarse_eq_limit 1000 # (source: file)
-pc_gamg_esteig_ksp_type cg # (source: file)
-pc_gamg_mis_k_minimum_degree_ordering true # (source: file)
-pc_gamg_process_eq_limit 200 # (source: file)
-pc_gamg_reuse_interpolation true # (source: file)
-pc_gamg_threshold 0.04 # (source: file)
-pc_gamg_threshold_scale .25 # (source: file)
-pc_type gamg # (source: file)
-petscpartitioner_simple_node_grid 2,2,2 # (source: command line)
-petscpartitioner_simple_process_grid 4,4,4 # (source: file)
-petscpartitioner_type simple # (source: file)
-potential_petscspace_degree 2 # (source: command line)
-snes_lag_jacobian -2 # (source: file)
-snes_type ksponly # (source: file)
-snes_view # (source: file)
#End of PETSc Option Table entries
There are no unused options.
